%!PS-Adobe-3.0
%%Creator: PCBNEW
%%CreationDate: Mon Nov  9 01:39:01 2020
%%Title: /Users/jakub/Google Drive/1. College/Wireless ECG PPG/KiCad_PCB/Wireless_ECG_PPG_RX/Gerbers/Wireless_ECG_PPG_RX-NPTH-drl_map.ps
%%Pages: 1
%%PageOrder: Ascend
%%BoundingBox: 0 0 596 842
%%DocumentMedia: A4 595 842 0 () ()
%%Orientation: Landscape
%%EndComments
%%BeginProlog
/line { newpath moveto lineto stroke } bind def
/cir0 { newpath 0 360 arc stroke } bind def
/cir1 { newpath 0 360 arc gsave fill grestore stroke } bind def
/cir2 { newpath 0 360 arc gsave fill grestore stroke } bind def
/arc0 { newpath arc stroke } bind def
/arc1 { newpath 4 index 4 index moveto arc closepath gsave fill
    grestore stroke } bind def
/arc2 { newpath 4 index 4 index moveto arc closepath gsave fill
    grestore stroke } bind def
/poly0 { stroke } bind def
/poly1 { closepath gsave fill grestore stroke } bind def
/poly2 { closepath gsave fill grestore stroke } bind def
/rect0 { rectstroke } bind def
/rect1 { rectfill } bind def
/rect2 { rectfill } bind def
/linemode0 { 0 setlinecap 0 setlinejoin 0 setlinewidth } bind def
/linemode1 { 1 setlinecap 1 setlinejoin } bind def
/dashedline { [200] 100 setdash } bind def
/solidline { [] 0 setdash } bind def
/phantomshow { moveto
    /KicadFont findfont 0.000001 scalefont setfont
    show } bind def
/textshow { gsave
    findfont exch scalefont setfont concat 1 scale 0 0 moveto show
    } bind def
/reencodefont {
  findfont dup length dict begin
  { 1 index /FID ne
    { def }
    { pop pop } ifelse
  } forall
  /Encoding ISOLatin1Encoding def
  currentdict
  end } bind def
/KicadFont /Helvetica reencodefont definefont pop
/KicadFont-Bold /Helvetica-Bold reencodefont definefont pop
/KicadFont-Oblique /Helvetica-Oblique reencodefont definefont pop
/KicadFont-BoldOblique /Helvetica-BoldOblique reencodefont definefont pop
%%EndProlog
%%Page: 1 1
%%BeginPageSetup
gsave
0.0072 0.0072 scale
linemode1
82680 0 translate 90 rotate
116.36 setlinewidth
%%EndPageSetup
0 0 0 setrgbcolor
45.8112 setlinewidth
newpath
39225.1 39322.5 moveto
39225.1 37948.1 lineto
stroke
0 0 0 setrgbcolor
newpath
77704.9 39322.5 moveto
77706.5 37948.1 lineto
stroke
0 0 0 setrgbcolor
40141.3 37948.1 916.224 -180 -90 arc0
0 0 0 setrgbcolor
76790.3 37948.1 916.224 -90 -0 arc0
0 0 0 setrgbcolor
newpath
40141.3 37031.9 moveto
76790.3 37031.9 lineto
stroke
0 0 0 setrgbcolor
newpath
77704.9 77803.9 moveto
77704.9 39322.5 lineto
stroke
0 0 0 setrgbcolor
newpath
39223.5 77803.9 moveto
39225.1 39322.5 lineto
stroke
0 0 0 setrgbcolor
76788.7 77803.9 916.224 -0 90 arc0
0 0 0 setrgbcolor
newpath
40139.7 78720.1 moveto
76790.3 78720.1 lineto
stroke
0 0 0 setrgbcolor
40139.7 77803.9 916.224 90 180 arc0
78.7393 setlinewidth
newpath
44478 41947.5 moveto
45055.3 41370.2 lineto
stroke
newpath
45055.3 41947.5 moveto
44478 41370.2 lineto
stroke
newpath
49975.4 41947.5 moveto
50552.6 41370.2 lineto
stroke
newpath
50552.6 41947.5 moveto
49975.4 41370.2 lineto
stroke
118.11 setlinewidth
0 0 0 setrgbcolor
0 0 0 setrgbcolor
newpath
40328.3 35175.5 moveto
40328.3 36356.6 lineto
40609.5 36356.6 lineto
40778.2 36300.3 lineto
40890.7 36187.9 lineto
40946.9 36075.4 lineto
41003.2 35850.4 lineto
41003.2 35681.7 lineto
40946.9 35456.7 lineto
40890.7 35344.2 lineto
40778.2 35231.7 lineto
40609.5 35175.5 lineto
40328.3 35175.5 lineto
stroke
newpath
41509.4 35175.5 moveto
41509.4 35962.9 lineto
stroke
newpath
41509.4 35737.9 moveto
41565.6 35850.4 lineto
41621.8 35906.6 lineto
41734.3 35962.9 lineto
41846.8 35962.9 lineto
stroke
newpath
42240.5 35175.5 moveto
42240.5 35962.9 lineto
stroke
newpath
42240.5 36356.6 moveto
42184.3 36300.3 lineto
42240.5 36244.1 lineto
42296.8 36300.3 lineto
42240.5 36356.6 lineto
42240.5 36244.1 lineto
stroke
newpath
42971.7 35175.5 moveto
42859.2 35231.7 lineto
42802.9 35344.2 lineto
42802.9 36356.6 lineto
stroke
newpath
43590.3 35175.5 moveto
43477.9 35231.7 lineto
43421.6 35344.2 lineto
43421.6 36356.6 lineto
stroke
newpath
44940.2 35175.5 moveto
44940.2 36356.6 lineto
45333.9 35512.9 lineto
45727.6 36356.6 lineto
45727.6 35175.5 lineto
stroke
newpath
46796.2 35175.5 moveto
46796.2 35794.2 lineto
46740 35906.6 lineto
46627.5 35962.9 lineto
46402.5 35962.9 lineto
46290 35906.6 lineto
stroke
newpath
46796.2 35231.7 moveto
46683.7 35175.5 lineto
46402.5 35175.5 lineto
46290 35231.7 lineto
46233.8 35344.2 lineto
46233.8 35456.7 lineto
46290 35569.2 lineto
46402.5 35625.4 lineto
46683.7 35625.4 lineto
46796.2 35681.7 lineto
stroke
newpath
47358.6 35962.9 moveto
47358.6 34781.8 lineto
stroke
newpath
47358.6 35906.6 moveto
47471.1 35962.9 lineto
47696.1 35962.9 lineto
47808.6 35906.6 lineto
47864.8 35850.4 lineto
47921.1 35737.9 lineto
47921.1 35400.5 lineto
47864.8 35288 lineto
47808.6 35231.7 lineto
47696.1 35175.5 lineto
47471.1 35175.5 lineto
47358.6 35231.7 lineto
stroke
newpath
48427.2 35288 moveto
48483.5 35231.7 lineto
48427.2 35175.5 lineto
48371 35231.7 lineto
48427.2 35288 lineto
48427.2 35175.5 lineto
stroke
newpath
48427.2 35906.6 moveto
48483.5 35850.4 lineto
48427.2 35794.2 lineto
48371 35850.4 lineto
48427.2 35906.6 lineto
48427.2 35794.2 lineto
stroke
newpath
38623.4 33518.1 moveto
39200.6 32940.9 lineto
stroke
newpath
39200.6 33518.1 moveto
38623.4 32940.9 lineto
stroke
0 0 0 setrgbcolor
0 0 0 setrgbcolor
newpath
40553.2 33876.3 moveto
40665.7 33876.3 lineto
40778.2 33820 lineto
40834.4 33763.8 lineto
40890.7 33651.3 lineto
40946.9 33426.3 lineto
40946.9 33145.1 lineto
40890.7 32920.1 lineto
40834.4 32807.7 lineto
40778.2 32751.4 lineto
40665.7 32695.2 lineto
40553.2 32695.2 lineto
40440.7 32751.4 lineto
40384.5 32807.7 lineto
40328.3 32920.1 lineto
40272 33145.1 lineto
40272 33426.3 lineto
40328.3 33651.3 lineto
40384.5 33763.8 lineto
40440.7 33820 lineto
40553.2 33876.3 lineto
stroke
newpath
41453.1 32807.7 moveto
41509.4 32751.4 lineto
41453.1 32695.2 lineto
41396.9 32751.4 lineto
41453.1 32807.7 lineto
41453.1 32695.2 lineto
stroke
newpath
42521.7 33876.3 moveto
42296.8 33876.3 lineto
42184.3 33820 lineto
42128 33763.8 lineto
42015.5 33595.1 lineto
41959.3 33370.1 lineto
41959.3 32920.1 lineto
42015.5 32807.7 lineto
42071.8 32751.4 lineto
42184.3 32695.2 lineto
42409.2 32695.2 lineto
42521.7 32751.4 lineto
42578 32807.7 lineto
42634.2 32920.1 lineto
42634.2 33201.4 lineto
42578 33313.8 lineto
42521.7 33370.1 lineto
42409.2 33426.3 lineto
42184.3 33426.3 lineto
42071.8 33370.1 lineto
42015.5 33313.8 lineto
41959.3 33201.4 lineto
stroke
newpath
43027.9 33876.3 moveto
43759.1 33876.3 lineto
43365.4 33426.3 lineto
43534.1 33426.3 lineto
43646.6 33370.1 lineto
43702.8 33313.8 lineto
43759.1 33201.4 lineto
43759.1 32920.1 lineto
43702.8 32807.7 lineto
43646.6 32751.4 lineto
43534.1 32695.2 lineto
43196.6 32695.2 lineto
43084.2 32751.4 lineto
43027.9 32807.7 lineto
stroke
newpath
44265.3 32695.2 moveto
44265.3 33482.6 lineto
stroke
newpath
44265.3 33370.1 moveto
44321.5 33426.3 lineto
44434 33482.6 lineto
44602.7 33482.6 lineto
44715.2 33426.3 lineto
44771.4 33313.8 lineto
44771.4 32695.2 lineto
stroke
newpath
44771.4 33313.8 moveto
44827.7 33426.3 lineto
44940.2 33482.6 lineto
45108.9 33482.6 lineto
45221.4 33426.3 lineto
45277.6 33313.8 lineto
45277.6 32695.2 lineto
stroke
newpath
45840.1 32695.2 moveto
45840.1 33482.6 lineto
stroke
newpath
45840.1 33370.1 moveto
45896.3 33426.3 lineto
46008.8 33482.6 lineto
46177.5 33482.6 lineto
46290 33426.3 lineto
46346.3 33313.8 lineto
46346.3 32695.2 lineto
stroke
newpath
46346.3 33313.8 moveto
46402.5 33426.3 lineto
46515 33482.6 lineto
46683.7 33482.6 lineto
46796.2 33426.3 lineto
46852.4 33313.8 lineto
46852.4 32695.2 lineto
stroke
newpath
49158.4 33932.5 moveto
48146 32414 lineto
stroke
newpath
50677 33876.3 moveto
50789.4 33876.3 lineto
50901.9 33820 lineto
50958.2 33763.8 lineto
51014.4 33651.3 lineto
51070.7 33426.3 lineto
51070.7 33145.1 lineto
51014.4 32920.1 lineto
50958.2 32807.7 lineto
50901.9 32751.4 lineto
50789.4 32695.2 lineto
50677 32695.2 lineto
50564.5 32751.4 lineto
50508.2 32807.7 lineto
50452 32920.1 lineto
50395.7 33145.1 lineto
50395.7 33426.3 lineto
50452 33651.3 lineto
50508.2 33763.8 lineto
50564.5 33820 lineto
50677 33876.3 lineto
stroke
newpath
51576.8 32807.7 moveto
51633.1 32751.4 lineto
51576.8 32695.2 lineto
51520.6 32751.4 lineto
51576.8 32807.7 lineto
51576.8 32695.2 lineto
stroke
newpath
52364.2 33876.3 moveto
52476.7 33876.3 lineto
52589.2 33820 lineto
52645.5 33763.8 lineto
52701.7 33651.3 lineto
52757.9 33426.3 lineto
52757.9 33145.1 lineto
52701.7 32920.1 lineto
52645.5 32807.7 lineto
52589.2 32751.4 lineto
52476.7 32695.2 lineto
52364.2 32695.2 lineto
52251.8 32751.4 lineto
52195.5 32807.7 lineto
52139.3 32920.1 lineto
52083 33145.1 lineto
52083 33426.3 lineto
52139.3 33651.3 lineto
52195.5 33763.8 lineto
52251.8 33820 lineto
52364.2 33876.3 lineto
stroke
newpath
53207.9 33763.8 moveto
53264.1 33820 lineto
53376.6 33876.3 lineto
53657.8 33876.3 lineto
53770.3 33820 lineto
53826.6 33763.8 lineto
53882.8 33651.3 lineto
53882.8 33538.8 lineto
53826.6 33370.1 lineto
53151.6 32695.2 lineto
53882.8 32695.2 lineto
stroke
newpath
54951.4 33876.3 moveto
54389 33876.3 lineto
54332.7 33313.8 lineto
54389 33370.1 lineto
54501.5 33426.3 lineto
54782.7 33426.3 lineto
54895.2 33370.1 lineto
54951.4 33313.8 lineto
55007.7 33201.4 lineto
55007.7 32920.1 lineto
54951.4 32807.7 lineto
54895.2 32751.4 lineto
54782.7 32695.2 lineto
54501.5 32695.2 lineto
54389 32751.4 lineto
54332.7 32807.7 lineto
stroke
newpath
55457.6 33876.3 moveto
55457.6 33651.3 lineto
stroke
newpath
55907.6 33876.3 moveto
55907.6 33651.3 lineto
stroke
newpath
57651.1 32245.2 moveto
57594.8 32301.5 lineto
57482.4 32470.2 lineto
57426.1 32582.7 lineto
57369.9 32751.4 lineto
57313.6 33032.6 lineto
57313.6 33257.6 lineto
57369.9 33538.8 lineto
57426.1 33707.5 lineto
57482.4 33820 lineto
57594.8 33988.8 lineto
57651.1 34045 lineto
stroke
newpath
58044.8 33763.8 moveto
58101 33820 lineto
58213.5 33876.3 lineto
58494.7 33876.3 lineto
58607.2 33820 lineto
58663.5 33763.8 lineto
58719.7 33651.3 lineto
58719.7 33538.8 lineto
58663.5 33370.1 lineto
57988.5 32695.2 lineto
58719.7 32695.2 lineto
stroke
newpath
60125.8 32695.2 moveto
60125.8 33876.3 lineto
stroke
newpath
60632 32695.2 moveto
60632 33313.8 lineto
60575.7 33426.3 lineto
60463.2 33482.6 lineto
60294.5 33482.6 lineto
60182 33426.3 lineto
60125.8 33370.1 lineto
stroke
newpath
61363.1 32695.2 moveto
61250.6 32751.4 lineto
61194.4 32807.7 lineto
61138.1 32920.1 lineto
61138.1 33257.6 lineto
61194.4 33370.1 lineto
61250.6 33426.3 lineto
61363.1 33482.6 lineto
61531.8 33482.6 lineto
61644.3 33426.3 lineto
61700.6 33370.1 lineto
61756.8 33257.6 lineto
61756.8 32920.1 lineto
61700.6 32807.7 lineto
61644.3 32751.4 lineto
61531.8 32695.2 lineto
61363.1 32695.2 lineto
stroke
newpath
62431.7 32695.2 moveto
62319.2 32751.4 lineto
62263 32863.9 lineto
62263 33876.3 lineto
stroke
newpath
63331.6 32751.4 moveto
63219.1 32695.2 lineto
62994.2 32695.2 lineto
62881.7 32751.4 lineto
62825.4 32863.9 lineto
62825.4 33313.8 lineto
62881.7 33426.3 lineto
62994.2 33482.6 lineto
63219.1 33482.6 lineto
63331.6 33426.3 lineto
63387.9 33313.8 lineto
63387.9 33201.4 lineto
62825.4 33088.9 lineto
stroke
newpath
63837.8 32751.4 moveto
63950.3 32695.2 lineto
64175.3 32695.2 lineto
64287.8 32751.4 lineto
64344 32863.9 lineto
64344 32920.1 lineto
64287.8 33032.6 lineto
64175.3 33088.9 lineto
64006.5 33088.9 lineto
63894.1 33145.1 lineto
63837.8 33257.6 lineto
63837.8 33313.8 lineto
63894.1 33426.3 lineto
64006.5 33482.6 lineto
64175.3 33482.6 lineto
64287.8 33426.3 lineto
stroke
newpath
64737.7 32245.2 moveto
64793.9 32301.5 lineto
64906.4 32470.2 lineto
64962.7 32582.7 lineto
65018.9 32751.4 lineto
65075.2 33032.6 lineto
65075.2 33257.6 lineto
65018.9 33538.8 lineto
64962.7 33707.5 lineto
64906.4 33820 lineto
64793.9 33988.8 lineto
64737.7 34045 lineto
stroke
newpath
66874.9 32245.2 moveto
66818.7 32301.5 lineto
66706.2 32470.2 lineto
66650 32582.7 lineto
66593.7 32751.4 lineto
66537.5 33032.6 lineto
66537.5 33257.6 lineto
66593.7 33538.8 lineto
66650 33707.5 lineto
66706.2 33820 lineto
66818.7 33988.8 lineto
66874.9 34045 lineto
stroke
newpath
67324.9 33482.6 moveto
67324.9 32695.2 lineto
stroke
newpath
67324.9 33370.1 moveto
67381.1 33426.3 lineto
67493.6 33482.6 lineto
67662.3 33482.6 lineto
67774.8 33426.3 lineto
67831.1 33313.8 lineto
67831.1 32695.2 lineto
stroke
newpath
68562.2 32695.2 moveto
68449.7 32751.4 lineto
68393.5 32807.7 lineto
68337.2 32920.1 lineto
68337.2 33257.6 lineto
68393.5 33370.1 lineto
68449.7 33426.3 lineto
68562.2 33482.6 lineto
68730.9 33482.6 lineto
68843.4 33426.3 lineto
68899.7 33370.1 lineto
68955.9 33257.6 lineto
68955.9 32920.1 lineto
68899.7 32807.7 lineto
68843.4 32751.4 lineto
68730.9 32695.2 lineto
68562.2 32695.2 lineto
stroke
newpath
69293.4 33482.6 moveto
69743.3 33482.6 lineto
stroke
newpath
69462.1 33876.3 moveto
69462.1 32863.9 lineto
69518.3 32751.4 lineto
69630.8 32695.2 lineto
69743.3 32695.2 lineto
stroke
newpath
71036.9 33482.6 moveto
71036.9 32301.5 lineto
stroke
newpath
71036.9 33426.3 moveto
71149.4 33482.6 lineto
71374.4 33482.6 lineto
71486.8 33426.3 lineto
71543.1 33370.1 lineto
71599.3 33257.6 lineto
71599.3 32920.1 lineto
71543.1 32807.7 lineto
71486.8 32751.4 lineto
71374.4 32695.2 lineto
71149.4 32695.2 lineto
71036.9 32751.4 lineto
stroke
newpath
72274.3 32695.2 moveto
72161.8 32751.4 lineto
72105.5 32863.9 lineto
72105.5 33876.3 lineto
stroke
newpath
73230.4 32695.2 moveto
73230.4 33313.8 lineto
73174.1 33426.3 lineto
73061.7 33482.6 lineto
72836.7 33482.6 lineto
72724.2 33426.3 lineto
stroke
newpath
73230.4 32751.4 moveto
73117.9 32695.2 lineto
72836.7 32695.2 lineto
72724.2 32751.4 lineto
72668 32863.9 lineto
72668 32976.4 lineto
72724.2 33088.9 lineto
72836.7 33145.1 lineto
73117.9 33145.1 lineto
73230.4 33201.4 lineto
stroke
newpath
73624.1 33482.6 moveto
74074 33482.6 lineto
stroke
newpath
73792.8 33876.3 moveto
73792.8 32863.9 lineto
73849.1 32751.4 lineto
73961.5 32695.2 lineto
74074 32695.2 lineto
stroke
newpath
74917.7 32751.4 moveto
74805.2 32695.2 lineto
74580.2 32695.2 lineto
74467.7 32751.4 lineto
74411.5 32863.9 lineto
74411.5 33313.8 lineto
74467.7 33426.3 lineto
74580.2 33482.6 lineto
74805.2 33482.6 lineto
74917.7 33426.3 lineto
74973.9 33313.8 lineto
74973.9 33201.4 lineto
74411.5 33088.9 lineto
stroke
newpath
75986.3 32695.2 moveto
75986.3 33876.3 lineto
stroke
newpath
75986.3 32751.4 moveto
75873.8 32695.2 lineto
75648.8 32695.2 lineto
75536.3 32751.4 lineto
75480.1 32807.7 lineto
75423.9 32920.1 lineto
75423.9 33257.6 lineto
75480.1 33370.1 lineto
75536.3 33426.3 lineto
75648.8 33482.6 lineto
75873.8 33482.6 lineto
75986.3 33426.3 lineto
stroke
newpath
76436.2 32245.2 moveto
76492.5 32301.5 lineto
76605 32470.2 lineto
76661.2 32582.7 lineto
76717.4 32751.4 lineto
76773.7 33032.6 lineto
76773.7 33257.6 lineto
76717.4 33538.8 lineto
76661.2 33707.5 lineto
76605 33820 lineto
76492.5 33988.8 lineto
76436.2 34045 lineto
stroke
showpage
grestore
%%EOF
