%!PS-Adobe-3.0
%%Creator: PCBNEW
%%CreationDate: Mon Nov  9 01:39:01 2020
%%Title: /Users/jakub/Google Drive/1. College/Wireless ECG PPG/KiCad_PCB/Wireless_ECG_PPG_RX/Gerbers/Wireless_ECG_PPG_RX-PTH-drl_map.ps
%%Pages: 1
%%PageOrder: Ascend
%%BoundingBox: 0 0 596 842
%%DocumentMedia: A4 595 842 0 () ()
%%Orientation: Landscape
%%EndComments
%%BeginProlog
/line { newpath moveto lineto stroke } bind def
/cir0 { newpath 0 360 arc stroke } bind def
/cir1 { newpath 0 360 arc gsave fill grestore stroke } bind def
/cir2 { newpath 0 360 arc gsave fill grestore stroke } bind def
/arc0 { newpath arc stroke } bind def
/arc1 { newpath 4 index 4 index moveto arc closepath gsave fill
    grestore stroke } bind def
/arc2 { newpath 4 index 4 index moveto arc closepath gsave fill
    grestore stroke } bind def
/poly0 { stroke } bind def
/poly1 { closepath gsave fill grestore stroke } bind def
/poly2 { closepath gsave fill grestore stroke } bind def
/rect0 { rectstroke } bind def
/rect1 { rectfill } bind def
/rect2 { rectfill } bind def
/linemode0 { 0 setlinecap 0 setlinejoin 0 setlinewidth } bind def
/linemode1 { 1 setlinecap 1 setlinejoin } bind def
/dashedline { [200] 100 setdash } bind def
/solidline { [] 0 setdash } bind def
/phantomshow { moveto
    /KicadFont findfont 0.000001 scalefont setfont
    show } bind def
/textshow { gsave
    findfont exch scalefont setfont concat 1 scale 0 0 moveto show
    } bind def
/reencodefont {
  findfont dup length dict begin
  { 1 index /FID ne
    { def }
    { pop pop } ifelse
  } forall
  /Encoding ISOLatin1Encoding def
  currentdict
  end } bind def
/KicadFont /Helvetica reencodefont definefont pop
/KicadFont-Bold /Helvetica-Bold reencodefont definefont pop
/KicadFont-Oblique /Helvetica-Oblique reencodefont definefont pop
/KicadFont-BoldOblique /Helvetica-BoldOblique reencodefont definefont pop
%%EndProlog
%%Page: 1 1
%%BeginPageSetup
gsave
0.0072 0.0072 scale
linemode1
82680 0 translate 90 rotate
116.36 setlinewidth
%%EndPageSetup
0 0 0 setrgbcolor
45.8112 setlinewidth
newpath
39225.1 39322.5 moveto
39225.1 37948.1 lineto
stroke
0 0 0 setrgbcolor
newpath
77704.9 39322.5 moveto
77706.5 37948.1 lineto
stroke
0 0 0 setrgbcolor
40141.3 37948.1 916.224 -180 -90 arc0
0 0 0 setrgbcolor
76790.3 37948.1 916.224 -90 -0 arc0
0 0 0 setrgbcolor
newpath
40141.3 37031.9 moveto
76790.3 37031.9 lineto
stroke
0 0 0 setrgbcolor
newpath
77704.9 77803.9 moveto
77704.9 39322.5 lineto
stroke
0 0 0 setrgbcolor
newpath
39223.5 77803.9 moveto
39225.1 39322.5 lineto
stroke
0 0 0 setrgbcolor
76788.7 77803.9 916.224 -0 90 arc0
0 0 0 setrgbcolor
newpath
40139.7 78720.1 moveto
76790.3 78720.1 lineto
stroke
0 0 0 setrgbcolor
40139.7 77803.9 916.224 90 180 arc0
78.7393 setlinewidth
newpath
41834.7 76108.8 moveto
42109.6 75834 lineto
stroke
newpath
42109.6 76108.8 moveto
41834.7 75834 lineto
stroke
newpath
41834.7 71527.7 moveto
42109.6 71252.9 lineto
stroke
newpath
42109.6 71527.7 moveto
41834.7 71252.9 lineto
stroke
newpath
41834.7 69237.2 moveto
42109.6 68962.3 lineto
stroke
newpath
42109.6 69237.2 moveto
41834.7 68962.3 lineto
stroke
newpath
41834.7 66946.6 moveto
42109.6 66671.7 lineto
stroke
newpath
42109.6 66946.6 moveto
41834.7 66671.7 lineto
stroke
newpath
43667.2 76108.8 moveto
43942 75834 lineto
stroke
newpath
43942 76108.8 moveto
43667.2 75834 lineto
stroke
newpath
43667.2 71527.7 moveto
43942 71252.9 lineto
stroke
newpath
43942 71527.7 moveto
43667.2 71252.9 lineto
stroke
newpath
43667.2 66946.6 moveto
43942 66671.7 lineto
stroke
newpath
43942 66946.6 moveto
43667.2 66671.7 lineto
stroke
newpath
45499.6 76108.8 moveto
45774.5 75834 lineto
stroke
newpath
45774.5 76108.8 moveto
45499.6 75834 lineto
stroke
newpath
45499.6 71527.7 moveto
45774.5 71252.9 lineto
stroke
newpath
45774.5 71527.7 moveto
45499.6 71252.9 lineto
stroke
newpath
45499.6 66946.6 moveto
45774.5 66671.7 lineto
stroke
newpath
45774.5 66946.6 moveto
45499.6 66671.7 lineto
stroke
newpath
47332.1 76108.8 moveto
47606.9 75834 lineto
stroke
newpath
47606.9 76108.8 moveto
47332.1 75834 lineto
stroke
newpath
47332.1 71527.7 moveto
47606.9 71252.9 lineto
stroke
newpath
47606.9 71527.7 moveto
47332.1 71252.9 lineto
stroke
newpath
47332.1 66946.6 moveto
47606.9 66671.7 lineto
stroke
newpath
47606.9 66946.6 moveto
47332.1 66671.7 lineto
stroke
newpath
49164.5 76108.8 moveto
49439.4 75834 lineto
stroke
newpath
49439.4 76108.8 moveto
49164.5 75834 lineto
stroke
newpath
49164.5 71527.7 moveto
49439.4 71252.9 lineto
stroke
newpath
49439.4 71527.7 moveto
49164.5 71252.9 lineto
stroke
newpath
49164.5 66946.6 moveto
49439.4 66671.7 lineto
stroke
newpath
49439.4 66946.6 moveto
49164.5 66671.7 lineto
stroke
newpath
50997 76108.8 moveto
51271.8 75834 lineto
stroke
newpath
51271.8 76108.8 moveto
50997 75834 lineto
stroke
newpath
50997 71527.7 moveto
51271.8 71252.9 lineto
stroke
newpath
51271.8 71527.7 moveto
50997 71252.9 lineto
stroke
newpath
50997 66946.6 moveto
51271.8 66671.7 lineto
stroke
newpath
51271.8 66946.6 moveto
50997 66671.7 lineto
stroke
newpath
52829.4 76108.8 moveto
53104.3 75834 lineto
stroke
newpath
53104.3 76108.8 moveto
52829.4 75834 lineto
stroke
newpath
52829.4 71527.7 moveto
53104.3 71252.9 lineto
stroke
newpath
53104.3 71527.7 moveto
52829.4 71252.9 lineto
stroke
newpath
52829.4 66946.6 moveto
53104.3 66671.7 lineto
stroke
newpath
53104.3 66946.6 moveto
52829.4 66671.7 lineto
stroke
newpath
54661.9 76108.8 moveto
54936.7 75834 lineto
stroke
newpath
54936.7 76108.8 moveto
54661.9 75834 lineto
stroke
newpath
54661.9 71527.7 moveto
54936.7 71252.9 lineto
stroke
newpath
54936.7 71527.7 moveto
54661.9 71252.9 lineto
stroke
newpath
54661.9 66946.6 moveto
54936.7 66671.7 lineto
stroke
newpath
54936.7 66946.6 moveto
54661.9 66671.7 lineto
stroke
newpath
56494.3 76108.8 moveto
56769.2 75834 lineto
stroke
newpath
56769.2 76108.8 moveto
56494.3 75834 lineto
stroke
newpath
56494.3 71527.7 moveto
56769.2 71252.9 lineto
stroke
newpath
56769.2 71527.7 moveto
56494.3 71252.9 lineto
stroke
newpath
56494.3 66946.6 moveto
56769.2 66671.7 lineto
stroke
newpath
56769.2 66946.6 moveto
56494.3 66671.7 lineto
stroke
newpath
58326.8 76108.8 moveto
58601.6 75834 lineto
stroke
newpath
58601.6 76108.8 moveto
58326.8 75834 lineto
stroke
newpath
58326.8 71527.7 moveto
58601.6 71252.9 lineto
stroke
newpath
58601.6 71527.7 moveto
58326.8 71252.9 lineto
stroke
newpath
58326.8 66946.6 moveto
58601.6 66671.7 lineto
stroke
newpath
58601.6 66946.6 moveto
58326.8 66671.7 lineto
stroke
newpath
58326.8 62365.5 moveto
58601.6 62090.6 lineto
stroke
newpath
58601.6 62365.5 moveto
58326.8 62090.6 lineto
stroke
newpath
58326.8 60533 moveto
58601.6 60258.2 lineto
stroke
newpath
58601.6 60533 moveto
58326.8 60258.2 lineto
stroke
newpath
58326.8 58700.6 moveto
58601.6 58425.7 lineto
stroke
newpath
58601.6 58700.6 moveto
58326.8 58425.7 lineto
stroke
newpath
58326.8 56868.2 moveto
58601.6 56593.3 lineto
stroke
newpath
58601.6 56868.2 moveto
58326.8 56593.3 lineto
stroke
newpath
58326.8 55035.7 moveto
58601.6 54760.8 lineto
stroke
newpath
58601.6 55035.7 moveto
58326.8 54760.8 lineto
stroke
newpath
60159.2 76108.8 moveto
60434.1 75834 lineto
stroke
newpath
60434.1 76108.8 moveto
60159.2 75834 lineto
stroke
newpath
60159.2 71527.7 moveto
60434.1 71252.9 lineto
stroke
newpath
60434.1 71527.7 moveto
60159.2 71252.9 lineto
stroke
newpath
60159.2 66946.6 moveto
60434.1 66671.7 lineto
stroke
newpath
60434.1 66946.6 moveto
60159.2 66671.7 lineto
stroke
newpath
60159.2 62365.5 moveto
60434.1 62090.6 lineto
stroke
newpath
60434.1 62365.5 moveto
60159.2 62090.6 lineto
stroke
newpath
61991.6 76108.8 moveto
62266.5 75834 lineto
stroke
newpath
62266.5 76108.8 moveto
61991.6 75834 lineto
stroke
newpath
61991.6 71527.7 moveto
62266.5 71252.9 lineto
stroke
newpath
62266.5 71527.7 moveto
61991.6 71252.9 lineto
stroke
newpath
61991.6 66946.6 moveto
62266.5 66671.7 lineto
stroke
newpath
62266.5 66946.6 moveto
61991.6 66671.7 lineto
stroke
newpath
61991.6 62365.5 moveto
62266.5 62090.6 lineto
stroke
newpath
62266.5 62365.5 moveto
61991.6 62090.6 lineto
stroke
newpath
63824.1 76108.8 moveto
64099 75834 lineto
stroke
newpath
64099 76108.8 moveto
63824.1 75834 lineto
stroke
newpath
63824.1 71527.7 moveto
64099 71252.9 lineto
stroke
newpath
64099 71527.7 moveto
63824.1 71252.9 lineto
stroke
newpath
63824.1 66946.6 moveto
64099 66671.7 lineto
stroke
newpath
64099 66946.6 moveto
63824.1 66671.7 lineto
stroke
newpath
63824.1 62365.5 moveto
64099 62090.6 lineto
stroke
newpath
64099 62365.5 moveto
63824.1 62090.6 lineto
stroke
newpath
65656.5 76108.8 moveto
65931.4 75834 lineto
stroke
newpath
65931.4 76108.8 moveto
65656.5 75834 lineto
stroke
newpath
65656.5 71527.7 moveto
65931.4 71252.9 lineto
stroke
newpath
65931.4 71527.7 moveto
65656.5 71252.9 lineto
stroke
newpath
65656.5 66946.6 moveto
65931.4 66671.7 lineto
stroke
newpath
65931.4 66946.6 moveto
65656.5 66671.7 lineto
stroke
newpath
65656.5 62365.5 moveto
65931.4 62090.6 lineto
stroke
newpath
65931.4 62365.5 moveto
65656.5 62090.6 lineto
stroke
newpath
67489 76108.8 moveto
67763.9 75834 lineto
stroke
newpath
67763.9 76108.8 moveto
67489 75834 lineto
stroke
newpath
67489 71527.7 moveto
67763.9 71252.9 lineto
stroke
newpath
67763.9 71527.7 moveto
67489 71252.9 lineto
stroke
newpath
67489 66946.6 moveto
67763.9 66671.7 lineto
stroke
newpath
67763.9 66946.6 moveto
67489 66671.7 lineto
stroke
newpath
67489 62365.5 moveto
67763.9 62090.6 lineto
stroke
newpath
67763.9 62365.5 moveto
67489 62090.6 lineto
stroke
newpath
69321.4 76108.8 moveto
69596.3 75834 lineto
stroke
newpath
69596.3 76108.8 moveto
69321.4 75834 lineto
stroke
newpath
69321.4 71527.7 moveto
69596.3 71252.9 lineto
stroke
newpath
69596.3 71527.7 moveto
69321.4 71252.9 lineto
stroke
newpath
69321.4 66946.6 moveto
69596.3 66671.7 lineto
stroke
newpath
69596.3 66946.6 moveto
69321.4 66671.7 lineto
stroke
newpath
69321.4 62365.5 moveto
69596.3 62090.6 lineto
stroke
newpath
69596.3 62365.5 moveto
69321.4 62090.6 lineto
stroke
newpath
71153.9 76108.8 moveto
71428.7 75834 lineto
stroke
newpath
71428.7 76108.8 moveto
71153.9 75834 lineto
stroke
newpath
71153.9 71527.7 moveto
71428.7 71252.9 lineto
stroke
newpath
71428.7 71527.7 moveto
71153.9 71252.9 lineto
stroke
newpath
71153.9 66946.6 moveto
71428.7 66671.7 lineto
stroke
newpath
71428.7 66946.6 moveto
71153.9 66671.7 lineto
stroke
newpath
71153.9 62365.5 moveto
71428.7 62090.6 lineto
stroke
newpath
71428.7 62365.5 moveto
71153.9 62090.6 lineto
stroke
newpath
72986.3 76108.8 moveto
73261.2 75834 lineto
stroke
newpath
73261.2 76108.8 moveto
72986.3 75834 lineto
stroke
newpath
72986.3 71527.7 moveto
73261.2 71252.9 lineto
stroke
newpath
73261.2 71527.7 moveto
72986.3 71252.9 lineto
stroke
newpath
72986.3 66946.6 moveto
73261.2 66671.7 lineto
stroke
newpath
73261.2 66946.6 moveto
72986.3 66671.7 lineto
stroke
newpath
72986.3 62365.5 moveto
73261.2 62090.6 lineto
stroke
newpath
73261.2 62365.5 moveto
72986.3 62090.6 lineto
stroke
newpath
74818.8 76108.8 moveto
75093.6 75834 lineto
stroke
newpath
75093.6 76108.8 moveto
74818.8 75834 lineto
stroke
newpath
74818.8 73818.3 moveto
75093.6 73543.4 lineto
stroke
newpath
75093.6 73818.3 moveto
74818.8 73543.4 lineto
stroke
newpath
74818.8 71527.7 moveto
75093.6 71252.9 lineto
stroke
newpath
75093.6 71527.7 moveto
74818.8 71252.9 lineto
stroke
newpath
74818.8 66946.6 moveto
75093.6 66671.7 lineto
stroke
newpath
75093.6 66946.6 moveto
74818.8 66671.7 lineto
stroke
newpath
74818.8 64656.1 moveto
75093.6 64381.2 lineto
stroke
newpath
75093.6 64656.1 moveto
74818.8 64381.2 lineto
stroke
newpath
74818.8 62365.5 moveto
75093.6 62090.6 lineto
stroke
newpath
75093.6 62365.5 moveto
74818.8 62090.6 lineto
stroke
40735.3 37957.3 183.245 cir0
41240.8 44819.8 183.245 cir0
41689.8 37966.5 183.245 cir0
41979.7 46725.6 183.245 cir0
41979.7 45809.3 183.245 cir0
42157 44819.8 183.245 cir0
42760.1 51902.2 183.245 cir0
43073.3 44361.7 183.245 cir0
44482.6 52186.3 183.245 cir0
45389.7 52186.3 183.245 cir0
45627.9 48310.6 183.245 cir0
45664.5 49914 183.245 cir0
47021.5 48731.1 183.245 cir0
47469.5 46299.1 183.245 cir0
47469.5 44270.1 183.245 cir0
47836 48731.1 183.245 cir0
51427.6 46661.4 183.245 cir0
51436.8 45818.5 183.245 cir0
51777.4 44361.7 183.245 cir0
52307.2 45800.2 183.245 cir0
52316.3 46670.6 183.245 cir0
53609.8 50912.7 183.245 cir0
53609.8 49996.5 183.245 cir0
56001.2 38754.4 183.245 cir0
56633.4 47293.6 183.245 cir0
56633.4 46377.4 183.245 cir0
57012.9 37841.9 183.245 cir0
59875.2 44920.6 183.245 cir0
60298.3 48942.8 183.245 cir0
60298.3 48026.6 183.245 cir0
61581 42620.9 183.245 cir0
61581 41704.7 183.245 cir0
62413.1 46698.1 183.245 cir0
63118.6 47302.8 183.245 cir0
64850.3 48283.1 183.245 cir0
65235.1 43958.6 183.245 cir0
65500.8 40147.1 183.245 cir0
65757.3 48292.3 183.245 cir0
66178.8 40852.6 183.245 cir0
66994.2 45497.8 183.245 cir0
67195.8 40889.2 183.245 cir0
67956.3 41585.5 183.245 cir0
68139.5 50674.5 183.245 cir0
68361 49217.7 183.245 cir0
69277.3 49217.7 183.245 cir0
69291 42394 183.245 cir0
69380.4 43203.5 183.245 cir0
69623.8 45536.5 183.245 cir0
69715.4 44636.6 183.245 cir0
69781 46678.3 183.245 cir0
69970.2 43765.2 183.245 cir0
70411.7 49400.9 183.245 cir0
71201.3 50958.5 183.245 cir0
71201.3 50042.3 183.245 cir0
71566.2 44121.9 183.245 cir0
71602.8 41173.2 183.245 cir0
74957.8 47385.2 183.245 cir0
74957.8 46102.5 183.245 cir0
74957.8 45003.1 183.245 cir0
74957.8 43903.6 183.245 cir0
74957.8 42804.1 183.245 cir0
74957.8 41704.7 183.245 cir0
newpath
50511.4 40834.2 moveto
50511.4 40284.5 lineto
stroke
newpath
50236.5 40559.4 moveto
50786.2 40559.4 lineto
stroke
newpath
43767.8 42112.5 moveto
43767.8 42533.7 lineto
43346.7 42533.7 lineto
43346.7 42112.5 lineto
43767.8 42112.5 lineto
poly0
newpath
43298.8 42781.2 moveto
43298.8 41865 lineto
stroke
newpath
43815.6 42781.2 moveto
43815.6 41865 lineto
stroke
43557.2 41865 258.403 180 360 arc0
43557.2 42781.2 258.403 0 180 arc0
newpath
43767.8 38608 moveto
43767.8 39029.1 lineto
43346.7 39029.1 lineto
43346.7 38608 lineto
43767.8 38608 lineto
poly0
newpath
43298.8 39414.1 moveto
43298.8 38223 lineto
stroke
newpath
43815.6 39414.1 moveto
43815.6 38223 lineto
stroke
43557.2 38223 258.403 180 360 arc0
43557.2 39414.1 258.403 0 180 arc0
newpath
51684 42112.5 moveto
51684 42533.7 lineto
51262.8 42533.7 lineto
51262.8 42112.5 lineto
51684 42112.5 lineto
poly0
newpath
51215 42781.2 moveto
51215 41865 lineto
stroke
newpath
51731.8 42781.2 moveto
51731.8 41865 lineto
stroke
51473.4 41865 258.403 180 360 arc0
51473.4 42781.2 258.403 0 180 arc0
newpath
51684 38608 moveto
51684 39029.1 lineto
51262.8 39029.1 lineto
51262.8 38608 lineto
51684 38608 lineto
poly0
newpath
51215 39414.1 moveto
51215 38223 lineto
stroke
newpath
51731.8 39414.1 moveto
51731.8 38223 lineto
stroke
51473.4 38223 258.403 180 360 arc0
51473.4 39414.1 258.403 0 180 arc0
118.11 setlinewidth
0 0 0 setrgbcolor
0 0 0 setrgbcolor
newpath
40328.3 35175.5 moveto
40328.3 36356.6 lineto
40609.5 36356.6 lineto
40778.2 36300.3 lineto
40890.7 36187.9 lineto
40946.9 36075.4 lineto
41003.2 35850.4 lineto
41003.2 35681.7 lineto
40946.9 35456.7 lineto
40890.7 35344.2 lineto
40778.2 35231.7 lineto
40609.5 35175.5 lineto
40328.3 35175.5 lineto
stroke
newpath
41509.4 35175.5 moveto
41509.4 35962.9 lineto
stroke
newpath
41509.4 35737.9 moveto
41565.6 35850.4 lineto
41621.8 35906.6 lineto
41734.3 35962.9 lineto
41846.8 35962.9 lineto
stroke
newpath
42240.5 35175.5 moveto
42240.5 35962.9 lineto
stroke
newpath
42240.5 36356.6 moveto
42184.3 36300.3 lineto
42240.5 36244.1 lineto
42296.8 36300.3 lineto
42240.5 36356.6 lineto
42240.5 36244.1 lineto
stroke
newpath
42971.7 35175.5 moveto
42859.2 35231.7 lineto
42802.9 35344.2 lineto
42802.9 36356.6 lineto
stroke
newpath
43590.3 35175.5 moveto
43477.9 35231.7 lineto
43421.6 35344.2 lineto
43421.6 36356.6 lineto
stroke
newpath
44940.2 35175.5 moveto
44940.2 36356.6 lineto
45333.9 35512.9 lineto
45727.6 36356.6 lineto
45727.6 35175.5 lineto
stroke
newpath
46796.2 35175.5 moveto
46796.2 35794.2 lineto
46740 35906.6 lineto
46627.5 35962.9 lineto
46402.5 35962.9 lineto
46290 35906.6 lineto
stroke
newpath
46796.2 35231.7 moveto
46683.7 35175.5 lineto
46402.5 35175.5 lineto
46290 35231.7 lineto
46233.8 35344.2 lineto
46233.8 35456.7 lineto
46290 35569.2 lineto
46402.5 35625.4 lineto
46683.7 35625.4 lineto
46796.2 35681.7 lineto
stroke
newpath
47358.6 35962.9 moveto
47358.6 34781.8 lineto
stroke
newpath
47358.6 35906.6 moveto
47471.1 35962.9 lineto
47696.1 35962.9 lineto
47808.6 35906.6 lineto
47864.8 35850.4 lineto
47921.1 35737.9 lineto
47921.1 35400.5 lineto
47864.8 35288 lineto
47808.6 35231.7 lineto
47696.1 35175.5 lineto
47471.1 35175.5 lineto
47358.6 35231.7 lineto
stroke
newpath
48427.2 35288 moveto
48483.5 35231.7 lineto
48427.2 35175.5 lineto
48371 35231.7 lineto
48427.2 35288 lineto
48427.2 35175.5 lineto
stroke
newpath
48427.2 35906.6 moveto
48483.5 35850.4 lineto
48427.2 35794.2 lineto
48371 35850.4 lineto
48427.2 35906.6 lineto
48427.2 35794.2 lineto
stroke
newpath
38925.7 33366.9 moveto
39200.6 33092 lineto
stroke
newpath
39200.6 33366.9 moveto
38925.7 33092 lineto
stroke
0 0 0 setrgbcolor
0 0 0 setrgbcolor
newpath
40553.2 33876.3 moveto
40665.7 33876.3 lineto
40778.2 33820 lineto
40834.4 33763.8 lineto
40890.7 33651.3 lineto
40946.9 33426.3 lineto
40946.9 33145.1 lineto
40890.7 32920.1 lineto
40834.4 32807.7 lineto
40778.2 32751.4 lineto
40665.7 32695.2 lineto
40553.2 32695.2 lineto
40440.7 32751.4 lineto
40384.5 32807.7 lineto
40328.3 32920.1 lineto
40272 33145.1 lineto
40272 33426.3 lineto
40328.3 33651.3 lineto
40384.5 33763.8 lineto
40440.7 33820 lineto
40553.2 33876.3 lineto
stroke
newpath
41453.1 32807.7 moveto
41509.4 32751.4 lineto
41453.1 32695.2 lineto
41396.9 32751.4 lineto
41453.1 32807.7 lineto
41453.1 32695.2 lineto
stroke
newpath
41903.1 33876.3 moveto
42634.2 33876.3 lineto
42240.5 33426.3 lineto
42409.2 33426.3 lineto
42521.7 33370.1 lineto
42578 33313.8 lineto
42634.2 33201.4 lineto
42634.2 32920.1 lineto
42578 32807.7 lineto
42521.7 32751.4 lineto
42409.2 32695.2 lineto
42071.8 32695.2 lineto
41959.3 32751.4 lineto
41903.1 32807.7 lineto
stroke
newpath
43365.4 33876.3 moveto
43477.9 33876.3 lineto
43590.3 33820 lineto
43646.6 33763.8 lineto
43702.8 33651.3 lineto
43759.1 33426.3 lineto
43759.1 33145.1 lineto
43702.8 32920.1 lineto
43646.6 32807.7 lineto
43590.3 32751.4 lineto
43477.9 32695.2 lineto
43365.4 32695.2 lineto
43252.9 32751.4 lineto
43196.6 32807.7 lineto
43140.4 32920.1 lineto
43084.2 33145.1 lineto
43084.2 33426.3 lineto
43140.4 33651.3 lineto
43196.6 33763.8 lineto
43252.9 33820 lineto
43365.4 33876.3 lineto
stroke
newpath
44265.3 32695.2 moveto
44265.3 33482.6 lineto
stroke
newpath
44265.3 33370.1 moveto
44321.5 33426.3 lineto
44434 33482.6 lineto
44602.7 33482.6 lineto
44715.2 33426.3 lineto
44771.4 33313.8 lineto
44771.4 32695.2 lineto
stroke
newpath
44771.4 33313.8 moveto
44827.7 33426.3 lineto
44940.2 33482.6 lineto
45108.9 33482.6 lineto
45221.4 33426.3 lineto
45277.6 33313.8 lineto
45277.6 32695.2 lineto
stroke
newpath
45840.1 32695.2 moveto
45840.1 33482.6 lineto
stroke
newpath
45840.1 33370.1 moveto
45896.3 33426.3 lineto
46008.8 33482.6 lineto
46177.5 33482.6 lineto
46290 33426.3 lineto
46346.3 33313.8 lineto
46346.3 32695.2 lineto
stroke
newpath
46346.3 33313.8 moveto
46402.5 33426.3 lineto
46515 33482.6 lineto
46683.7 33482.6 lineto
46796.2 33426.3 lineto
46852.4 33313.8 lineto
46852.4 32695.2 lineto
stroke
newpath
49158.4 33932.5 moveto
48146 32414 lineto
stroke
newpath
50677 33876.3 moveto
50789.4 33876.3 lineto
50901.9 33820 lineto
50958.2 33763.8 lineto
51014.4 33651.3 lineto
51070.7 33426.3 lineto
51070.7 33145.1 lineto
51014.4 32920.1 lineto
50958.2 32807.7 lineto
50901.9 32751.4 lineto
50789.4 32695.2 lineto
50677 32695.2 lineto
50564.5 32751.4 lineto
50508.2 32807.7 lineto
50452 32920.1 lineto
50395.7 33145.1 lineto
50395.7 33426.3 lineto
50452 33651.3 lineto
50508.2 33763.8 lineto
50564.5 33820 lineto
50677 33876.3 lineto
stroke
newpath
51576.8 32807.7 moveto
51633.1 32751.4 lineto
51576.8 32695.2 lineto
51520.6 32751.4 lineto
51576.8 32807.7 lineto
51576.8 32695.2 lineto
stroke
newpath
52364.2 33876.3 moveto
52476.7 33876.3 lineto
52589.2 33820 lineto
52645.5 33763.8 lineto
52701.7 33651.3 lineto
52757.9 33426.3 lineto
52757.9 33145.1 lineto
52701.7 32920.1 lineto
52645.5 32807.7 lineto
52589.2 32751.4 lineto
52476.7 32695.2 lineto
52364.2 32695.2 lineto
52251.8 32751.4 lineto
52195.5 32807.7 lineto
52139.3 32920.1 lineto
52083 33145.1 lineto
52083 33426.3 lineto
52139.3 33651.3 lineto
52195.5 33763.8 lineto
52251.8 33820 lineto
52364.2 33876.3 lineto
stroke
newpath
53882.8 32695.2 moveto
53207.9 32695.2 lineto
stroke
newpath
53545.3 32695.2 moveto
53545.3 33876.3 lineto
53432.9 33707.5 lineto
53320.4 33595.1 lineto
53207.9 33538.8 lineto
stroke
newpath
54332.7 33763.8 moveto
54389 33820 lineto
54501.5 33876.3 lineto
54782.7 33876.3 lineto
54895.2 33820 lineto
54951.4 33763.8 lineto
55007.7 33651.3 lineto
55007.7 33538.8 lineto
54951.4 33370.1 lineto
54276.5 32695.2 lineto
55007.7 32695.2 lineto
stroke
newpath
55457.6 33876.3 moveto
55457.6 33651.3 lineto
stroke
newpath
55907.6 33876.3 moveto
55907.6 33651.3 lineto
stroke
newpath
57651.1 32245.2 moveto
57594.8 32301.5 lineto
57482.4 32470.2 lineto
57426.1 32582.7 lineto
57369.9 32751.4 lineto
57313.6 33032.6 lineto
57313.6 33257.6 lineto
57369.9 33538.8 lineto
57426.1 33707.5 lineto
57482.4 33820 lineto
57594.8 33988.8 lineto
57651.1 34045 lineto
stroke
newpath
57988.5 33876.3 moveto
58775.9 33876.3 lineto
58269.8 32695.2 lineto
stroke
newpath
59732.1 33482.6 moveto
59732.1 32695.2 lineto
stroke
newpath
59450.9 33932.5 moveto
59169.6 33088.9 lineto
59900.8 33088.9 lineto
stroke
newpath
61250.6 32695.2 moveto
61250.6 33876.3 lineto
stroke
newpath
61756.8 32695.2 moveto
61756.8 33313.8 lineto
61700.6 33426.3 lineto
61588.1 33482.6 lineto
61419.4 33482.6 lineto
61306.9 33426.3 lineto
61250.6 33370.1 lineto
stroke
newpath
62488 32695.2 moveto
62375.5 32751.4 lineto
62319.2 32807.7 lineto
62263 32920.1 lineto
62263 33257.6 lineto
62319.2 33370.1 lineto
62375.5 33426.3 lineto
62488 33482.6 lineto
62656.7 33482.6 lineto
62769.2 33426.3 lineto
62825.4 33370.1 lineto
62881.7 33257.6 lineto
62881.7 32920.1 lineto
62825.4 32807.7 lineto
62769.2 32751.4 lineto
62656.7 32695.2 lineto
62488 32695.2 lineto
stroke
newpath
63556.6 32695.2 moveto
63444.1 32751.4 lineto
63387.9 32863.9 lineto
63387.9 33876.3 lineto
stroke
newpath
64456.5 32751.4 moveto
64344 32695.2 lineto
64119 32695.2 lineto
64006.5 32751.4 lineto
63950.3 32863.9 lineto
63950.3 33313.8 lineto
64006.5 33426.3 lineto
64119 33482.6 lineto
64344 33482.6 lineto
64456.5 33426.3 lineto
64512.7 33313.8 lineto
64512.7 33201.4 lineto
63950.3 33088.9 lineto
stroke
newpath
64962.7 32751.4 moveto
65075.2 32695.2 lineto
65300.1 32695.2 lineto
65412.6 32751.4 lineto
65468.9 32863.9 lineto
65468.9 32920.1 lineto
65412.6 33032.6 lineto
65300.1 33088.9 lineto
65131.4 33088.9 lineto
65018.9 33145.1 lineto
64962.7 33257.6 lineto
64962.7 33313.8 lineto
65018.9 33426.3 lineto
65131.4 33482.6 lineto
65300.1 33482.6 lineto
65412.6 33426.3 lineto
stroke
newpath
65862.6 32245.2 moveto
65918.8 32301.5 lineto
66031.3 32470.2 lineto
66087.5 32582.7 lineto
66143.8 32751.4 lineto
66200 33032.6 lineto
66200 33257.6 lineto
66143.8 33538.8 lineto
66087.5 33707.5 lineto
66031.3 33820 lineto
65918.8 33988.8 lineto
65862.6 34045 lineto
stroke
39017.3 31670.4 183.245 cir0
0 0 0 setrgbcolor
0 0 0 setrgbcolor
newpath
40553.2 32317.2 moveto
40665.7 32317.2 lineto
40778.2 32261 lineto
40834.4 32204.7 lineto
40890.7 32092.2 lineto
40946.9 31867.3 lineto
40946.9 31586.1 lineto
40890.7 31361.1 lineto
40834.4 31248.6 lineto
40778.2 31192.4 lineto
40665.7 31136.1 lineto
40553.2 31136.1 lineto
40440.7 31192.4 lineto
40384.5 31248.6 lineto
40328.3 31361.1 lineto
40272 31586.1 lineto
40272 31867.3 lineto
40328.3 32092.2 lineto
40384.5 32204.7 lineto
40440.7 32261 lineto
40553.2 32317.2 lineto
stroke
newpath
41453.1 31248.6 moveto
41509.4 31192.4 lineto
41453.1 31136.1 lineto
41396.9 31192.4 lineto
41453.1 31248.6 lineto
41453.1 31136.1 lineto
stroke
newpath
42521.7 31923.5 moveto
42521.7 31136.1 lineto
stroke
newpath
42240.5 32373.5 moveto
41959.3 31529.8 lineto
42690.5 31529.8 lineto
stroke
newpath
43365.4 32317.2 moveto
43477.9 32317.2 lineto
43590.3 32261 lineto
43646.6 32204.7 lineto
43702.8 32092.2 lineto
43759.1 31867.3 lineto
43759.1 31586.1 lineto
43702.8 31361.1 lineto
43646.6 31248.6 lineto
43590.3 31192.4 lineto
43477.9 31136.1 lineto
43365.4 31136.1 lineto
43252.9 31192.4 lineto
43196.6 31248.6 lineto
43140.4 31361.1 lineto
43084.2 31586.1 lineto
43084.2 31867.3 lineto
43140.4 32092.2 lineto
43196.6 32204.7 lineto
43252.9 32261 lineto
43365.4 32317.2 lineto
stroke
newpath
44265.3 31136.1 moveto
44265.3 31923.5 lineto
stroke
newpath
44265.3 31811 moveto
44321.5 31867.3 lineto
44434 31923.5 lineto
44602.7 31923.5 lineto
44715.2 31867.3 lineto
44771.4 31754.8 lineto
44771.4 31136.1 lineto
stroke
newpath
44771.4 31754.8 moveto
44827.7 31867.3 lineto
44940.2 31923.5 lineto
45108.9 31923.5 lineto
45221.4 31867.3 lineto
45277.6 31754.8 lineto
45277.6 31136.1 lineto
stroke
newpath
45840.1 31136.1 moveto
45840.1 31923.5 lineto
stroke
newpath
45840.1 31811 moveto
45896.3 31867.3 lineto
46008.8 31923.5 lineto
46177.5 31923.5 lineto
46290 31867.3 lineto
46346.3 31754.8 lineto
46346.3 31136.1 lineto
stroke
newpath
46346.3 31754.8 moveto
46402.5 31867.3 lineto
46515 31923.5 lineto
46683.7 31923.5 lineto
46796.2 31867.3 lineto
46852.4 31754.8 lineto
46852.4 31136.1 lineto
stroke
newpath
49158.4 32373.5 moveto
48146 30854.9 lineto
stroke
newpath
50677 32317.2 moveto
50789.4 32317.2 lineto
50901.9 32261 lineto
50958.2 32204.7 lineto
51014.4 32092.2 lineto
51070.7 31867.3 lineto
51070.7 31586.1 lineto
51014.4 31361.1 lineto
50958.2 31248.6 lineto
50901.9 31192.4 lineto
50789.4 31136.1 lineto
50677 31136.1 lineto
50564.5 31192.4 lineto
50508.2 31248.6 lineto
50452 31361.1 lineto
50395.7 31586.1 lineto
50395.7 31867.3 lineto
50452 32092.2 lineto
50508.2 32204.7 lineto
50564.5 32261 lineto
50677 32317.2 lineto
stroke
newpath
51576.8 31248.6 moveto
51633.1 31192.4 lineto
51576.8 31136.1 lineto
51520.6 31192.4 lineto
51576.8 31248.6 lineto
51576.8 31136.1 lineto
stroke
newpath
52364.2 32317.2 moveto
52476.7 32317.2 lineto
52589.2 32261 lineto
52645.5 32204.7 lineto
52701.7 32092.2 lineto
52757.9 31867.3 lineto
52757.9 31586.1 lineto
52701.7 31361.1 lineto
52645.5 31248.6 lineto
52589.2 31192.4 lineto
52476.7 31136.1 lineto
52364.2 31136.1 lineto
52251.8 31192.4 lineto
52195.5 31248.6 lineto
52139.3 31361.1 lineto
52083 31586.1 lineto
52083 31867.3 lineto
52139.3 32092.2 lineto
52195.5 32204.7 lineto
52251.8 32261 lineto
52364.2 32317.2 lineto
stroke
newpath
53882.8 31136.1 moveto
53207.9 31136.1 lineto
stroke
newpath
53545.3 31136.1 moveto
53545.3 32317.2 lineto
53432.9 32148.5 lineto
53320.4 32036 lineto
53207.9 31979.8 lineto
stroke
newpath
54895.2 32317.2 moveto
54670.2 32317.2 lineto
54557.7 32261 lineto
54501.5 32204.7 lineto
54389 32036 lineto
54332.7 31811 lineto
54332.7 31361.1 lineto
54389 31248.6 lineto
54445.2 31192.4 lineto
54557.7 31136.1 lineto
54782.7 31136.1 lineto
54895.2 31192.4 lineto
54951.4 31248.6 lineto
55007.7 31361.1 lineto
55007.7 31642.3 lineto
54951.4 31754.8 lineto
54895.2 31811 lineto
54782.7 31867.3 lineto
54557.7 31867.3 lineto
54445.2 31811 lineto
54389 31754.8 lineto
54332.7 31642.3 lineto
stroke
newpath
55457.6 32317.2 moveto
55457.6 32092.2 lineto
stroke
newpath
55907.6 32317.2 moveto
55907.6 32092.2 lineto
stroke
newpath
57651.1 30686.2 moveto
57594.8 30742.4 lineto
57482.4 30911.1 lineto
57426.1 31023.6 lineto
57369.9 31192.4 lineto
57313.6 31473.6 lineto
57313.6 31698.5 lineto
57369.9 31979.8 lineto
57426.1 32148.5 lineto
57482.4 32261 lineto
57594.8 32429.7 lineto
57651.1 32485.9 lineto
stroke
newpath
58607.2 32317.2 moveto
58382.2 32317.2 lineto
58269.8 32261 lineto
58213.5 32204.7 lineto
58101 32036 lineto
58044.8 31811 lineto
58044.8 31361.1 lineto
58101 31248.6 lineto
58157.3 31192.4 lineto
58269.8 31136.1 lineto
58494.7 31136.1 lineto
58607.2 31192.4 lineto
58663.5 31248.6 lineto
58719.7 31361.1 lineto
58719.7 31642.3 lineto
58663.5 31754.8 lineto
58607.2 31811 lineto
58494.7 31867.3 lineto
58269.8 31867.3 lineto
58157.3 31811 lineto
58101 31754.8 lineto
58044.8 31642.3 lineto
stroke
newpath
59169.6 32204.7 moveto
59225.9 32261 lineto
59338.4 32317.2 lineto
59619.6 32317.2 lineto
59732.1 32261 lineto
59788.3 32204.7 lineto
59844.6 32092.2 lineto
59844.6 31979.8 lineto
59788.3 31811 lineto
59113.4 31136.1 lineto
59844.6 31136.1 lineto
stroke
newpath
61250.6 31136.1 moveto
61250.6 32317.2 lineto
stroke
newpath
61756.8 31136.1 moveto
61756.8 31754.8 lineto
61700.6 31867.3 lineto
61588.1 31923.5 lineto
61419.4 31923.5 lineto
61306.9 31867.3 lineto
61250.6 31811 lineto
stroke
newpath
62488 31136.1 moveto
62375.5 31192.4 lineto
62319.2 31248.6 lineto
62263 31361.1 lineto
62263 31698.5 lineto
62319.2 31811 lineto
62375.5 31867.3 lineto
62488 31923.5 lineto
62656.7 31923.5 lineto
62769.2 31867.3 lineto
62825.4 31811 lineto
62881.7 31698.5 lineto
62881.7 31361.1 lineto
62825.4 31248.6 lineto
62769.2 31192.4 lineto
62656.7 31136.1 lineto
62488 31136.1 lineto
stroke
newpath
63556.6 31136.1 moveto
63444.1 31192.4 lineto
63387.9 31304.8 lineto
63387.9 32317.2 lineto
stroke
newpath
64456.5 31192.4 moveto
64344 31136.1 lineto
64119 31136.1 lineto
64006.5 31192.4 lineto
63950.3 31304.8 lineto
63950.3 31754.8 lineto
64006.5 31867.3 lineto
64119 31923.5 lineto
64344 31923.5 lineto
64456.5 31867.3 lineto
64512.7 31754.8 lineto
64512.7 31642.3 lineto
63950.3 31529.8 lineto
stroke
newpath
64962.7 31192.4 moveto
65075.2 31136.1 lineto
65300.1 31136.1 lineto
65412.6 31192.4 lineto
65468.9 31304.8 lineto
65468.9 31361.1 lineto
65412.6 31473.6 lineto
65300.1 31529.8 lineto
65131.4 31529.8 lineto
65018.9 31586.1 lineto
64962.7 31698.5 lineto
64962.7 31754.8 lineto
65018.9 31867.3 lineto
65131.4 31923.5 lineto
65300.1 31923.5 lineto
65412.6 31867.3 lineto
stroke
newpath
65862.6 30686.2 moveto
65918.8 30742.4 lineto
66031.3 30911.1 lineto
66087.5 31023.6 lineto
66143.8 31192.4 lineto
66200 31473.6 lineto
66200 31698.5 lineto
66143.8 31979.8 lineto
66087.5 32148.5 lineto
66031.3 32261 lineto
65918.8 32429.7 lineto
65862.6 32485.9 lineto
stroke
newpath
38925.7 30386.2 moveto
38925.7 29836.5 lineto
stroke
newpath
38650.8 30111.4 moveto
39200.6 30111.4 lineto
stroke
0 0 0 setrgbcolor
0 0 0 setrgbcolor
newpath
40553.2 30758.2 moveto
40665.7 30758.2 lineto
40778.2 30701.9 lineto
40834.4 30645.7 lineto
40890.7 30533.2 lineto
40946.9 30308.2 lineto
40946.9 30027 lineto
40890.7 29802 lineto
40834.4 29689.5 lineto
40778.2 29633.3 lineto
40665.7 29577.1 lineto
40553.2 29577.1 lineto
40440.7 29633.3 lineto
40384.5 29689.5 lineto
40328.3 29802 lineto
40272 30027 lineto
40272 30308.2 lineto
40328.3 30533.2 lineto
40384.5 30645.7 lineto
40440.7 30701.9 lineto
40553.2 30758.2 lineto
stroke
newpath
41453.1 29689.5 moveto
41509.4 29633.3 lineto
41453.1 29577.1 lineto
41396.9 29633.3 lineto
41453.1 29689.5 lineto
41453.1 29577.1 lineto
stroke
newpath
42521.7 30758.2 moveto
42296.8 30758.2 lineto
42184.3 30701.9 lineto
42128 30645.7 lineto
42015.5 30477 lineto
41959.3 30252 lineto
41959.3 29802 lineto
42015.5 29689.5 lineto
42071.8 29633.3 lineto
42184.3 29577.1 lineto
42409.2 29577.1 lineto
42521.7 29633.3 lineto
42578 29689.5 lineto
42634.2 29802 lineto
42634.2 30083.3 lineto
42578 30195.7 lineto
42521.7 30252 lineto
42409.2 30308.2 lineto
42184.3 30308.2 lineto
42071.8 30252 lineto
42015.5 30195.7 lineto
41959.3 30083.3 lineto
stroke
newpath
43365.4 30758.2 moveto
43477.9 30758.2 lineto
43590.3 30701.9 lineto
43646.6 30645.7 lineto
43702.8 30533.2 lineto
43759.1 30308.2 lineto
43759.1 30027 lineto
43702.8 29802 lineto
43646.6 29689.5 lineto
43590.3 29633.3 lineto
43477.9 29577.1 lineto
43365.4 29577.1 lineto
43252.9 29633.3 lineto
43196.6 29689.5 lineto
43140.4 29802 lineto
43084.2 30027 lineto
43084.2 30308.2 lineto
43140.4 30533.2 lineto
43196.6 30645.7 lineto
43252.9 30701.9 lineto
43365.4 30758.2 lineto
stroke
newpath
44265.3 29577.1 moveto
44265.3 30364.5 lineto
stroke
newpath
44265.3 30252 moveto
44321.5 30308.2 lineto
44434 30364.5 lineto
44602.7 30364.5 lineto
44715.2 30308.2 lineto
44771.4 30195.7 lineto
44771.4 29577.1 lineto
stroke
newpath
44771.4 30195.7 moveto
44827.7 30308.2 lineto
44940.2 30364.5 lineto
45108.9 30364.5 lineto
45221.4 30308.2 lineto
45277.6 30195.7 lineto
45277.6 29577.1 lineto
stroke
newpath
45840.1 29577.1 moveto
45840.1 30364.5 lineto
stroke
newpath
45840.1 30252 moveto
45896.3 30308.2 lineto
46008.8 30364.5 lineto
46177.5 30364.5 lineto
46290 30308.2 lineto
46346.3 30195.7 lineto
46346.3 29577.1 lineto
stroke
newpath
46346.3 30195.7 moveto
46402.5 30308.2 lineto
46515 30364.5 lineto
46683.7 30364.5 lineto
46796.2 30308.2 lineto
46852.4 30195.7 lineto
46852.4 29577.1 lineto
stroke
newpath
49158.4 30814.4 moveto
48146 29295.8 lineto
stroke
newpath
50677 30758.2 moveto
50789.4 30758.2 lineto
50901.9 30701.9 lineto
50958.2 30645.7 lineto
51014.4 30533.2 lineto
51070.7 30308.2 lineto
51070.7 30027 lineto
51014.4 29802 lineto
50958.2 29689.5 lineto
50901.9 29633.3 lineto
50789.4 29577.1 lineto
50677 29577.1 lineto
50564.5 29633.3 lineto
50508.2 29689.5 lineto
50452 29802 lineto
50395.7 30027 lineto
50395.7 30308.2 lineto
50452 30533.2 lineto
50508.2 30645.7 lineto
50564.5 30701.9 lineto
50677 30758.2 lineto
stroke
newpath
51576.8 29689.5 moveto
51633.1 29633.3 lineto
51576.8 29577.1 lineto
51520.6 29633.3 lineto
51576.8 29689.5 lineto
51576.8 29577.1 lineto
stroke
newpath
52364.2 30758.2 moveto
52476.7 30758.2 lineto
52589.2 30701.9 lineto
52645.5 30645.7 lineto
52701.7 30533.2 lineto
52757.9 30308.2 lineto
52757.9 30027 lineto
52701.7 29802 lineto
52645.5 29689.5 lineto
52589.2 29633.3 lineto
52476.7 29577.1 lineto
52364.2 29577.1 lineto
52251.8 29633.3 lineto
52195.5 29689.5 lineto
52139.3 29802 lineto
52083 30027 lineto
52083 30308.2 lineto
52139.3 30533.2 lineto
52195.5 30645.7 lineto
52251.8 30701.9 lineto
52364.2 30758.2 lineto
stroke
newpath
53207.9 30645.7 moveto
53264.1 30701.9 lineto
53376.6 30758.2 lineto
53657.8 30758.2 lineto
53770.3 30701.9 lineto
53826.6 30645.7 lineto
53882.8 30533.2 lineto
53882.8 30420.7 lineto
53826.6 30252 lineto
53151.6 29577.1 lineto
53882.8 29577.1 lineto
stroke
newpath
54895.2 30364.5 moveto
54895.2 29577.1 lineto
stroke
newpath
54614 30814.4 moveto
54332.7 29970.8 lineto
55063.9 29970.8 lineto
stroke
newpath
55457.6 30758.2 moveto
55457.6 30533.2 lineto
stroke
newpath
55907.6 30758.2 moveto
55907.6 30533.2 lineto
stroke
newpath
57651.1 29127.1 moveto
57594.8 29183.4 lineto
57482.4 29352.1 lineto
57426.1 29464.6 lineto
57369.9 29633.3 lineto
57313.6 29914.5 lineto
57313.6 30139.5 lineto
57369.9 30420.7 lineto
57426.1 30589.4 lineto
57482.4 30701.9 lineto
57594.8 30870.7 lineto
57651.1 30926.9 lineto
stroke
newpath
58719.7 29577.1 moveto
58044.8 29577.1 lineto
stroke
newpath
58382.2 29577.1 moveto
58382.2 30758.2 lineto
58269.8 30589.4 lineto
58157.3 30477 lineto
58044.8 30420.7 lineto
stroke
newpath
60125.8 29577.1 moveto
60125.8 30758.2 lineto
stroke
newpath
60632 29577.1 moveto
60632 30195.7 lineto
60575.7 30308.2 lineto
60463.2 30364.5 lineto
60294.5 30364.5 lineto
60182 30308.2 lineto
60125.8 30252 lineto
stroke
newpath
61363.1 29577.1 moveto
61250.6 29633.3 lineto
61194.4 29689.5 lineto
61138.1 29802 lineto
61138.1 30139.5 lineto
61194.4 30252 lineto
61250.6 30308.2 lineto
61363.1 30364.5 lineto
61531.8 30364.5 lineto
61644.3 30308.2 lineto
61700.6 30252 lineto
61756.8 30139.5 lineto
61756.8 29802 lineto
61700.6 29689.5 lineto
61644.3 29633.3 lineto
61531.8 29577.1 lineto
61363.1 29577.1 lineto
stroke
newpath
62431.7 29577.1 moveto
62319.2 29633.3 lineto
62263 29745.8 lineto
62263 30758.2 lineto
stroke
newpath
63331.6 29633.3 moveto
63219.1 29577.1 lineto
62994.2 29577.1 lineto
62881.7 29633.3 lineto
62825.4 29745.8 lineto
62825.4 30195.7 lineto
62881.7 30308.2 lineto
62994.2 30364.5 lineto
63219.1 30364.5 lineto
63331.6 30308.2 lineto
63387.9 30195.7 lineto
63387.9 30083.3 lineto
62825.4 29970.8 lineto
stroke
newpath
63781.6 29127.1 moveto
63837.8 29183.4 lineto
63950.3 29352.1 lineto
64006.5 29464.6 lineto
64062.8 29633.3 lineto
64119 29914.5 lineto
64119 30139.5 lineto
64062.8 30420.7 lineto
64006.5 30589.4 lineto
63950.3 30701.9 lineto
63837.8 30870.7 lineto
63781.6 30926.9 lineto
stroke
newpath
39113.4 28341.8 moveto
39113.4 28762.9 lineto
38692.3 28762.9 lineto
38692.3 28341.8 lineto
39113.4 28341.8 lineto
poly0
0 0 0 setrgbcolor
0 0 0 setrgbcolor
newpath
40553.2 29199.1 moveto
40665.7 29199.1 lineto
40778.2 29142.9 lineto
40834.4 29086.6 lineto
40890.7 28974.1 lineto
40946.9 28749.2 lineto
40946.9 28468 lineto
40890.7 28243 lineto
40834.4 28130.5 lineto
40778.2 28074.3 lineto
40665.7 28018 lineto
40553.2 28018 lineto
40440.7 28074.3 lineto
40384.5 28130.5 lineto
40328.3 28243 lineto
40272 28468 lineto
40272 28749.2 lineto
40328.3 28974.1 lineto
40384.5 29086.6 lineto
40440.7 29142.9 lineto
40553.2 29199.1 lineto
stroke
newpath
41453.1 28130.5 moveto
41509.4 28074.3 lineto
41453.1 28018 lineto
41396.9 28074.3 lineto
41453.1 28130.5 lineto
41453.1 28018 lineto
stroke
newpath
42521.7 29199.1 moveto
42296.8 29199.1 lineto
42184.3 29142.9 lineto
42128 29086.6 lineto
42015.5 28917.9 lineto
41959.3 28692.9 lineto
41959.3 28243 lineto
42015.5 28130.5 lineto
42071.8 28074.3 lineto
42184.3 28018 lineto
42409.2 28018 lineto
42521.7 28074.3 lineto
42578 28130.5 lineto
42634.2 28243 lineto
42634.2 28524.2 lineto
42578 28636.7 lineto
42521.7 28692.9 lineto
42409.2 28749.2 lineto
42184.3 28749.2 lineto
42071.8 28692.9 lineto
42015.5 28636.7 lineto
41959.3 28524.2 lineto
stroke
newpath
43702.8 29199.1 moveto
43140.4 29199.1 lineto
43084.2 28636.7 lineto
43140.4 28692.9 lineto
43252.9 28749.2 lineto
43534.1 28749.2 lineto
43646.6 28692.9 lineto
43702.8 28636.7 lineto
43759.1 28524.2 lineto
43759.1 28243 lineto
43702.8 28130.5 lineto
43646.6 28074.3 lineto
43534.1 28018 lineto
43252.9 28018 lineto
43140.4 28074.3 lineto
43084.2 28130.5 lineto
stroke
newpath
44265.3 28018 moveto
44265.3 28805.4 lineto
stroke
newpath
44265.3 28692.9 moveto
44321.5 28749.2 lineto
44434 28805.4 lineto
44602.7 28805.4 lineto
44715.2 28749.2 lineto
44771.4 28636.7 lineto
44771.4 28018 lineto
stroke
newpath
44771.4 28636.7 moveto
44827.7 28749.2 lineto
44940.2 28805.4 lineto
45108.9 28805.4 lineto
45221.4 28749.2 lineto
45277.6 28636.7 lineto
45277.6 28018 lineto
stroke
newpath
45840.1 28018 moveto
45840.1 28805.4 lineto
stroke
newpath
45840.1 28692.9 moveto
45896.3 28749.2 lineto
46008.8 28805.4 lineto
46177.5 28805.4 lineto
46290 28749.2 lineto
46346.3 28636.7 lineto
46346.3 28018 lineto
stroke
newpath
46346.3 28636.7 moveto
46402.5 28749.2 lineto
46515 28805.4 lineto
46683.7 28805.4 lineto
46796.2 28749.2 lineto
46852.4 28636.7 lineto
46852.4 28018 lineto
stroke
newpath
49158.4 29255.4 moveto
48146 27736.8 lineto
stroke
newpath
50677 29199.1 moveto
50789.4 29199.1 lineto
50901.9 29142.9 lineto
50958.2 29086.6 lineto
51014.4 28974.1 lineto
51070.7 28749.2 lineto
51070.7 28468 lineto
51014.4 28243 lineto
50958.2 28130.5 lineto
50901.9 28074.3 lineto
50789.4 28018 lineto
50677 28018 lineto
50564.5 28074.3 lineto
50508.2 28130.5 lineto
50452 28243 lineto
50395.7 28468 lineto
50395.7 28749.2 lineto
50452 28974.1 lineto
50508.2 29086.6 lineto
50564.5 29142.9 lineto
50677 29199.1 lineto
stroke
newpath
51576.8 28130.5 moveto
51633.1 28074.3 lineto
51576.8 28018 lineto
51520.6 28074.3 lineto
51576.8 28130.5 lineto
51576.8 28018 lineto
stroke
newpath
52364.2 29199.1 moveto
52476.7 29199.1 lineto
52589.2 29142.9 lineto
52645.5 29086.6 lineto
52701.7 28974.1 lineto
52757.9 28749.2 lineto
52757.9 28468 lineto
52701.7 28243 lineto
52645.5 28130.5 lineto
52589.2 28074.3 lineto
52476.7 28018 lineto
52364.2 28018 lineto
52251.8 28074.3 lineto
52195.5 28130.5 lineto
52139.3 28243 lineto
52083 28468 lineto
52083 28749.2 lineto
52139.3 28974.1 lineto
52195.5 29086.6 lineto
52251.8 29142.9 lineto
52364.2 29199.1 lineto
stroke
newpath
53207.9 29086.6 moveto
53264.1 29142.9 lineto
53376.6 29199.1 lineto
53657.8 29199.1 lineto
53770.3 29142.9 lineto
53826.6 29086.6 lineto
53882.8 28974.1 lineto
53882.8 28861.7 lineto
53826.6 28692.9 lineto
53151.6 28018 lineto
53882.8 28018 lineto
stroke
newpath
54895.2 29199.1 moveto
54670.2 29199.1 lineto
54557.7 29142.9 lineto
54501.5 29086.6 lineto
54389 28917.9 lineto
54332.7 28692.9 lineto
54332.7 28243 lineto
54389 28130.5 lineto
54445.2 28074.3 lineto
54557.7 28018 lineto
54782.7 28018 lineto
54895.2 28074.3 lineto
54951.4 28130.5 lineto
55007.7 28243 lineto
55007.7 28524.2 lineto
54951.4 28636.7 lineto
54895.2 28692.9 lineto
54782.7 28749.2 lineto
54557.7 28749.2 lineto
54445.2 28692.9 lineto
54389 28636.7 lineto
54332.7 28524.2 lineto
stroke
newpath
55457.6 29199.1 moveto
55457.6 28974.1 lineto
stroke
newpath
55907.6 29199.1 moveto
55907.6 28974.1 lineto
stroke
newpath
57651.1 27568.1 moveto
57594.8 27624.3 lineto
57482.4 27793 lineto
57426.1 27905.5 lineto
57369.9 28074.3 lineto
57313.6 28355.5 lineto
57313.6 28580.4 lineto
57369.9 28861.7 lineto
57426.1 29030.4 lineto
57482.4 29142.9 lineto
57594.8 29311.6 lineto
57651.1 29367.8 lineto
stroke
newpath
58326 29199.1 moveto
58438.5 29199.1 lineto
58551 29142.9 lineto
58607.2 29086.6 lineto
58663.5 28974.1 lineto
58719.7 28749.2 lineto
58719.7 28468 lineto
58663.5 28243 lineto
58607.2 28130.5 lineto
58551 28074.3 lineto
58438.5 28018 lineto
58326 28018 lineto
58213.5 28074.3 lineto
58157.3 28130.5 lineto
58101 28243 lineto
58044.8 28468 lineto
58044.8 28749.2 lineto
58101 28974.1 lineto
58157.3 29086.6 lineto
58213.5 29142.9 lineto
58326 29199.1 lineto
stroke
newpath
60125.8 28018 moveto
60125.8 29199.1 lineto
stroke
newpath
60632 28018 moveto
60632 28636.7 lineto
60575.7 28749.2 lineto
60463.2 28805.4 lineto
60294.5 28805.4 lineto
60182 28749.2 lineto
60125.8 28692.9 lineto
stroke
newpath
61363.1 28018 moveto
61250.6 28074.3 lineto
61194.4 28130.5 lineto
61138.1 28243 lineto
61138.1 28580.4 lineto
61194.4 28692.9 lineto
61250.6 28749.2 lineto
61363.1 28805.4 lineto
61531.8 28805.4 lineto
61644.3 28749.2 lineto
61700.6 28692.9 lineto
61756.8 28580.4 lineto
61756.8 28243 lineto
61700.6 28130.5 lineto
61644.3 28074.3 lineto
61531.8 28018 lineto
61363.1 28018 lineto
stroke
newpath
62431.7 28018 moveto
62319.2 28074.3 lineto
62263 28186.7 lineto
62263 29199.1 lineto
stroke
newpath
63331.6 28074.3 moveto
63219.1 28018 lineto
62994.2 28018 lineto
62881.7 28074.3 lineto
62825.4 28186.7 lineto
62825.4 28636.7 lineto
62881.7 28749.2 lineto
62994.2 28805.4 lineto
63219.1 28805.4 lineto
63331.6 28749.2 lineto
63387.9 28636.7 lineto
63387.9 28524.2 lineto
62825.4 28411.7 lineto
stroke
newpath
63837.8 28074.3 moveto
63950.3 28018 lineto
64175.3 28018 lineto
64287.8 28074.3 lineto
64344 28186.7 lineto
64344 28243 lineto
64287.8 28355.5 lineto
64175.3 28411.7 lineto
64006.5 28411.7 lineto
63894.1 28468 lineto
63837.8 28580.4 lineto
63837.8 28636.7 lineto
63894.1 28749.2 lineto
64006.5 28805.4 lineto
64175.3 28805.4 lineto
64287.8 28749.2 lineto
stroke
newpath
65750.1 28468 moveto
66650 28468 lineto
stroke
newpath
66200 28018 moveto
66200 28917.9 lineto
stroke
newpath
68618.5 28805.4 moveto
68618.5 28018 lineto
stroke
newpath
68337.2 29255.4 moveto
68056 28411.7 lineto
68787.2 28411.7 lineto
stroke
newpath
70080.8 28074.3 moveto
70193.3 28018 lineto
70418.2 28018 lineto
70530.7 28074.3 lineto
70587 28186.7 lineto
70587 28243 lineto
70530.7 28355.5 lineto
70418.2 28411.7 lineto
70249.5 28411.7 lineto
70137 28468 lineto
70080.8 28580.4 lineto
70080.8 28636.7 lineto
70137 28749.2 lineto
70249.5 28805.4 lineto
70418.2 28805.4 lineto
70530.7 28749.2 lineto
stroke
newpath
71261.9 28018 moveto
71149.4 28074.3 lineto
71093.1 28186.7 lineto
71093.1 29199.1 lineto
stroke
newpath
71880.5 28018 moveto
71768.1 28074.3 lineto
71711.8 28130.5 lineto
71655.6 28243 lineto
71655.6 28580.4 lineto
71711.8 28692.9 lineto
71768.1 28749.2 lineto
71880.5 28805.4 lineto
72049.3 28805.4 lineto
72161.8 28749.2 lineto
72218 28692.9 lineto
72274.3 28580.4 lineto
72274.3 28243 lineto
72218 28130.5 lineto
72161.8 28074.3 lineto
72049.3 28018 lineto
71880.5 28018 lineto
stroke
newpath
72611.7 28805.4 moveto
73061.7 28805.4 lineto
stroke
newpath
72780.4 29199.1 moveto
72780.4 28186.7 lineto
72836.7 28074.3 lineto
72949.2 28018 lineto
73061.7 28018 lineto
stroke
newpath
73399.1 28074.3 moveto
73511.6 28018 lineto
73736.6 28018 lineto
73849.1 28074.3 lineto
73905.3 28186.7 lineto
73905.3 28243 lineto
73849.1 28355.5 lineto
73736.6 28411.7 lineto
73567.8 28411.7 lineto
73455.4 28468 lineto
73399.1 28580.4 lineto
73399.1 28636.7 lineto
73455.4 28749.2 lineto
73567.8 28805.4 lineto
73736.6 28805.4 lineto
73849.1 28749.2 lineto
stroke
newpath
74299 27568.1 moveto
74355.2 27624.3 lineto
74467.7 27793 lineto
74524 27905.5 lineto
74580.2 28074.3 lineto
74636.5 28355.5 lineto
74636.5 28580.4 lineto
74580.2 28861.7 lineto
74524 29030.4 lineto
74467.7 29142.9 lineto
74355.2 29311.6 lineto
74299 29367.8 lineto
stroke
showpage
grestore
%%EOF
