G04 #@! TF.GenerationSoftware,KiCad,Pcbnew,(5.1.5-0-10_14)*
G04 #@! TF.CreationDate,2020-11-09T01:38:33+01:00*
G04 #@! TF.ProjectId,Wireless_ECG_PPG_RX,57697265-6c65-4737-935f-4543475f5050,rev?*
G04 #@! TF.SameCoordinates,Original*
G04 #@! TF.FileFunction,Soldermask,Bot*
G04 #@! TF.FilePolarity,Negative*
%FSLAX46Y46*%
G04 Gerber Fmt 4.6, Leading zero omitted, Abs format (unit mm)*
G04 Created by KiCad (PCBNEW (5.1.5-0-10_14)) date 2020-11-09 01:38:33*
%MOMM*%
%LPD*%
G04 APERTURE LIST*
%ADD10C,0.100000*%
G04 APERTURE END LIST*
D10*
G36*
X160197421Y-81259405D02*
G01*
X160319947Y-81296573D01*
X160432867Y-81356930D01*
X160531843Y-81438157D01*
X160613070Y-81537132D01*
X160673427Y-81650052D01*
X160710595Y-81772578D01*
X160720000Y-81868068D01*
X160720000Y-83131932D01*
X160710595Y-83227422D01*
X160673427Y-83349948D01*
X160613070Y-83462868D01*
X160531843Y-83561843D01*
X160432868Y-83643070D01*
X160319948Y-83703427D01*
X160197422Y-83740595D01*
X160070000Y-83753145D01*
X159942579Y-83740595D01*
X159820053Y-83703427D01*
X159707133Y-83643070D01*
X159608158Y-83561843D01*
X159526931Y-83462868D01*
X159466574Y-83349948D01*
X159429406Y-83227422D01*
X159420001Y-83131932D01*
X159420000Y-81868069D01*
X159429405Y-81772579D01*
X159466573Y-81650053D01*
X159526930Y-81537133D01*
X159608157Y-81438157D01*
X159707132Y-81356930D01*
X159820052Y-81296573D01*
X159942578Y-81259405D01*
X160070000Y-81246855D01*
X160197421Y-81259405D01*
G37*
G36*
X151557421Y-81259405D02*
G01*
X151679947Y-81296573D01*
X151792867Y-81356930D01*
X151891843Y-81438157D01*
X151973070Y-81537132D01*
X152033427Y-81650052D01*
X152070595Y-81772578D01*
X152080000Y-81868068D01*
X152080000Y-83131932D01*
X152070595Y-83227422D01*
X152033427Y-83349948D01*
X151973070Y-83462868D01*
X151891843Y-83561843D01*
X151792868Y-83643070D01*
X151679948Y-83703427D01*
X151557422Y-83740595D01*
X151430000Y-83753145D01*
X151302579Y-83740595D01*
X151180053Y-83703427D01*
X151067133Y-83643070D01*
X150968158Y-83561843D01*
X150886931Y-83462868D01*
X150826574Y-83349948D01*
X150789406Y-83227422D01*
X150780001Y-83131932D01*
X150780000Y-81868069D01*
X150789405Y-81772579D01*
X150826573Y-81650053D01*
X150886930Y-81537133D01*
X150968157Y-81438157D01*
X151067132Y-81356930D01*
X151180052Y-81296573D01*
X151302578Y-81259405D01*
X151430000Y-81246855D01*
X151557421Y-81259405D01*
G37*
G36*
X177891749Y-81662944D02*
G01*
X177916893Y-81670572D01*
X177940064Y-81682957D01*
X177960374Y-81699626D01*
X177977043Y-81719936D01*
X177989428Y-81743107D01*
X177997056Y-81768251D01*
X178000000Y-81798144D01*
X178000000Y-82261856D01*
X177997056Y-82291749D01*
X177989428Y-82316893D01*
X177977043Y-82340064D01*
X177960374Y-82360374D01*
X177940064Y-82377043D01*
X177916893Y-82389428D01*
X177891749Y-82397056D01*
X177861856Y-82400000D01*
X177448144Y-82400000D01*
X177418251Y-82397056D01*
X177393107Y-82389428D01*
X177369936Y-82377043D01*
X177349626Y-82360374D01*
X177332957Y-82340064D01*
X177320572Y-82316893D01*
X177312944Y-82291749D01*
X177310000Y-82261856D01*
X177310000Y-81798144D01*
X177312944Y-81768251D01*
X177320572Y-81743107D01*
X177332957Y-81719936D01*
X177349626Y-81699626D01*
X177369936Y-81682957D01*
X177393107Y-81670572D01*
X177418251Y-81662944D01*
X177448144Y-81660000D01*
X177861856Y-81660000D01*
X177891749Y-81662944D01*
G37*
G36*
X178861749Y-81662944D02*
G01*
X178886893Y-81670572D01*
X178910064Y-81682957D01*
X178930374Y-81699626D01*
X178947043Y-81719936D01*
X178959428Y-81743107D01*
X178967056Y-81768251D01*
X178970000Y-81798144D01*
X178970000Y-82261856D01*
X178967056Y-82291749D01*
X178959428Y-82316893D01*
X178947043Y-82340064D01*
X178930374Y-82360374D01*
X178910064Y-82377043D01*
X178886893Y-82389428D01*
X178861749Y-82397056D01*
X178831856Y-82400000D01*
X178418144Y-82400000D01*
X178388251Y-82397056D01*
X178363107Y-82389428D01*
X178339936Y-82377043D01*
X178319626Y-82360374D01*
X178302957Y-82340064D01*
X178290572Y-82316893D01*
X178282944Y-82291749D01*
X178280000Y-82261856D01*
X178280000Y-81798144D01*
X178282944Y-81768251D01*
X178290572Y-81743107D01*
X178302957Y-81719936D01*
X178319626Y-81699626D01*
X178339936Y-81682957D01*
X178363107Y-81670572D01*
X178388251Y-81662944D01*
X178418144Y-81660000D01*
X178831856Y-81660000D01*
X178861749Y-81662944D01*
G37*
G36*
X187821780Y-81800000D02*
G01*
X185571780Y-81800000D01*
X185571780Y-80900000D01*
X187821780Y-80900000D01*
X187821780Y-81800000D01*
G37*
G36*
X185051780Y-79900000D02*
G01*
X183751780Y-79900000D01*
X183751780Y-79000000D01*
X185051780Y-79000000D01*
X185051780Y-79900000D01*
G37*
G36*
X151553304Y-77476101D02*
G01*
X151644275Y-77503697D01*
X151671871Y-77512068D01*
X151781143Y-77570475D01*
X151790484Y-77578141D01*
X151876925Y-77649080D01*
X151955522Y-77744851D01*
X151955524Y-77744855D01*
X151955525Y-77744856D01*
X152013932Y-77854128D01*
X152019753Y-77873319D01*
X152049899Y-77972695D01*
X152059000Y-78065101D01*
X152059000Y-79284899D01*
X152049899Y-79377305D01*
X152032109Y-79435949D01*
X152013932Y-79495872D01*
X151955525Y-79605144D01*
X151876922Y-79700922D01*
X151781144Y-79779525D01*
X151671872Y-79837932D01*
X151644276Y-79846303D01*
X151553305Y-79873899D01*
X151430000Y-79886043D01*
X151306696Y-79873899D01*
X151215725Y-79846303D01*
X151188129Y-79837932D01*
X151078857Y-79779525D01*
X150983079Y-79700922D01*
X150904476Y-79605144D01*
X150846069Y-79495872D01*
X150827892Y-79435949D01*
X150810102Y-79377305D01*
X150801001Y-79284899D01*
X150801000Y-78065102D01*
X150810101Y-77972696D01*
X150837978Y-77880800D01*
X150846068Y-77854129D01*
X150904475Y-77744857D01*
X150956350Y-77681646D01*
X150983080Y-77649075D01*
X151078851Y-77570478D01*
X151078855Y-77570476D01*
X151078856Y-77570475D01*
X151188128Y-77512068D01*
X151215724Y-77503697D01*
X151306695Y-77476101D01*
X151430000Y-77463957D01*
X151553304Y-77476101D01*
G37*
G36*
X160193304Y-77476101D02*
G01*
X160284275Y-77503697D01*
X160311871Y-77512068D01*
X160421143Y-77570475D01*
X160430484Y-77578141D01*
X160516925Y-77649080D01*
X160595522Y-77744851D01*
X160595524Y-77744855D01*
X160595525Y-77744856D01*
X160653932Y-77854128D01*
X160659753Y-77873319D01*
X160689899Y-77972695D01*
X160699000Y-78065101D01*
X160699000Y-79284899D01*
X160689899Y-79377305D01*
X160672109Y-79435949D01*
X160653932Y-79495872D01*
X160595525Y-79605144D01*
X160516922Y-79700922D01*
X160421144Y-79779525D01*
X160311872Y-79837932D01*
X160284276Y-79846303D01*
X160193305Y-79873899D01*
X160070000Y-79886043D01*
X159946696Y-79873899D01*
X159855725Y-79846303D01*
X159828129Y-79837932D01*
X159718857Y-79779525D01*
X159623079Y-79700922D01*
X159544476Y-79605144D01*
X159486069Y-79495872D01*
X159467892Y-79435949D01*
X159450102Y-79377305D01*
X159441001Y-79284899D01*
X159441000Y-78065102D01*
X159450101Y-77972696D01*
X159477978Y-77880800D01*
X159486068Y-77854129D01*
X159544475Y-77744857D01*
X159596350Y-77681646D01*
X159623080Y-77649075D01*
X159718851Y-77570478D01*
X159718855Y-77570476D01*
X159718856Y-77570475D01*
X159828128Y-77512068D01*
X159855724Y-77503697D01*
X159946695Y-77476101D01*
X160070000Y-77463957D01*
X160193304Y-77476101D01*
G37*
G36*
X172363529Y-79092944D02*
G01*
X172388673Y-79100572D01*
X172411844Y-79112957D01*
X172432154Y-79129626D01*
X172448823Y-79149936D01*
X172461208Y-79173107D01*
X172468836Y-79198251D01*
X172471780Y-79228144D01*
X172471780Y-79641856D01*
X172468836Y-79671749D01*
X172461208Y-79696893D01*
X172448823Y-79720064D01*
X172432154Y-79740374D01*
X172411844Y-79757043D01*
X172388673Y-79769428D01*
X172363529Y-79777056D01*
X172333636Y-79780000D01*
X171869924Y-79780000D01*
X171840031Y-79777056D01*
X171814887Y-79769428D01*
X171791716Y-79757043D01*
X171771406Y-79740374D01*
X171754737Y-79720064D01*
X171742352Y-79696893D01*
X171734724Y-79671749D01*
X171731780Y-79641856D01*
X171731780Y-79228144D01*
X171734724Y-79198251D01*
X171742352Y-79173107D01*
X171754737Y-79149936D01*
X171771406Y-79129626D01*
X171791716Y-79112957D01*
X171814887Y-79100572D01*
X171840031Y-79092944D01*
X171869924Y-79090000D01*
X172333636Y-79090000D01*
X172363529Y-79092944D01*
G37*
G36*
X158856467Y-79049027D02*
G01*
X158922894Y-79076542D01*
X158982673Y-79116485D01*
X159033515Y-79167327D01*
X159073458Y-79227106D01*
X159100973Y-79293533D01*
X159115000Y-79364052D01*
X159115000Y-79435948D01*
X159100973Y-79506467D01*
X159073458Y-79572894D01*
X159033515Y-79632673D01*
X158982673Y-79683515D01*
X158922894Y-79723458D01*
X158922893Y-79723459D01*
X158922892Y-79723459D01*
X158856467Y-79750973D01*
X158785949Y-79765000D01*
X158714051Y-79765000D01*
X158643533Y-79750973D01*
X158577108Y-79723459D01*
X158577107Y-79723459D01*
X158577106Y-79723458D01*
X158517327Y-79683515D01*
X158466485Y-79632673D01*
X158426542Y-79572894D01*
X158399027Y-79506467D01*
X158385000Y-79435948D01*
X158385000Y-79364052D01*
X158399027Y-79293533D01*
X158426542Y-79227106D01*
X158466485Y-79167327D01*
X158517327Y-79116485D01*
X158577106Y-79076542D01*
X158643533Y-79049027D01*
X158714051Y-79035000D01*
X158785949Y-79035000D01*
X158856467Y-79049027D01*
G37*
G36*
X152856467Y-79049027D02*
G01*
X152922894Y-79076542D01*
X152982673Y-79116485D01*
X153033515Y-79167327D01*
X153073458Y-79227106D01*
X153100973Y-79293533D01*
X153115000Y-79364052D01*
X153115000Y-79435948D01*
X153100973Y-79506467D01*
X153073458Y-79572894D01*
X153033515Y-79632673D01*
X152982673Y-79683515D01*
X152922894Y-79723458D01*
X152922893Y-79723459D01*
X152922892Y-79723459D01*
X152856467Y-79750973D01*
X152785949Y-79765000D01*
X152714051Y-79765000D01*
X152643533Y-79750973D01*
X152577108Y-79723459D01*
X152577107Y-79723459D01*
X152577106Y-79723458D01*
X152517327Y-79683515D01*
X152466485Y-79632673D01*
X152426542Y-79572894D01*
X152399027Y-79506467D01*
X152385000Y-79435948D01*
X152385000Y-79364052D01*
X152399027Y-79293533D01*
X152426542Y-79227106D01*
X152466485Y-79167327D01*
X152517327Y-79116485D01*
X152577106Y-79076542D01*
X152643533Y-79049027D01*
X152714051Y-79035000D01*
X152785949Y-79035000D01*
X152856467Y-79049027D01*
G37*
G36*
X174286946Y-73026310D02*
G01*
X174296142Y-73029100D01*
X174304620Y-73033631D01*
X174312050Y-73039730D01*
X174318149Y-73047160D01*
X174322680Y-73055638D01*
X174325469Y-73064834D01*
X174325948Y-73069693D01*
X174328862Y-73084343D01*
X174334578Y-73098144D01*
X174342877Y-73110564D01*
X174353439Y-73121127D01*
X174365859Y-73129426D01*
X174379659Y-73135143D01*
X174394310Y-73138057D01*
X174409248Y-73138057D01*
X174423898Y-73135143D01*
X174437699Y-73129427D01*
X174450119Y-73121128D01*
X174460682Y-73110566D01*
X174468981Y-73098146D01*
X174474698Y-73084346D01*
X174477612Y-73069693D01*
X174478091Y-73064834D01*
X174480880Y-73055638D01*
X174485411Y-73047160D01*
X174491510Y-73039730D01*
X174498940Y-73033631D01*
X174507418Y-73029100D01*
X174516614Y-73026310D01*
X174529921Y-73025000D01*
X174773639Y-73025000D01*
X174786946Y-73026310D01*
X174796142Y-73029100D01*
X174804620Y-73033631D01*
X174812050Y-73039730D01*
X174818149Y-73047160D01*
X174822680Y-73055638D01*
X174825469Y-73064834D01*
X174825948Y-73069693D01*
X174828862Y-73084343D01*
X174834578Y-73098144D01*
X174842877Y-73110564D01*
X174853439Y-73121127D01*
X174865859Y-73129426D01*
X174879659Y-73135143D01*
X174894310Y-73138057D01*
X174909248Y-73138057D01*
X174923898Y-73135143D01*
X174937699Y-73129427D01*
X174950119Y-73121128D01*
X174960682Y-73110566D01*
X174968981Y-73098146D01*
X174974698Y-73084346D01*
X174977612Y-73069693D01*
X174978091Y-73064834D01*
X174980880Y-73055638D01*
X174985411Y-73047160D01*
X174991510Y-73039730D01*
X174998940Y-73033631D01*
X175007418Y-73029100D01*
X175016614Y-73026310D01*
X175029921Y-73025000D01*
X175273639Y-73025000D01*
X175286946Y-73026310D01*
X175296142Y-73029100D01*
X175304620Y-73033631D01*
X175312050Y-73039730D01*
X175318149Y-73047160D01*
X175322680Y-73055638D01*
X175325469Y-73064834D01*
X175325948Y-73069693D01*
X175328862Y-73084343D01*
X175334578Y-73098144D01*
X175342877Y-73110564D01*
X175353439Y-73121127D01*
X175365859Y-73129426D01*
X175379659Y-73135143D01*
X175394310Y-73138057D01*
X175409248Y-73138057D01*
X175423898Y-73135143D01*
X175437699Y-73129427D01*
X175450119Y-73121128D01*
X175460682Y-73110566D01*
X175468981Y-73098146D01*
X175474698Y-73084346D01*
X175477612Y-73069693D01*
X175478091Y-73064834D01*
X175480880Y-73055638D01*
X175485411Y-73047160D01*
X175491510Y-73039730D01*
X175498940Y-73033631D01*
X175507418Y-73029100D01*
X175516614Y-73026310D01*
X175529921Y-73025000D01*
X175773639Y-73025000D01*
X175786946Y-73026310D01*
X175796142Y-73029100D01*
X175804620Y-73033631D01*
X175812050Y-73039730D01*
X175818149Y-73047160D01*
X175822680Y-73055638D01*
X175825469Y-73064834D01*
X175825948Y-73069693D01*
X175828862Y-73084343D01*
X175834578Y-73098144D01*
X175842877Y-73110564D01*
X175853439Y-73121127D01*
X175865859Y-73129426D01*
X175879659Y-73135143D01*
X175894310Y-73138057D01*
X175909248Y-73138057D01*
X175923898Y-73135143D01*
X175937699Y-73129427D01*
X175950119Y-73121128D01*
X175960682Y-73110566D01*
X175968981Y-73098146D01*
X175974698Y-73084346D01*
X175977612Y-73069693D01*
X175978091Y-73064834D01*
X175980880Y-73055638D01*
X175985411Y-73047160D01*
X175991510Y-73039730D01*
X175998940Y-73033631D01*
X176007418Y-73029100D01*
X176016614Y-73026310D01*
X176029921Y-73025000D01*
X176273639Y-73025000D01*
X176286946Y-73026310D01*
X176296142Y-73029100D01*
X176304620Y-73033631D01*
X176312050Y-73039730D01*
X176318149Y-73047160D01*
X176322680Y-73055638D01*
X176325469Y-73064834D01*
X176325948Y-73069693D01*
X176328862Y-73084343D01*
X176334578Y-73098144D01*
X176342877Y-73110564D01*
X176353439Y-73121127D01*
X176365859Y-73129426D01*
X176379659Y-73135143D01*
X176394310Y-73138057D01*
X176409248Y-73138057D01*
X176423898Y-73135143D01*
X176437699Y-73129427D01*
X176450119Y-73121128D01*
X176460682Y-73110566D01*
X176468981Y-73098146D01*
X176474698Y-73084346D01*
X176477612Y-73069693D01*
X176478091Y-73064834D01*
X176480880Y-73055638D01*
X176485411Y-73047160D01*
X176491510Y-73039730D01*
X176498940Y-73033631D01*
X176507418Y-73029100D01*
X176516614Y-73026310D01*
X176529921Y-73025000D01*
X176773639Y-73025000D01*
X176786946Y-73026310D01*
X176796142Y-73029100D01*
X176804620Y-73033631D01*
X176812050Y-73039730D01*
X176818149Y-73047160D01*
X176822680Y-73055638D01*
X176825469Y-73064834D01*
X176825948Y-73069693D01*
X176828862Y-73084343D01*
X176834578Y-73098144D01*
X176842877Y-73110564D01*
X176853439Y-73121127D01*
X176865859Y-73129426D01*
X176879659Y-73135143D01*
X176894310Y-73138057D01*
X176909248Y-73138057D01*
X176923898Y-73135143D01*
X176937699Y-73129427D01*
X176950119Y-73121128D01*
X176960682Y-73110566D01*
X176968981Y-73098146D01*
X176974698Y-73084346D01*
X176977612Y-73069693D01*
X176978091Y-73064834D01*
X176980880Y-73055638D01*
X176985411Y-73047160D01*
X176991510Y-73039730D01*
X176998940Y-73033631D01*
X177007418Y-73029100D01*
X177016614Y-73026310D01*
X177029921Y-73025000D01*
X177273639Y-73025000D01*
X177286946Y-73026310D01*
X177296142Y-73029100D01*
X177304620Y-73033631D01*
X177312050Y-73039730D01*
X177318149Y-73047160D01*
X177322680Y-73055638D01*
X177325469Y-73064834D01*
X177325948Y-73069693D01*
X177328862Y-73084343D01*
X177334578Y-73098144D01*
X177342877Y-73110564D01*
X177353439Y-73121127D01*
X177365859Y-73129426D01*
X177379659Y-73135143D01*
X177394310Y-73138057D01*
X177409248Y-73138057D01*
X177423898Y-73135143D01*
X177437699Y-73129427D01*
X177450119Y-73121128D01*
X177460682Y-73110566D01*
X177468981Y-73098146D01*
X177474698Y-73084346D01*
X177477612Y-73069693D01*
X177478091Y-73064834D01*
X177480880Y-73055638D01*
X177485411Y-73047160D01*
X177491510Y-73039730D01*
X177498940Y-73033631D01*
X177507418Y-73029100D01*
X177516614Y-73026310D01*
X177529921Y-73025000D01*
X177773639Y-73025000D01*
X177786946Y-73026310D01*
X177796142Y-73029100D01*
X177804620Y-73033631D01*
X177812050Y-73039730D01*
X177818149Y-73047160D01*
X177822680Y-73055638D01*
X177825470Y-73064834D01*
X177826780Y-73078141D01*
X177826780Y-73948801D01*
X177828244Y-73963667D01*
X177832580Y-73977961D01*
X177839622Y-73991135D01*
X177849098Y-74002682D01*
X177860645Y-74012158D01*
X177873819Y-74019200D01*
X177888113Y-74023536D01*
X177902979Y-74025000D01*
X178773639Y-74025000D01*
X178786946Y-74026310D01*
X178796142Y-74029100D01*
X178804620Y-74033631D01*
X178812050Y-74039730D01*
X178818149Y-74047160D01*
X178822680Y-74055638D01*
X178825470Y-74064834D01*
X178826780Y-74078141D01*
X178826780Y-74321859D01*
X178825470Y-74335166D01*
X178822680Y-74344362D01*
X178818149Y-74352840D01*
X178812050Y-74360270D01*
X178804620Y-74366369D01*
X178796142Y-74370900D01*
X178786946Y-74373689D01*
X178782087Y-74374168D01*
X178767437Y-74377082D01*
X178753636Y-74382798D01*
X178741216Y-74391097D01*
X178730653Y-74401659D01*
X178722354Y-74414079D01*
X178716637Y-74427879D01*
X178713723Y-74442530D01*
X178713723Y-74457468D01*
X178716637Y-74472118D01*
X178722353Y-74485919D01*
X178730652Y-74498339D01*
X178741214Y-74508902D01*
X178753634Y-74517201D01*
X178767434Y-74522918D01*
X178782087Y-74525832D01*
X178786946Y-74526311D01*
X178796142Y-74529100D01*
X178804620Y-74533631D01*
X178812050Y-74539730D01*
X178818149Y-74547160D01*
X178822680Y-74555638D01*
X178825470Y-74564834D01*
X178826780Y-74578141D01*
X178826780Y-74821859D01*
X178825470Y-74835166D01*
X178822680Y-74844362D01*
X178818149Y-74852840D01*
X178812050Y-74860270D01*
X178804620Y-74866369D01*
X178796142Y-74870900D01*
X178786946Y-74873689D01*
X178782087Y-74874168D01*
X178767437Y-74877082D01*
X178753636Y-74882798D01*
X178741216Y-74891097D01*
X178730653Y-74901659D01*
X178722354Y-74914079D01*
X178716637Y-74927879D01*
X178713723Y-74942530D01*
X178713723Y-74957468D01*
X178716637Y-74972118D01*
X178722353Y-74985919D01*
X178730652Y-74998339D01*
X178741214Y-75008902D01*
X178753634Y-75017201D01*
X178767434Y-75022918D01*
X178782087Y-75025832D01*
X178786946Y-75026311D01*
X178796142Y-75029100D01*
X178804620Y-75033631D01*
X178812050Y-75039730D01*
X178818149Y-75047160D01*
X178822680Y-75055638D01*
X178825470Y-75064834D01*
X178826780Y-75078141D01*
X178826780Y-75321859D01*
X178825470Y-75335166D01*
X178822680Y-75344362D01*
X178818149Y-75352840D01*
X178812050Y-75360270D01*
X178804620Y-75366369D01*
X178796142Y-75370900D01*
X178786946Y-75373689D01*
X178782087Y-75374168D01*
X178767437Y-75377082D01*
X178753636Y-75382798D01*
X178741216Y-75391097D01*
X178730653Y-75401659D01*
X178722354Y-75414079D01*
X178716637Y-75427879D01*
X178713723Y-75442530D01*
X178713723Y-75457468D01*
X178716637Y-75472118D01*
X178722353Y-75485919D01*
X178730652Y-75498339D01*
X178741214Y-75508902D01*
X178753634Y-75517201D01*
X178767434Y-75522918D01*
X178782087Y-75525832D01*
X178786946Y-75526311D01*
X178796142Y-75529100D01*
X178804620Y-75533631D01*
X178812050Y-75539730D01*
X178818149Y-75547160D01*
X178822680Y-75555638D01*
X178825470Y-75564834D01*
X178826780Y-75578141D01*
X178826780Y-75821859D01*
X178825470Y-75835166D01*
X178822680Y-75844362D01*
X178818149Y-75852840D01*
X178812050Y-75860270D01*
X178804620Y-75866369D01*
X178796142Y-75870900D01*
X178786946Y-75873689D01*
X178782087Y-75874168D01*
X178767437Y-75877082D01*
X178753636Y-75882798D01*
X178741216Y-75891097D01*
X178730653Y-75901659D01*
X178722354Y-75914079D01*
X178716637Y-75927879D01*
X178713723Y-75942530D01*
X178713723Y-75957468D01*
X178716637Y-75972118D01*
X178722353Y-75985919D01*
X178730652Y-75998339D01*
X178741214Y-76008902D01*
X178753634Y-76017201D01*
X178767434Y-76022918D01*
X178782087Y-76025832D01*
X178786946Y-76026311D01*
X178796142Y-76029100D01*
X178804620Y-76033631D01*
X178812050Y-76039730D01*
X178818149Y-76047160D01*
X178822680Y-76055638D01*
X178825470Y-76064834D01*
X178826780Y-76078141D01*
X178826780Y-76321859D01*
X178825470Y-76335166D01*
X178822680Y-76344362D01*
X178818149Y-76352840D01*
X178812050Y-76360270D01*
X178804620Y-76366369D01*
X178796142Y-76370900D01*
X178786946Y-76373689D01*
X178782087Y-76374168D01*
X178767437Y-76377082D01*
X178753636Y-76382798D01*
X178741216Y-76391097D01*
X178730653Y-76401659D01*
X178722354Y-76414079D01*
X178716637Y-76427879D01*
X178713723Y-76442530D01*
X178713723Y-76457468D01*
X178716637Y-76472118D01*
X178722353Y-76485919D01*
X178730652Y-76498339D01*
X178741214Y-76508902D01*
X178753634Y-76517201D01*
X178767434Y-76522918D01*
X178782087Y-76525832D01*
X178786946Y-76526311D01*
X178796142Y-76529100D01*
X178804620Y-76533631D01*
X178812050Y-76539730D01*
X178818149Y-76547160D01*
X178822680Y-76555638D01*
X178825470Y-76564834D01*
X178826780Y-76578141D01*
X178826780Y-76821859D01*
X178825470Y-76835166D01*
X178822680Y-76844362D01*
X178818149Y-76852840D01*
X178812050Y-76860270D01*
X178804620Y-76866369D01*
X178796142Y-76870900D01*
X178786946Y-76873689D01*
X178782087Y-76874168D01*
X178767437Y-76877082D01*
X178753636Y-76882798D01*
X178741216Y-76891097D01*
X178730653Y-76901659D01*
X178722354Y-76914079D01*
X178716637Y-76927879D01*
X178713723Y-76942530D01*
X178713723Y-76957468D01*
X178716637Y-76972118D01*
X178722353Y-76985919D01*
X178730652Y-76998339D01*
X178741214Y-77008902D01*
X178753634Y-77017201D01*
X178767434Y-77022918D01*
X178782087Y-77025832D01*
X178786946Y-77026311D01*
X178796142Y-77029100D01*
X178804620Y-77033631D01*
X178812050Y-77039730D01*
X178818149Y-77047160D01*
X178822680Y-77055638D01*
X178825470Y-77064834D01*
X178826780Y-77078141D01*
X178826780Y-77321859D01*
X178825470Y-77335166D01*
X178822680Y-77344362D01*
X178818149Y-77352840D01*
X178812050Y-77360270D01*
X178804620Y-77366369D01*
X178796142Y-77370900D01*
X178786946Y-77373689D01*
X178782087Y-77374168D01*
X178767437Y-77377082D01*
X178753636Y-77382798D01*
X178741216Y-77391097D01*
X178730653Y-77401659D01*
X178722354Y-77414079D01*
X178716637Y-77427879D01*
X178713723Y-77442530D01*
X178713723Y-77457468D01*
X178716637Y-77472118D01*
X178722353Y-77485919D01*
X178730652Y-77498339D01*
X178741214Y-77508902D01*
X178753634Y-77517201D01*
X178767434Y-77522918D01*
X178782087Y-77525832D01*
X178786946Y-77526311D01*
X178796142Y-77529100D01*
X178804620Y-77533631D01*
X178812050Y-77539730D01*
X178818149Y-77547160D01*
X178822680Y-77555638D01*
X178825470Y-77564834D01*
X178826780Y-77578141D01*
X178826780Y-77821859D01*
X178825470Y-77835166D01*
X178822680Y-77844362D01*
X178818149Y-77852840D01*
X178812050Y-77860270D01*
X178804620Y-77866369D01*
X178796142Y-77870900D01*
X178786946Y-77873690D01*
X178773639Y-77875000D01*
X177902979Y-77875000D01*
X177888113Y-77876464D01*
X177873819Y-77880800D01*
X177860645Y-77887842D01*
X177849098Y-77897318D01*
X177839622Y-77908865D01*
X177832580Y-77922039D01*
X177828244Y-77936333D01*
X177826780Y-77951199D01*
X177826780Y-78821859D01*
X177825470Y-78835166D01*
X177822680Y-78844362D01*
X177818149Y-78852840D01*
X177812050Y-78860270D01*
X177804620Y-78866369D01*
X177796142Y-78870900D01*
X177786946Y-78873690D01*
X177773639Y-78875000D01*
X177529921Y-78875000D01*
X177516614Y-78873690D01*
X177507418Y-78870900D01*
X177498940Y-78866369D01*
X177491510Y-78860270D01*
X177485411Y-78852840D01*
X177480880Y-78844362D01*
X177478091Y-78835166D01*
X177477612Y-78830307D01*
X177474698Y-78815657D01*
X177468982Y-78801856D01*
X177460683Y-78789436D01*
X177450121Y-78778873D01*
X177437701Y-78770574D01*
X177423901Y-78764857D01*
X177409250Y-78761943D01*
X177394312Y-78761943D01*
X177379662Y-78764857D01*
X177365861Y-78770573D01*
X177353441Y-78778872D01*
X177342878Y-78789434D01*
X177334579Y-78801854D01*
X177328862Y-78815654D01*
X177325948Y-78830307D01*
X177325469Y-78835166D01*
X177322680Y-78844362D01*
X177318149Y-78852840D01*
X177312050Y-78860270D01*
X177304620Y-78866369D01*
X177296142Y-78870900D01*
X177286946Y-78873690D01*
X177273639Y-78875000D01*
X177029921Y-78875000D01*
X177016614Y-78873690D01*
X177007418Y-78870900D01*
X176998940Y-78866369D01*
X176991510Y-78860270D01*
X176985411Y-78852840D01*
X176980880Y-78844362D01*
X176978091Y-78835166D01*
X176977612Y-78830307D01*
X176974698Y-78815657D01*
X176968982Y-78801856D01*
X176960683Y-78789436D01*
X176950121Y-78778873D01*
X176937701Y-78770574D01*
X176923901Y-78764857D01*
X176909250Y-78761943D01*
X176894312Y-78761943D01*
X176879662Y-78764857D01*
X176865861Y-78770573D01*
X176853441Y-78778872D01*
X176842878Y-78789434D01*
X176834579Y-78801854D01*
X176828862Y-78815654D01*
X176825948Y-78830307D01*
X176825469Y-78835166D01*
X176822680Y-78844362D01*
X176818149Y-78852840D01*
X176812050Y-78860270D01*
X176804620Y-78866369D01*
X176796142Y-78870900D01*
X176786946Y-78873690D01*
X176773639Y-78875000D01*
X176529921Y-78875000D01*
X176516614Y-78873690D01*
X176507418Y-78870900D01*
X176498940Y-78866369D01*
X176491510Y-78860270D01*
X176485411Y-78852840D01*
X176480880Y-78844362D01*
X176478091Y-78835166D01*
X176477612Y-78830307D01*
X176474698Y-78815657D01*
X176468982Y-78801856D01*
X176460683Y-78789436D01*
X176450121Y-78778873D01*
X176437701Y-78770574D01*
X176423901Y-78764857D01*
X176409250Y-78761943D01*
X176394312Y-78761943D01*
X176379662Y-78764857D01*
X176365861Y-78770573D01*
X176353441Y-78778872D01*
X176342878Y-78789434D01*
X176334579Y-78801854D01*
X176328862Y-78815654D01*
X176325948Y-78830307D01*
X176325469Y-78835166D01*
X176322680Y-78844362D01*
X176318149Y-78852840D01*
X176312050Y-78860270D01*
X176304620Y-78866369D01*
X176296142Y-78870900D01*
X176286946Y-78873690D01*
X176273639Y-78875000D01*
X176029921Y-78875000D01*
X176016614Y-78873690D01*
X176007418Y-78870900D01*
X175998940Y-78866369D01*
X175991510Y-78860270D01*
X175985411Y-78852840D01*
X175980880Y-78844362D01*
X175978091Y-78835166D01*
X175977612Y-78830307D01*
X175974698Y-78815657D01*
X175968982Y-78801856D01*
X175960683Y-78789436D01*
X175950121Y-78778873D01*
X175937701Y-78770574D01*
X175923901Y-78764857D01*
X175909250Y-78761943D01*
X175894312Y-78761943D01*
X175879662Y-78764857D01*
X175865861Y-78770573D01*
X175853441Y-78778872D01*
X175842878Y-78789434D01*
X175834579Y-78801854D01*
X175828862Y-78815654D01*
X175825948Y-78830307D01*
X175825469Y-78835166D01*
X175822680Y-78844362D01*
X175818149Y-78852840D01*
X175812050Y-78860270D01*
X175804620Y-78866369D01*
X175796142Y-78870900D01*
X175786946Y-78873690D01*
X175773639Y-78875000D01*
X175529921Y-78875000D01*
X175516614Y-78873690D01*
X175507418Y-78870900D01*
X175498940Y-78866369D01*
X175491510Y-78860270D01*
X175485411Y-78852840D01*
X175480880Y-78844362D01*
X175478091Y-78835166D01*
X175477612Y-78830307D01*
X175474698Y-78815657D01*
X175468982Y-78801856D01*
X175460683Y-78789436D01*
X175450121Y-78778873D01*
X175437701Y-78770574D01*
X175423901Y-78764857D01*
X175409250Y-78761943D01*
X175394312Y-78761943D01*
X175379662Y-78764857D01*
X175365861Y-78770573D01*
X175353441Y-78778872D01*
X175342878Y-78789434D01*
X175334579Y-78801854D01*
X175328862Y-78815654D01*
X175325948Y-78830307D01*
X175325469Y-78835166D01*
X175322680Y-78844362D01*
X175318149Y-78852840D01*
X175312050Y-78860270D01*
X175304620Y-78866369D01*
X175296142Y-78870900D01*
X175286946Y-78873690D01*
X175273639Y-78875000D01*
X175029921Y-78875000D01*
X175016614Y-78873690D01*
X175007418Y-78870900D01*
X174998940Y-78866369D01*
X174991510Y-78860270D01*
X174985411Y-78852840D01*
X174980880Y-78844362D01*
X174978091Y-78835166D01*
X174977612Y-78830307D01*
X174974698Y-78815657D01*
X174968982Y-78801856D01*
X174960683Y-78789436D01*
X174950121Y-78778873D01*
X174937701Y-78770574D01*
X174923901Y-78764857D01*
X174909250Y-78761943D01*
X174894312Y-78761943D01*
X174879662Y-78764857D01*
X174865861Y-78770573D01*
X174853441Y-78778872D01*
X174842878Y-78789434D01*
X174834579Y-78801854D01*
X174828862Y-78815654D01*
X174825948Y-78830307D01*
X174825469Y-78835166D01*
X174822680Y-78844362D01*
X174818149Y-78852840D01*
X174812050Y-78860270D01*
X174804620Y-78866369D01*
X174796142Y-78870900D01*
X174786946Y-78873690D01*
X174773639Y-78875000D01*
X174529921Y-78875000D01*
X174516614Y-78873690D01*
X174507418Y-78870900D01*
X174498940Y-78866369D01*
X174491510Y-78860270D01*
X174485411Y-78852840D01*
X174480880Y-78844362D01*
X174478091Y-78835166D01*
X174477612Y-78830307D01*
X174474698Y-78815657D01*
X174468982Y-78801856D01*
X174460683Y-78789436D01*
X174450121Y-78778873D01*
X174437701Y-78770574D01*
X174423901Y-78764857D01*
X174409250Y-78761943D01*
X174394312Y-78761943D01*
X174379662Y-78764857D01*
X174365861Y-78770573D01*
X174353441Y-78778872D01*
X174342878Y-78789434D01*
X174334579Y-78801854D01*
X174328862Y-78815654D01*
X174325948Y-78830307D01*
X174325469Y-78835166D01*
X174322680Y-78844362D01*
X174318149Y-78852840D01*
X174312050Y-78860270D01*
X174304620Y-78866369D01*
X174296142Y-78870900D01*
X174286946Y-78873690D01*
X174273639Y-78875000D01*
X174029921Y-78875000D01*
X174016614Y-78873690D01*
X174007418Y-78870900D01*
X173998940Y-78866369D01*
X173991510Y-78860270D01*
X173985411Y-78852840D01*
X173980880Y-78844362D01*
X173978090Y-78835166D01*
X173976780Y-78821859D01*
X173976780Y-77951199D01*
X173975316Y-77936333D01*
X173970980Y-77922039D01*
X173963938Y-77908865D01*
X173954462Y-77897318D01*
X173942915Y-77887842D01*
X173929741Y-77880800D01*
X173915447Y-77876464D01*
X173900581Y-77875000D01*
X173029921Y-77875000D01*
X173016614Y-77873690D01*
X173007418Y-77870900D01*
X172998940Y-77866369D01*
X172991510Y-77860270D01*
X172985411Y-77852840D01*
X172980880Y-77844362D01*
X172978090Y-77835166D01*
X172976780Y-77821859D01*
X172976780Y-77578141D01*
X172978090Y-77564834D01*
X172980880Y-77555638D01*
X172985411Y-77547160D01*
X172991510Y-77539730D01*
X172998940Y-77533631D01*
X173007418Y-77529100D01*
X173016614Y-77526311D01*
X173021473Y-77525832D01*
X173036123Y-77522918D01*
X173049924Y-77517202D01*
X173062344Y-77508903D01*
X173072907Y-77498341D01*
X173081206Y-77485921D01*
X173086923Y-77472121D01*
X173089837Y-77457470D01*
X173089837Y-77442532D01*
X173086923Y-77427882D01*
X173081207Y-77414081D01*
X173072908Y-77401661D01*
X173062346Y-77391098D01*
X173049926Y-77382799D01*
X173036126Y-77377082D01*
X173021473Y-77374168D01*
X173016614Y-77373689D01*
X173007418Y-77370900D01*
X172998940Y-77366369D01*
X172991510Y-77360270D01*
X172985411Y-77352840D01*
X172980880Y-77344362D01*
X172978090Y-77335166D01*
X172976780Y-77321859D01*
X172976780Y-77078141D01*
X172978090Y-77064834D01*
X172980880Y-77055638D01*
X172985411Y-77047160D01*
X172991510Y-77039730D01*
X172998940Y-77033631D01*
X173007418Y-77029100D01*
X173016614Y-77026311D01*
X173021473Y-77025832D01*
X173036123Y-77022918D01*
X173049924Y-77017202D01*
X173062344Y-77008903D01*
X173072907Y-76998341D01*
X173081206Y-76985921D01*
X173086923Y-76972121D01*
X173089837Y-76957470D01*
X173089837Y-76942532D01*
X173086923Y-76927882D01*
X173081207Y-76914081D01*
X173072908Y-76901661D01*
X173062346Y-76891098D01*
X173049926Y-76882799D01*
X173036126Y-76877082D01*
X173021473Y-76874168D01*
X173016614Y-76873689D01*
X173007418Y-76870900D01*
X172998940Y-76866369D01*
X172991510Y-76860270D01*
X172985411Y-76852840D01*
X172980880Y-76844362D01*
X172978090Y-76835166D01*
X172976780Y-76821859D01*
X172976780Y-76578141D01*
X172978090Y-76564834D01*
X172980880Y-76555638D01*
X172985411Y-76547160D01*
X172991510Y-76539730D01*
X172998940Y-76533631D01*
X173007418Y-76529100D01*
X173016614Y-76526311D01*
X173021473Y-76525832D01*
X173036123Y-76522918D01*
X173049924Y-76517202D01*
X173062344Y-76508903D01*
X173072907Y-76498341D01*
X173081206Y-76485921D01*
X173086923Y-76472121D01*
X173089837Y-76457470D01*
X173089837Y-76442532D01*
X173086923Y-76427882D01*
X173081207Y-76414081D01*
X173072908Y-76401661D01*
X173062346Y-76391098D01*
X173049926Y-76382799D01*
X173036126Y-76377082D01*
X173021473Y-76374168D01*
X173016614Y-76373689D01*
X173007418Y-76370900D01*
X172998940Y-76366369D01*
X172991510Y-76360270D01*
X172985411Y-76352840D01*
X172980880Y-76344362D01*
X172978090Y-76335166D01*
X172976780Y-76321859D01*
X172976780Y-76078141D01*
X172978090Y-76064834D01*
X172980880Y-76055638D01*
X172985411Y-76047160D01*
X172991510Y-76039730D01*
X172998940Y-76033631D01*
X173007418Y-76029100D01*
X173016614Y-76026311D01*
X173021473Y-76025832D01*
X173036123Y-76022918D01*
X173049924Y-76017202D01*
X173062344Y-76008903D01*
X173072907Y-75998341D01*
X173081206Y-75985921D01*
X173086923Y-75972121D01*
X173089837Y-75957470D01*
X173089837Y-75942532D01*
X173086923Y-75927882D01*
X173081207Y-75914081D01*
X173072908Y-75901661D01*
X173062346Y-75891098D01*
X173049926Y-75882799D01*
X173036126Y-75877082D01*
X173021473Y-75874168D01*
X173016614Y-75873689D01*
X173007418Y-75870900D01*
X172998940Y-75866369D01*
X172991510Y-75860270D01*
X172985411Y-75852840D01*
X172980880Y-75844362D01*
X172978090Y-75835166D01*
X172976780Y-75821859D01*
X172976780Y-75578141D01*
X172978090Y-75564834D01*
X172980880Y-75555638D01*
X172985411Y-75547160D01*
X172991510Y-75539730D01*
X172998940Y-75533631D01*
X173007418Y-75529100D01*
X173016614Y-75526311D01*
X173021473Y-75525832D01*
X173036123Y-75522918D01*
X173049924Y-75517202D01*
X173062344Y-75508903D01*
X173072907Y-75498341D01*
X173081206Y-75485921D01*
X173086923Y-75472121D01*
X173089837Y-75457470D01*
X173089837Y-75442532D01*
X173086923Y-75427882D01*
X173081207Y-75414081D01*
X173072908Y-75401661D01*
X173062346Y-75391098D01*
X173049926Y-75382799D01*
X173036126Y-75377082D01*
X173021473Y-75374168D01*
X173016614Y-75373689D01*
X173007418Y-75370900D01*
X172998940Y-75366369D01*
X172991510Y-75360270D01*
X172985411Y-75352840D01*
X172980880Y-75344362D01*
X172978090Y-75335166D01*
X172976780Y-75321859D01*
X172976780Y-75078141D01*
X172978090Y-75064834D01*
X172980880Y-75055638D01*
X172985411Y-75047160D01*
X172991510Y-75039730D01*
X172998940Y-75033631D01*
X173007418Y-75029100D01*
X173016614Y-75026311D01*
X173021473Y-75025832D01*
X173036123Y-75022918D01*
X173049924Y-75017202D01*
X173062344Y-75008903D01*
X173072907Y-74998341D01*
X173081206Y-74985921D01*
X173086923Y-74972121D01*
X173089837Y-74957470D01*
X173089837Y-74942532D01*
X173086923Y-74927882D01*
X173081207Y-74914081D01*
X173072908Y-74901661D01*
X173062346Y-74891098D01*
X173049926Y-74882799D01*
X173036126Y-74877082D01*
X173021473Y-74874168D01*
X173016614Y-74873689D01*
X173007418Y-74870900D01*
X172998940Y-74866369D01*
X172991510Y-74860270D01*
X172985411Y-74852840D01*
X172980880Y-74844362D01*
X172978090Y-74835166D01*
X172976780Y-74821859D01*
X172976780Y-74578141D01*
X172978090Y-74564834D01*
X172980880Y-74555638D01*
X172985411Y-74547160D01*
X172991510Y-74539730D01*
X172998940Y-74533631D01*
X173007418Y-74529100D01*
X173016614Y-74526311D01*
X173021473Y-74525832D01*
X173036123Y-74522918D01*
X173049924Y-74517202D01*
X173062344Y-74508903D01*
X173072907Y-74498341D01*
X173081206Y-74485921D01*
X173086923Y-74472121D01*
X173089837Y-74457470D01*
X173089837Y-74442532D01*
X173089837Y-74442530D01*
X173838723Y-74442530D01*
X173838723Y-74457468D01*
X173841637Y-74472118D01*
X173847353Y-74485919D01*
X173855652Y-74498339D01*
X173866214Y-74508902D01*
X173878634Y-74517201D01*
X173892434Y-74522918D01*
X173907087Y-74525832D01*
X173911946Y-74526311D01*
X173921142Y-74529100D01*
X173929620Y-74533631D01*
X173937050Y-74539730D01*
X173943149Y-74547160D01*
X173947680Y-74555638D01*
X173950470Y-74564834D01*
X173951780Y-74578141D01*
X173951780Y-74821859D01*
X173950470Y-74835166D01*
X173947680Y-74844362D01*
X173943149Y-74852840D01*
X173937050Y-74860270D01*
X173929620Y-74866369D01*
X173921142Y-74870900D01*
X173911946Y-74873689D01*
X173907087Y-74874168D01*
X173892437Y-74877082D01*
X173878636Y-74882798D01*
X173866216Y-74891097D01*
X173855653Y-74901659D01*
X173847354Y-74914079D01*
X173841637Y-74927879D01*
X173838723Y-74942530D01*
X173838723Y-74957468D01*
X173841637Y-74972118D01*
X173847353Y-74985919D01*
X173855652Y-74998339D01*
X173866214Y-75008902D01*
X173878634Y-75017201D01*
X173892434Y-75022918D01*
X173907087Y-75025832D01*
X173911946Y-75026311D01*
X173921142Y-75029100D01*
X173929620Y-75033631D01*
X173937050Y-75039730D01*
X173943149Y-75047160D01*
X173947680Y-75055638D01*
X173950470Y-75064834D01*
X173951780Y-75078141D01*
X173951780Y-75321859D01*
X173950470Y-75335166D01*
X173947680Y-75344362D01*
X173943149Y-75352840D01*
X173937050Y-75360270D01*
X173929620Y-75366369D01*
X173921142Y-75370900D01*
X173911946Y-75373689D01*
X173907087Y-75374168D01*
X173892437Y-75377082D01*
X173878636Y-75382798D01*
X173866216Y-75391097D01*
X173855653Y-75401659D01*
X173847354Y-75414079D01*
X173841637Y-75427879D01*
X173838723Y-75442530D01*
X173838723Y-75457468D01*
X173841637Y-75472118D01*
X173847353Y-75485919D01*
X173855652Y-75498339D01*
X173866214Y-75508902D01*
X173878634Y-75517201D01*
X173892434Y-75522918D01*
X173907087Y-75525832D01*
X173911946Y-75526311D01*
X173921142Y-75529100D01*
X173929620Y-75533631D01*
X173937050Y-75539730D01*
X173943149Y-75547160D01*
X173947680Y-75555638D01*
X173950470Y-75564834D01*
X173951780Y-75578141D01*
X173951780Y-75821859D01*
X173950470Y-75835166D01*
X173947680Y-75844362D01*
X173943149Y-75852840D01*
X173937050Y-75860270D01*
X173929620Y-75866369D01*
X173921142Y-75870900D01*
X173911946Y-75873689D01*
X173907087Y-75874168D01*
X173892437Y-75877082D01*
X173878636Y-75882798D01*
X173866216Y-75891097D01*
X173855653Y-75901659D01*
X173847354Y-75914079D01*
X173841637Y-75927879D01*
X173838723Y-75942530D01*
X173838723Y-75957468D01*
X173841637Y-75972118D01*
X173847353Y-75985919D01*
X173855652Y-75998339D01*
X173866214Y-76008902D01*
X173878634Y-76017201D01*
X173892434Y-76022918D01*
X173907087Y-76025832D01*
X173911946Y-76026311D01*
X173921142Y-76029100D01*
X173929620Y-76033631D01*
X173937050Y-76039730D01*
X173943149Y-76047160D01*
X173947680Y-76055638D01*
X173950470Y-76064834D01*
X173951780Y-76078141D01*
X173951780Y-76321859D01*
X173950470Y-76335166D01*
X173947680Y-76344362D01*
X173943149Y-76352840D01*
X173937050Y-76360270D01*
X173929620Y-76366369D01*
X173921142Y-76370900D01*
X173911946Y-76373689D01*
X173907087Y-76374168D01*
X173892437Y-76377082D01*
X173878636Y-76382798D01*
X173866216Y-76391097D01*
X173855653Y-76401659D01*
X173847354Y-76414079D01*
X173841637Y-76427879D01*
X173838723Y-76442530D01*
X173838723Y-76457468D01*
X173841637Y-76472118D01*
X173847353Y-76485919D01*
X173855652Y-76498339D01*
X173866214Y-76508902D01*
X173878634Y-76517201D01*
X173892434Y-76522918D01*
X173907087Y-76525832D01*
X173911946Y-76526311D01*
X173921142Y-76529100D01*
X173929620Y-76533631D01*
X173937050Y-76539730D01*
X173943149Y-76547160D01*
X173947680Y-76555638D01*
X173950470Y-76564834D01*
X173951780Y-76578141D01*
X173951780Y-76821859D01*
X173950470Y-76835166D01*
X173947680Y-76844362D01*
X173943149Y-76852840D01*
X173937050Y-76860270D01*
X173929620Y-76866369D01*
X173921142Y-76870900D01*
X173911946Y-76873689D01*
X173907087Y-76874168D01*
X173892437Y-76877082D01*
X173878636Y-76882798D01*
X173866216Y-76891097D01*
X173855653Y-76901659D01*
X173847354Y-76914079D01*
X173841637Y-76927879D01*
X173838723Y-76942530D01*
X173838723Y-76957468D01*
X173841637Y-76972118D01*
X173847353Y-76985919D01*
X173855652Y-76998339D01*
X173866214Y-77008902D01*
X173878634Y-77017201D01*
X173892434Y-77022918D01*
X173907087Y-77025832D01*
X173911946Y-77026311D01*
X173921142Y-77029100D01*
X173929620Y-77033631D01*
X173937050Y-77039730D01*
X173943149Y-77047160D01*
X173947680Y-77055638D01*
X173950470Y-77064834D01*
X173951780Y-77078141D01*
X173951780Y-77321859D01*
X173950470Y-77335166D01*
X173947680Y-77344362D01*
X173943149Y-77352840D01*
X173937050Y-77360270D01*
X173929620Y-77366369D01*
X173921142Y-77370900D01*
X173911946Y-77373689D01*
X173907087Y-77374168D01*
X173892437Y-77377082D01*
X173878636Y-77382798D01*
X173866216Y-77391097D01*
X173855653Y-77401659D01*
X173847354Y-77414079D01*
X173841637Y-77427879D01*
X173838723Y-77442530D01*
X173838723Y-77457468D01*
X173841637Y-77472118D01*
X173847353Y-77485919D01*
X173855652Y-77498339D01*
X173866214Y-77508902D01*
X173878634Y-77517201D01*
X173892434Y-77522918D01*
X173907087Y-77525832D01*
X173911946Y-77526311D01*
X173921142Y-77529100D01*
X173929620Y-77533631D01*
X173937050Y-77539730D01*
X173943149Y-77547160D01*
X173947680Y-77555638D01*
X173950470Y-77564834D01*
X173951780Y-77578141D01*
X173951780Y-77823801D01*
X173953244Y-77838667D01*
X173957580Y-77852961D01*
X173964622Y-77866135D01*
X173974098Y-77877682D01*
X173985645Y-77887158D01*
X173998819Y-77894200D01*
X174013113Y-77898536D01*
X174027979Y-77900000D01*
X174273639Y-77900000D01*
X174286946Y-77901310D01*
X174296142Y-77904100D01*
X174304620Y-77908631D01*
X174312050Y-77914730D01*
X174318149Y-77922160D01*
X174322680Y-77930638D01*
X174325469Y-77939834D01*
X174325948Y-77944693D01*
X174328862Y-77959343D01*
X174334578Y-77973144D01*
X174342877Y-77985564D01*
X174353439Y-77996127D01*
X174365859Y-78004426D01*
X174379659Y-78010143D01*
X174394310Y-78013057D01*
X174409248Y-78013057D01*
X174423898Y-78010143D01*
X174437699Y-78004427D01*
X174450119Y-77996128D01*
X174460682Y-77985566D01*
X174468981Y-77973146D01*
X174474698Y-77959346D01*
X174477612Y-77944693D01*
X174478091Y-77939834D01*
X174480880Y-77930638D01*
X174485411Y-77922160D01*
X174491510Y-77914730D01*
X174498940Y-77908631D01*
X174507418Y-77904100D01*
X174516614Y-77901310D01*
X174529921Y-77900000D01*
X174773639Y-77900000D01*
X174786946Y-77901310D01*
X174796142Y-77904100D01*
X174804620Y-77908631D01*
X174812050Y-77914730D01*
X174818149Y-77922160D01*
X174822680Y-77930638D01*
X174825469Y-77939834D01*
X174825948Y-77944693D01*
X174828862Y-77959343D01*
X174834578Y-77973144D01*
X174842877Y-77985564D01*
X174853439Y-77996127D01*
X174865859Y-78004426D01*
X174879659Y-78010143D01*
X174894310Y-78013057D01*
X174909248Y-78013057D01*
X174923898Y-78010143D01*
X174937699Y-78004427D01*
X174950119Y-77996128D01*
X174960682Y-77985566D01*
X174968981Y-77973146D01*
X174974698Y-77959346D01*
X174977612Y-77944693D01*
X174978091Y-77939834D01*
X174980880Y-77930638D01*
X174985411Y-77922160D01*
X174991510Y-77914730D01*
X174998940Y-77908631D01*
X175007418Y-77904100D01*
X175016614Y-77901310D01*
X175029921Y-77900000D01*
X175273639Y-77900000D01*
X175286946Y-77901310D01*
X175296142Y-77904100D01*
X175304620Y-77908631D01*
X175312050Y-77914730D01*
X175318149Y-77922160D01*
X175322680Y-77930638D01*
X175325469Y-77939834D01*
X175325948Y-77944693D01*
X175328862Y-77959343D01*
X175334578Y-77973144D01*
X175342877Y-77985564D01*
X175353439Y-77996127D01*
X175365859Y-78004426D01*
X175379659Y-78010143D01*
X175394310Y-78013057D01*
X175409248Y-78013057D01*
X175423898Y-78010143D01*
X175437699Y-78004427D01*
X175450119Y-77996128D01*
X175460682Y-77985566D01*
X175468981Y-77973146D01*
X175474698Y-77959346D01*
X175477612Y-77944693D01*
X175478091Y-77939834D01*
X175480880Y-77930638D01*
X175485411Y-77922160D01*
X175491510Y-77914730D01*
X175498940Y-77908631D01*
X175507418Y-77904100D01*
X175516614Y-77901310D01*
X175529921Y-77900000D01*
X175773639Y-77900000D01*
X175786946Y-77901310D01*
X175796142Y-77904100D01*
X175804620Y-77908631D01*
X175812050Y-77914730D01*
X175818149Y-77922160D01*
X175822680Y-77930638D01*
X175825469Y-77939834D01*
X175825948Y-77944693D01*
X175828862Y-77959343D01*
X175834578Y-77973144D01*
X175842877Y-77985564D01*
X175853439Y-77996127D01*
X175865859Y-78004426D01*
X175879659Y-78010143D01*
X175894310Y-78013057D01*
X175909248Y-78013057D01*
X175923898Y-78010143D01*
X175937699Y-78004427D01*
X175950119Y-77996128D01*
X175960682Y-77985566D01*
X175968981Y-77973146D01*
X175974698Y-77959346D01*
X175977612Y-77944693D01*
X175978091Y-77939834D01*
X175980880Y-77930638D01*
X175985411Y-77922160D01*
X175991510Y-77914730D01*
X175998940Y-77908631D01*
X176007418Y-77904100D01*
X176016614Y-77901310D01*
X176029921Y-77900000D01*
X176273639Y-77900000D01*
X176286946Y-77901310D01*
X176296142Y-77904100D01*
X176304620Y-77908631D01*
X176312050Y-77914730D01*
X176318149Y-77922160D01*
X176322680Y-77930638D01*
X176325469Y-77939834D01*
X176325948Y-77944693D01*
X176328862Y-77959343D01*
X176334578Y-77973144D01*
X176342877Y-77985564D01*
X176353439Y-77996127D01*
X176365859Y-78004426D01*
X176379659Y-78010143D01*
X176394310Y-78013057D01*
X176409248Y-78013057D01*
X176423898Y-78010143D01*
X176437699Y-78004427D01*
X176450119Y-77996128D01*
X176460682Y-77985566D01*
X176468981Y-77973146D01*
X176474698Y-77959346D01*
X176477612Y-77944693D01*
X176478091Y-77939834D01*
X176480880Y-77930638D01*
X176485411Y-77922160D01*
X176491510Y-77914730D01*
X176498940Y-77908631D01*
X176507418Y-77904100D01*
X176516614Y-77901310D01*
X176529921Y-77900000D01*
X176773639Y-77900000D01*
X176786946Y-77901310D01*
X176796142Y-77904100D01*
X176804620Y-77908631D01*
X176812050Y-77914730D01*
X176818149Y-77922160D01*
X176822680Y-77930638D01*
X176825469Y-77939834D01*
X176825948Y-77944693D01*
X176828862Y-77959343D01*
X176834578Y-77973144D01*
X176842877Y-77985564D01*
X176853439Y-77996127D01*
X176865859Y-78004426D01*
X176879659Y-78010143D01*
X176894310Y-78013057D01*
X176909248Y-78013057D01*
X176923898Y-78010143D01*
X176937699Y-78004427D01*
X176950119Y-77996128D01*
X176960682Y-77985566D01*
X176968981Y-77973146D01*
X176974698Y-77959346D01*
X176977612Y-77944693D01*
X176978091Y-77939834D01*
X176980880Y-77930638D01*
X176985411Y-77922160D01*
X176991510Y-77914730D01*
X176998940Y-77908631D01*
X177007418Y-77904100D01*
X177016614Y-77901310D01*
X177029921Y-77900000D01*
X177273639Y-77900000D01*
X177286946Y-77901310D01*
X177296142Y-77904100D01*
X177304620Y-77908631D01*
X177312050Y-77914730D01*
X177318149Y-77922160D01*
X177322680Y-77930638D01*
X177325469Y-77939834D01*
X177325948Y-77944693D01*
X177328862Y-77959343D01*
X177334578Y-77973144D01*
X177342877Y-77985564D01*
X177353439Y-77996127D01*
X177365859Y-78004426D01*
X177379659Y-78010143D01*
X177394310Y-78013057D01*
X177409248Y-78013057D01*
X177423898Y-78010143D01*
X177437699Y-78004427D01*
X177450119Y-77996128D01*
X177460682Y-77985566D01*
X177468981Y-77973146D01*
X177474698Y-77959346D01*
X177477612Y-77944693D01*
X177478091Y-77939834D01*
X177480880Y-77930638D01*
X177485411Y-77922160D01*
X177491510Y-77914730D01*
X177498940Y-77908631D01*
X177507418Y-77904100D01*
X177516614Y-77901310D01*
X177529921Y-77900000D01*
X177775581Y-77900000D01*
X177790447Y-77898536D01*
X177804741Y-77894200D01*
X177817915Y-77887158D01*
X177829462Y-77877682D01*
X177838938Y-77866135D01*
X177845980Y-77852961D01*
X177850316Y-77838667D01*
X177851780Y-77823801D01*
X177851780Y-77578141D01*
X177853090Y-77564834D01*
X177855880Y-77555638D01*
X177860411Y-77547160D01*
X177866510Y-77539730D01*
X177873940Y-77533631D01*
X177882418Y-77529100D01*
X177891614Y-77526311D01*
X177896473Y-77525832D01*
X177911123Y-77522918D01*
X177924924Y-77517202D01*
X177937344Y-77508903D01*
X177947907Y-77498341D01*
X177956206Y-77485921D01*
X177961923Y-77472121D01*
X177964837Y-77457470D01*
X177964837Y-77442532D01*
X177961923Y-77427882D01*
X177956207Y-77414081D01*
X177947908Y-77401661D01*
X177937346Y-77391098D01*
X177924926Y-77382799D01*
X177911126Y-77377082D01*
X177896473Y-77374168D01*
X177891614Y-77373689D01*
X177882418Y-77370900D01*
X177873940Y-77366369D01*
X177866510Y-77360270D01*
X177860411Y-77352840D01*
X177855880Y-77344362D01*
X177853090Y-77335166D01*
X177851780Y-77321859D01*
X177851780Y-77078141D01*
X177853090Y-77064834D01*
X177855880Y-77055638D01*
X177860411Y-77047160D01*
X177866510Y-77039730D01*
X177873940Y-77033631D01*
X177882418Y-77029100D01*
X177891614Y-77026311D01*
X177896473Y-77025832D01*
X177911123Y-77022918D01*
X177924924Y-77017202D01*
X177937344Y-77008903D01*
X177947907Y-76998341D01*
X177956206Y-76985921D01*
X177961923Y-76972121D01*
X177964837Y-76957470D01*
X177964837Y-76942532D01*
X177961923Y-76927882D01*
X177956207Y-76914081D01*
X177947908Y-76901661D01*
X177937346Y-76891098D01*
X177924926Y-76882799D01*
X177911126Y-76877082D01*
X177896473Y-76874168D01*
X177891614Y-76873689D01*
X177882418Y-76870900D01*
X177873940Y-76866369D01*
X177866510Y-76860270D01*
X177860411Y-76852840D01*
X177855880Y-76844362D01*
X177853090Y-76835166D01*
X177851780Y-76821859D01*
X177851780Y-76578141D01*
X177853090Y-76564834D01*
X177855880Y-76555638D01*
X177860411Y-76547160D01*
X177866510Y-76539730D01*
X177873940Y-76533631D01*
X177882418Y-76529100D01*
X177891614Y-76526311D01*
X177896473Y-76525832D01*
X177911123Y-76522918D01*
X177924924Y-76517202D01*
X177937344Y-76508903D01*
X177947907Y-76498341D01*
X177956206Y-76485921D01*
X177961923Y-76472121D01*
X177964837Y-76457470D01*
X177964837Y-76442532D01*
X177961923Y-76427882D01*
X177956207Y-76414081D01*
X177947908Y-76401661D01*
X177937346Y-76391098D01*
X177924926Y-76382799D01*
X177911126Y-76377082D01*
X177896473Y-76374168D01*
X177891614Y-76373689D01*
X177882418Y-76370900D01*
X177873940Y-76366369D01*
X177866510Y-76360270D01*
X177860411Y-76352840D01*
X177855880Y-76344362D01*
X177853090Y-76335166D01*
X177851780Y-76321859D01*
X177851780Y-76078141D01*
X177853090Y-76064834D01*
X177855880Y-76055638D01*
X177860411Y-76047160D01*
X177866510Y-76039730D01*
X177873940Y-76033631D01*
X177882418Y-76029100D01*
X177891614Y-76026311D01*
X177896473Y-76025832D01*
X177911123Y-76022918D01*
X177924924Y-76017202D01*
X177937344Y-76008903D01*
X177947907Y-75998341D01*
X177956206Y-75985921D01*
X177961923Y-75972121D01*
X177964837Y-75957470D01*
X177964837Y-75942532D01*
X177961923Y-75927882D01*
X177956207Y-75914081D01*
X177947908Y-75901661D01*
X177937346Y-75891098D01*
X177924926Y-75882799D01*
X177911126Y-75877082D01*
X177896473Y-75874168D01*
X177891614Y-75873689D01*
X177882418Y-75870900D01*
X177873940Y-75866369D01*
X177866510Y-75860270D01*
X177860411Y-75852840D01*
X177855880Y-75844362D01*
X177853090Y-75835166D01*
X177851780Y-75821859D01*
X177851780Y-75578141D01*
X177853090Y-75564834D01*
X177855880Y-75555638D01*
X177860411Y-75547160D01*
X177866510Y-75539730D01*
X177873940Y-75533631D01*
X177882418Y-75529100D01*
X177891614Y-75526311D01*
X177896473Y-75525832D01*
X177911123Y-75522918D01*
X177924924Y-75517202D01*
X177937344Y-75508903D01*
X177947907Y-75498341D01*
X177956206Y-75485921D01*
X177961923Y-75472121D01*
X177964837Y-75457470D01*
X177964837Y-75442532D01*
X177961923Y-75427882D01*
X177956207Y-75414081D01*
X177947908Y-75401661D01*
X177937346Y-75391098D01*
X177924926Y-75382799D01*
X177911126Y-75377082D01*
X177896473Y-75374168D01*
X177891614Y-75373689D01*
X177882418Y-75370900D01*
X177873940Y-75366369D01*
X177866510Y-75360270D01*
X177860411Y-75352840D01*
X177855880Y-75344362D01*
X177853090Y-75335166D01*
X177851780Y-75321859D01*
X177851780Y-75078141D01*
X177853090Y-75064834D01*
X177855880Y-75055638D01*
X177860411Y-75047160D01*
X177866510Y-75039730D01*
X177873940Y-75033631D01*
X177882418Y-75029100D01*
X177891614Y-75026311D01*
X177896473Y-75025832D01*
X177911123Y-75022918D01*
X177924924Y-75017202D01*
X177937344Y-75008903D01*
X177947907Y-74998341D01*
X177956206Y-74985921D01*
X177961923Y-74972121D01*
X177964837Y-74957470D01*
X177964837Y-74942532D01*
X177961923Y-74927882D01*
X177956207Y-74914081D01*
X177947908Y-74901661D01*
X177937346Y-74891098D01*
X177924926Y-74882799D01*
X177911126Y-74877082D01*
X177896473Y-74874168D01*
X177891614Y-74873689D01*
X177882418Y-74870900D01*
X177873940Y-74866369D01*
X177866510Y-74860270D01*
X177860411Y-74852840D01*
X177855880Y-74844362D01*
X177853090Y-74835166D01*
X177851780Y-74821859D01*
X177851780Y-74578141D01*
X177853090Y-74564834D01*
X177855880Y-74555638D01*
X177860411Y-74547160D01*
X177866510Y-74539730D01*
X177873940Y-74533631D01*
X177882418Y-74529100D01*
X177891614Y-74526311D01*
X177896473Y-74525832D01*
X177911123Y-74522918D01*
X177924924Y-74517202D01*
X177937344Y-74508903D01*
X177947907Y-74498341D01*
X177956206Y-74485921D01*
X177961923Y-74472121D01*
X177964837Y-74457470D01*
X177964837Y-74442532D01*
X177961923Y-74427882D01*
X177956207Y-74414081D01*
X177947908Y-74401661D01*
X177937346Y-74391098D01*
X177924926Y-74382799D01*
X177911126Y-74377082D01*
X177896473Y-74374168D01*
X177891614Y-74373689D01*
X177882418Y-74370900D01*
X177873940Y-74366369D01*
X177866510Y-74360270D01*
X177860411Y-74352840D01*
X177855880Y-74344362D01*
X177853090Y-74335166D01*
X177851780Y-74321859D01*
X177851780Y-74076199D01*
X177850316Y-74061333D01*
X177845980Y-74047039D01*
X177838938Y-74033865D01*
X177829462Y-74022318D01*
X177817915Y-74012842D01*
X177804741Y-74005800D01*
X177790447Y-74001464D01*
X177775581Y-74000000D01*
X177529921Y-74000000D01*
X177516614Y-73998690D01*
X177507418Y-73995900D01*
X177498940Y-73991369D01*
X177491510Y-73985270D01*
X177485411Y-73977840D01*
X177480880Y-73969362D01*
X177478091Y-73960166D01*
X177477612Y-73955307D01*
X177474698Y-73940657D01*
X177468982Y-73926856D01*
X177460683Y-73914436D01*
X177450121Y-73903873D01*
X177437701Y-73895574D01*
X177423901Y-73889857D01*
X177409250Y-73886943D01*
X177394312Y-73886943D01*
X177379662Y-73889857D01*
X177365861Y-73895573D01*
X177353441Y-73903872D01*
X177342878Y-73914434D01*
X177334579Y-73926854D01*
X177328862Y-73940654D01*
X177325948Y-73955307D01*
X177325469Y-73960166D01*
X177322680Y-73969362D01*
X177318149Y-73977840D01*
X177312050Y-73985270D01*
X177304620Y-73991369D01*
X177296142Y-73995900D01*
X177286946Y-73998690D01*
X177273639Y-74000000D01*
X177029921Y-74000000D01*
X177016614Y-73998690D01*
X177007418Y-73995900D01*
X176998940Y-73991369D01*
X176991510Y-73985270D01*
X176985411Y-73977840D01*
X176980880Y-73969362D01*
X176978091Y-73960166D01*
X176977612Y-73955307D01*
X176974698Y-73940657D01*
X176968982Y-73926856D01*
X176960683Y-73914436D01*
X176950121Y-73903873D01*
X176937701Y-73895574D01*
X176923901Y-73889857D01*
X176909250Y-73886943D01*
X176894312Y-73886943D01*
X176879662Y-73889857D01*
X176865861Y-73895573D01*
X176853441Y-73903872D01*
X176842878Y-73914434D01*
X176834579Y-73926854D01*
X176828862Y-73940654D01*
X176825948Y-73955307D01*
X176825469Y-73960166D01*
X176822680Y-73969362D01*
X176818149Y-73977840D01*
X176812050Y-73985270D01*
X176804620Y-73991369D01*
X176796142Y-73995900D01*
X176786946Y-73998690D01*
X176773639Y-74000000D01*
X176529921Y-74000000D01*
X176516614Y-73998690D01*
X176507418Y-73995900D01*
X176498940Y-73991369D01*
X176491510Y-73985270D01*
X176485411Y-73977840D01*
X176480880Y-73969362D01*
X176478091Y-73960166D01*
X176477612Y-73955307D01*
X176474698Y-73940657D01*
X176468982Y-73926856D01*
X176460683Y-73914436D01*
X176450121Y-73903873D01*
X176437701Y-73895574D01*
X176423901Y-73889857D01*
X176409250Y-73886943D01*
X176394312Y-73886943D01*
X176379662Y-73889857D01*
X176365861Y-73895573D01*
X176353441Y-73903872D01*
X176342878Y-73914434D01*
X176334579Y-73926854D01*
X176328862Y-73940654D01*
X176325948Y-73955307D01*
X176325469Y-73960166D01*
X176322680Y-73969362D01*
X176318149Y-73977840D01*
X176312050Y-73985270D01*
X176304620Y-73991369D01*
X176296142Y-73995900D01*
X176286946Y-73998690D01*
X176273639Y-74000000D01*
X176029921Y-74000000D01*
X176016614Y-73998690D01*
X176007418Y-73995900D01*
X175998940Y-73991369D01*
X175991510Y-73985270D01*
X175985411Y-73977840D01*
X175980880Y-73969362D01*
X175978091Y-73960166D01*
X175977612Y-73955307D01*
X175974698Y-73940657D01*
X175968982Y-73926856D01*
X175960683Y-73914436D01*
X175950121Y-73903873D01*
X175937701Y-73895574D01*
X175923901Y-73889857D01*
X175909250Y-73886943D01*
X175894312Y-73886943D01*
X175879662Y-73889857D01*
X175865861Y-73895573D01*
X175853441Y-73903872D01*
X175842878Y-73914434D01*
X175834579Y-73926854D01*
X175828862Y-73940654D01*
X175825948Y-73955307D01*
X175825469Y-73960166D01*
X175822680Y-73969362D01*
X175818149Y-73977840D01*
X175812050Y-73985270D01*
X175804620Y-73991369D01*
X175796142Y-73995900D01*
X175786946Y-73998690D01*
X175773639Y-74000000D01*
X175529921Y-74000000D01*
X175516614Y-73998690D01*
X175507418Y-73995900D01*
X175498940Y-73991369D01*
X175491510Y-73985270D01*
X175485411Y-73977840D01*
X175480880Y-73969362D01*
X175478091Y-73960166D01*
X175477612Y-73955307D01*
X175474698Y-73940657D01*
X175468982Y-73926856D01*
X175460683Y-73914436D01*
X175450121Y-73903873D01*
X175437701Y-73895574D01*
X175423901Y-73889857D01*
X175409250Y-73886943D01*
X175394312Y-73886943D01*
X175379662Y-73889857D01*
X175365861Y-73895573D01*
X175353441Y-73903872D01*
X175342878Y-73914434D01*
X175334579Y-73926854D01*
X175328862Y-73940654D01*
X175325948Y-73955307D01*
X175325469Y-73960166D01*
X175322680Y-73969362D01*
X175318149Y-73977840D01*
X175312050Y-73985270D01*
X175304620Y-73991369D01*
X175296142Y-73995900D01*
X175286946Y-73998690D01*
X175273639Y-74000000D01*
X175029921Y-74000000D01*
X175016614Y-73998690D01*
X175007418Y-73995900D01*
X174998940Y-73991369D01*
X174991510Y-73985270D01*
X174985411Y-73977840D01*
X174980880Y-73969362D01*
X174978091Y-73960166D01*
X174977612Y-73955307D01*
X174974698Y-73940657D01*
X174968982Y-73926856D01*
X174960683Y-73914436D01*
X174950121Y-73903873D01*
X174937701Y-73895574D01*
X174923901Y-73889857D01*
X174909250Y-73886943D01*
X174894312Y-73886943D01*
X174879662Y-73889857D01*
X174865861Y-73895573D01*
X174853441Y-73903872D01*
X174842878Y-73914434D01*
X174834579Y-73926854D01*
X174828862Y-73940654D01*
X174825948Y-73955307D01*
X174825469Y-73960166D01*
X174822680Y-73969362D01*
X174818149Y-73977840D01*
X174812050Y-73985270D01*
X174804620Y-73991369D01*
X174796142Y-73995900D01*
X174786946Y-73998690D01*
X174773639Y-74000000D01*
X174529921Y-74000000D01*
X174516614Y-73998690D01*
X174507418Y-73995900D01*
X174498940Y-73991369D01*
X174491510Y-73985270D01*
X174485411Y-73977840D01*
X174480880Y-73969362D01*
X174478091Y-73960166D01*
X174477612Y-73955307D01*
X174474698Y-73940657D01*
X174468982Y-73926856D01*
X174460683Y-73914436D01*
X174450121Y-73903873D01*
X174437701Y-73895574D01*
X174423901Y-73889857D01*
X174409250Y-73886943D01*
X174394312Y-73886943D01*
X174379662Y-73889857D01*
X174365861Y-73895573D01*
X174353441Y-73903872D01*
X174342878Y-73914434D01*
X174334579Y-73926854D01*
X174328862Y-73940654D01*
X174325948Y-73955307D01*
X174325469Y-73960166D01*
X174322680Y-73969362D01*
X174318149Y-73977840D01*
X174312050Y-73985270D01*
X174304620Y-73991369D01*
X174296142Y-73995900D01*
X174286946Y-73998690D01*
X174273639Y-74000000D01*
X174027979Y-74000000D01*
X174013113Y-74001464D01*
X173998819Y-74005800D01*
X173985645Y-74012842D01*
X173974098Y-74022318D01*
X173964622Y-74033865D01*
X173957580Y-74047039D01*
X173953244Y-74061333D01*
X173951780Y-74076199D01*
X173951780Y-74321859D01*
X173950470Y-74335166D01*
X173947680Y-74344362D01*
X173943149Y-74352840D01*
X173937050Y-74360270D01*
X173929620Y-74366369D01*
X173921142Y-74370900D01*
X173911946Y-74373689D01*
X173907087Y-74374168D01*
X173892437Y-74377082D01*
X173878636Y-74382798D01*
X173866216Y-74391097D01*
X173855653Y-74401659D01*
X173847354Y-74414079D01*
X173841637Y-74427879D01*
X173838723Y-74442530D01*
X173089837Y-74442530D01*
X173086923Y-74427882D01*
X173081207Y-74414081D01*
X173072908Y-74401661D01*
X173062346Y-74391098D01*
X173049926Y-74382799D01*
X173036126Y-74377082D01*
X173021473Y-74374168D01*
X173016614Y-74373689D01*
X173007418Y-74370900D01*
X172998940Y-74366369D01*
X172991510Y-74360270D01*
X172985411Y-74352840D01*
X172980880Y-74344362D01*
X172978090Y-74335166D01*
X172976780Y-74321859D01*
X172976780Y-74078141D01*
X172978090Y-74064834D01*
X172980880Y-74055638D01*
X172985411Y-74047160D01*
X172991510Y-74039730D01*
X172998940Y-74033631D01*
X173007418Y-74029100D01*
X173016614Y-74026310D01*
X173029921Y-74025000D01*
X173900581Y-74025000D01*
X173915447Y-74023536D01*
X173929741Y-74019200D01*
X173942915Y-74012158D01*
X173954462Y-74002682D01*
X173963938Y-73991135D01*
X173970980Y-73977961D01*
X173975316Y-73963667D01*
X173976780Y-73948801D01*
X173976780Y-73078141D01*
X173978090Y-73064834D01*
X173980880Y-73055638D01*
X173985411Y-73047160D01*
X173991510Y-73039730D01*
X173998940Y-73033631D01*
X174007418Y-73029100D01*
X174016614Y-73026310D01*
X174029921Y-73025000D01*
X174273639Y-73025000D01*
X174286946Y-73026310D01*
G37*
G36*
X177522092Y-74179052D02*
G01*
X177558060Y-74189963D01*
X177591202Y-74207678D01*
X177620257Y-74231523D01*
X177644102Y-74260578D01*
X177661817Y-74293720D01*
X177672728Y-74329688D01*
X177676780Y-74370834D01*
X177676780Y-77529166D01*
X177672728Y-77570312D01*
X177661817Y-77606280D01*
X177644102Y-77639422D01*
X177620257Y-77668477D01*
X177591202Y-77692322D01*
X177558060Y-77710037D01*
X177522092Y-77720948D01*
X177480946Y-77725000D01*
X174322614Y-77725000D01*
X174281468Y-77720948D01*
X174245500Y-77710037D01*
X174212358Y-77692322D01*
X174183303Y-77668477D01*
X174159458Y-77639422D01*
X174141743Y-77606280D01*
X174130832Y-77570312D01*
X174126780Y-77529166D01*
X174126780Y-74370834D01*
X174130832Y-74329688D01*
X174141743Y-74293720D01*
X174159458Y-74260578D01*
X174183303Y-74231523D01*
X174212358Y-74207678D01*
X174245500Y-74189963D01*
X174281468Y-74179052D01*
X174322614Y-74175000D01*
X177480946Y-74175000D01*
X177522092Y-74179052D01*
G37*
G36*
X172363529Y-78122944D02*
G01*
X172388673Y-78130572D01*
X172411844Y-78142957D01*
X172432154Y-78159626D01*
X172448823Y-78179936D01*
X172461208Y-78203107D01*
X172468836Y-78228251D01*
X172471780Y-78258144D01*
X172471780Y-78671856D01*
X172468836Y-78701749D01*
X172461208Y-78726893D01*
X172448823Y-78750064D01*
X172432154Y-78770374D01*
X172411844Y-78787043D01*
X172388673Y-78799428D01*
X172363529Y-78807056D01*
X172333636Y-78810000D01*
X171869924Y-78810000D01*
X171840031Y-78807056D01*
X171814887Y-78799428D01*
X171791716Y-78787043D01*
X171771406Y-78770374D01*
X171754737Y-78750064D01*
X171742352Y-78726893D01*
X171734724Y-78701749D01*
X171731780Y-78671856D01*
X171731780Y-78258144D01*
X171734724Y-78228251D01*
X171742352Y-78203107D01*
X171754737Y-78179936D01*
X171771406Y-78159626D01*
X171791716Y-78142957D01*
X171814887Y-78130572D01*
X171840031Y-78122944D01*
X171869924Y-78120000D01*
X172333636Y-78120000D01*
X172363529Y-78122944D01*
G37*
G36*
X185051780Y-78650000D02*
G01*
X183751780Y-78650000D01*
X183751780Y-77750000D01*
X185051780Y-77750000D01*
X185051780Y-78650000D01*
G37*
G36*
X185051780Y-77400000D02*
G01*
X183751780Y-77400000D01*
X183751780Y-76500000D01*
X185051780Y-76500000D01*
X185051780Y-77400000D01*
G37*
G36*
X185051780Y-76150000D02*
G01*
X183751780Y-76150000D01*
X183751780Y-75250000D01*
X185051780Y-75250000D01*
X185051780Y-76150000D01*
G37*
G36*
X181151749Y-75344724D02*
G01*
X181176893Y-75352352D01*
X181200064Y-75364737D01*
X181220374Y-75381406D01*
X181237043Y-75401716D01*
X181249428Y-75424887D01*
X181257056Y-75450031D01*
X181260000Y-75479924D01*
X181260000Y-75943636D01*
X181257056Y-75973529D01*
X181249428Y-75998673D01*
X181237043Y-76021844D01*
X181220374Y-76042154D01*
X181200064Y-76058823D01*
X181176893Y-76071208D01*
X181151749Y-76078836D01*
X181121856Y-76081780D01*
X180708144Y-76081780D01*
X180678251Y-76078836D01*
X180653107Y-76071208D01*
X180629936Y-76058823D01*
X180609626Y-76042154D01*
X180592957Y-76021844D01*
X180580572Y-75998673D01*
X180572944Y-75973529D01*
X180570000Y-75943636D01*
X180570000Y-75479924D01*
X180572944Y-75450031D01*
X180580572Y-75424887D01*
X180592957Y-75401716D01*
X180609626Y-75381406D01*
X180629936Y-75364737D01*
X180653107Y-75352352D01*
X180678251Y-75344724D01*
X180708144Y-75341780D01*
X181121856Y-75341780D01*
X181151749Y-75344724D01*
G37*
G36*
X182121749Y-75344724D02*
G01*
X182146893Y-75352352D01*
X182170064Y-75364737D01*
X182190374Y-75381406D01*
X182207043Y-75401716D01*
X182219428Y-75424887D01*
X182227056Y-75450031D01*
X182230000Y-75479924D01*
X182230000Y-75943636D01*
X182227056Y-75973529D01*
X182219428Y-75998673D01*
X182207043Y-76021844D01*
X182190374Y-76042154D01*
X182170064Y-76058823D01*
X182146893Y-76071208D01*
X182121749Y-76078836D01*
X182091856Y-76081780D01*
X181678144Y-76081780D01*
X181648251Y-76078836D01*
X181623107Y-76071208D01*
X181599936Y-76058823D01*
X181579626Y-76042154D01*
X181562957Y-76021844D01*
X181550572Y-75998673D01*
X181542944Y-75973529D01*
X181540000Y-75943636D01*
X181540000Y-75479924D01*
X181542944Y-75450031D01*
X181550572Y-75424887D01*
X181562957Y-75401716D01*
X181579626Y-75381406D01*
X181599936Y-75364737D01*
X181623107Y-75352352D01*
X181648251Y-75344724D01*
X181678144Y-75341780D01*
X182091856Y-75341780D01*
X182121749Y-75344724D01*
G37*
G36*
X152601780Y-75050000D02*
G01*
X150501780Y-75050000D01*
X150501780Y-73450000D01*
X152601780Y-73450000D01*
X152601780Y-75050000D01*
G37*
G36*
X185051780Y-74900000D02*
G01*
X183751780Y-74900000D01*
X183751780Y-74000000D01*
X185051780Y-74000000D01*
X185051780Y-74900000D01*
G37*
G36*
X158901780Y-73900000D02*
G01*
X156801780Y-73900000D01*
X156801780Y-70000000D01*
X158901780Y-70000000D01*
X158901780Y-73900000D01*
G37*
G36*
X185051780Y-73630000D02*
G01*
X183751780Y-73630000D01*
X183751780Y-72730000D01*
X185051780Y-72730000D01*
X185051780Y-73630000D01*
G37*
G36*
X180971749Y-72562944D02*
G01*
X180996893Y-72570572D01*
X181020064Y-72582957D01*
X181040374Y-72599626D01*
X181057043Y-72619936D01*
X181069428Y-72643107D01*
X181077056Y-72668251D01*
X181080000Y-72698144D01*
X181080000Y-73161856D01*
X181077056Y-73191749D01*
X181069428Y-73216893D01*
X181057043Y-73240064D01*
X181040374Y-73260374D01*
X181020064Y-73277043D01*
X180996893Y-73289428D01*
X180971749Y-73297056D01*
X180941856Y-73300000D01*
X180528144Y-73300000D01*
X180498251Y-73297056D01*
X180473107Y-73289428D01*
X180449936Y-73277043D01*
X180429626Y-73260374D01*
X180412957Y-73240064D01*
X180400572Y-73216893D01*
X180392944Y-73191749D01*
X180390000Y-73161856D01*
X180390000Y-72698144D01*
X180392944Y-72668251D01*
X180400572Y-72643107D01*
X180412957Y-72619936D01*
X180429626Y-72599626D01*
X180449936Y-72582957D01*
X180473107Y-72570572D01*
X180498251Y-72562944D01*
X180528144Y-72560000D01*
X180941856Y-72560000D01*
X180971749Y-72562944D01*
G37*
G36*
X181941749Y-72562944D02*
G01*
X181966893Y-72570572D01*
X181990064Y-72582957D01*
X182010374Y-72599626D01*
X182027043Y-72619936D01*
X182039428Y-72643107D01*
X182047056Y-72668251D01*
X182050000Y-72698144D01*
X182050000Y-73161856D01*
X182047056Y-73191749D01*
X182039428Y-73216893D01*
X182027043Y-73240064D01*
X182010374Y-73260374D01*
X181990064Y-73277043D01*
X181966893Y-73289428D01*
X181941749Y-73297056D01*
X181911856Y-73300000D01*
X181498144Y-73300000D01*
X181468251Y-73297056D01*
X181443107Y-73289428D01*
X181419936Y-73277043D01*
X181399626Y-73260374D01*
X181382957Y-73240064D01*
X181370572Y-73216893D01*
X181362944Y-73191749D01*
X181360000Y-73161856D01*
X181360000Y-72698144D01*
X181362944Y-72668251D01*
X181370572Y-72643107D01*
X181382957Y-72619936D01*
X181399626Y-72599626D01*
X181419936Y-72582957D01*
X181443107Y-72570572D01*
X181468251Y-72562944D01*
X181498144Y-72560000D01*
X181911856Y-72560000D01*
X181941749Y-72562944D01*
G37*
G36*
X152601780Y-72750000D02*
G01*
X150501780Y-72750000D01*
X150501780Y-71150000D01*
X152601780Y-71150000D01*
X152601780Y-72750000D01*
G37*
G36*
X178653529Y-71782944D02*
G01*
X178678673Y-71790572D01*
X178701844Y-71802957D01*
X178722154Y-71819626D01*
X178738823Y-71839936D01*
X178751208Y-71863107D01*
X178758836Y-71888251D01*
X178761780Y-71918144D01*
X178761780Y-72381856D01*
X178758836Y-72411749D01*
X178751208Y-72436893D01*
X178738823Y-72460064D01*
X178722154Y-72480374D01*
X178701844Y-72497043D01*
X178678673Y-72509428D01*
X178653529Y-72517056D01*
X178623636Y-72520000D01*
X178209924Y-72520000D01*
X178180031Y-72517056D01*
X178154887Y-72509428D01*
X178131716Y-72497043D01*
X178111406Y-72480374D01*
X178094737Y-72460064D01*
X178082352Y-72436893D01*
X178074724Y-72411749D01*
X178071780Y-72381856D01*
X178071780Y-71918144D01*
X178074724Y-71888251D01*
X178082352Y-71863107D01*
X178094737Y-71839936D01*
X178111406Y-71819626D01*
X178131716Y-71802957D01*
X178154887Y-71790572D01*
X178180031Y-71782944D01*
X178209924Y-71780000D01*
X178623636Y-71780000D01*
X178653529Y-71782944D01*
G37*
G36*
X179623529Y-71782944D02*
G01*
X179648673Y-71790572D01*
X179671844Y-71802957D01*
X179692154Y-71819626D01*
X179708823Y-71839936D01*
X179721208Y-71863107D01*
X179728836Y-71888251D01*
X179731780Y-71918144D01*
X179731780Y-72381856D01*
X179728836Y-72411749D01*
X179721208Y-72436893D01*
X179708823Y-72460064D01*
X179692154Y-72480374D01*
X179671844Y-72497043D01*
X179648673Y-72509428D01*
X179623529Y-72517056D01*
X179593636Y-72520000D01*
X179179924Y-72520000D01*
X179150031Y-72517056D01*
X179124887Y-72509428D01*
X179101716Y-72497043D01*
X179081406Y-72480374D01*
X179064737Y-72460064D01*
X179052352Y-72436893D01*
X179044724Y-72411749D01*
X179041780Y-72381856D01*
X179041780Y-71918144D01*
X179044724Y-71888251D01*
X179052352Y-71863107D01*
X179064737Y-71839936D01*
X179081406Y-71819626D01*
X179101716Y-71802957D01*
X179124887Y-71790572D01*
X179150031Y-71782944D01*
X179179924Y-71780000D01*
X179593636Y-71780000D01*
X179623529Y-71782944D01*
G37*
G36*
X177363529Y-71692944D02*
G01*
X177388673Y-71700572D01*
X177411844Y-71712957D01*
X177432154Y-71729626D01*
X177448823Y-71749936D01*
X177461208Y-71773107D01*
X177468836Y-71798251D01*
X177471780Y-71828144D01*
X177471780Y-72241856D01*
X177468836Y-72271749D01*
X177461208Y-72296893D01*
X177448823Y-72320064D01*
X177432154Y-72340374D01*
X177411844Y-72357043D01*
X177388673Y-72369428D01*
X177363529Y-72377056D01*
X177333636Y-72380000D01*
X176869924Y-72380000D01*
X176840031Y-72377056D01*
X176814887Y-72369428D01*
X176791716Y-72357043D01*
X176771406Y-72340374D01*
X176754737Y-72320064D01*
X176742352Y-72296893D01*
X176734724Y-72271749D01*
X176731780Y-72241856D01*
X176731780Y-71828144D01*
X176734724Y-71798251D01*
X176742352Y-71773107D01*
X176754737Y-71749936D01*
X176771406Y-71729626D01*
X176791716Y-71712957D01*
X176814887Y-71700572D01*
X176840031Y-71692944D01*
X176869924Y-71690000D01*
X177333636Y-71690000D01*
X177363529Y-71692944D01*
G37*
G36*
X180956749Y-71542944D02*
G01*
X180981893Y-71550572D01*
X181005064Y-71562957D01*
X181025374Y-71579626D01*
X181042043Y-71599936D01*
X181054428Y-71623107D01*
X181062056Y-71648251D01*
X181065000Y-71678144D01*
X181065000Y-72141856D01*
X181062056Y-72171749D01*
X181054428Y-72196893D01*
X181042043Y-72220064D01*
X181025374Y-72240374D01*
X181005064Y-72257043D01*
X180981893Y-72269428D01*
X180956749Y-72277056D01*
X180926856Y-72280000D01*
X180513144Y-72280000D01*
X180483251Y-72277056D01*
X180458107Y-72269428D01*
X180434936Y-72257043D01*
X180414626Y-72240374D01*
X180397957Y-72220064D01*
X180385572Y-72196893D01*
X180377944Y-72171749D01*
X180375000Y-72141856D01*
X180375000Y-71678144D01*
X180377944Y-71648251D01*
X180385572Y-71623107D01*
X180397957Y-71599936D01*
X180414626Y-71579626D01*
X180434936Y-71562957D01*
X180458107Y-71550572D01*
X180483251Y-71542944D01*
X180513144Y-71540000D01*
X180926856Y-71540000D01*
X180956749Y-71542944D01*
G37*
G36*
X181926749Y-71542944D02*
G01*
X181951893Y-71550572D01*
X181975064Y-71562957D01*
X181995374Y-71579626D01*
X182012043Y-71599936D01*
X182024428Y-71623107D01*
X182032056Y-71648251D01*
X182035000Y-71678144D01*
X182035000Y-72141856D01*
X182032056Y-72171749D01*
X182024428Y-72196893D01*
X182012043Y-72220064D01*
X181995374Y-72240374D01*
X181975064Y-72257043D01*
X181951893Y-72269428D01*
X181926749Y-72277056D01*
X181896856Y-72280000D01*
X181483144Y-72280000D01*
X181453251Y-72277056D01*
X181428107Y-72269428D01*
X181404936Y-72257043D01*
X181384626Y-72240374D01*
X181367957Y-72220064D01*
X181355572Y-72196893D01*
X181347944Y-72171749D01*
X181345000Y-72141856D01*
X181345000Y-71678144D01*
X181347944Y-71648251D01*
X181355572Y-71623107D01*
X181367957Y-71599936D01*
X181384626Y-71579626D01*
X181404936Y-71562957D01*
X181428107Y-71550572D01*
X181453251Y-71542944D01*
X181483144Y-71540000D01*
X181896856Y-71540000D01*
X181926749Y-71542944D01*
G37*
G36*
X187821780Y-71730000D02*
G01*
X185571780Y-71730000D01*
X185571780Y-70830000D01*
X187821780Y-70830000D01*
X187821780Y-71730000D01*
G37*
G36*
X177363529Y-70722944D02*
G01*
X177388673Y-70730572D01*
X177411844Y-70742957D01*
X177432154Y-70759626D01*
X177448823Y-70779936D01*
X177461208Y-70803107D01*
X177468836Y-70828251D01*
X177471780Y-70858144D01*
X177471780Y-71271856D01*
X177468836Y-71301749D01*
X177461208Y-71326893D01*
X177448823Y-71350064D01*
X177432154Y-71370374D01*
X177411844Y-71387043D01*
X177388673Y-71399428D01*
X177363529Y-71407056D01*
X177333636Y-71410000D01*
X176869924Y-71410000D01*
X176840031Y-71407056D01*
X176814887Y-71399428D01*
X176791716Y-71387043D01*
X176771406Y-71370374D01*
X176754737Y-71350064D01*
X176742352Y-71326893D01*
X176734724Y-71301749D01*
X176731780Y-71271856D01*
X176731780Y-70858144D01*
X176734724Y-70828251D01*
X176742352Y-70803107D01*
X176754737Y-70779936D01*
X176771406Y-70759626D01*
X176791716Y-70742957D01*
X176814887Y-70730572D01*
X176840031Y-70722944D01*
X176869924Y-70720000D01*
X177333636Y-70720000D01*
X177363529Y-70722944D01*
G37*
G36*
X149369120Y-69905393D02*
G01*
X149418187Y-69920278D01*
X149463400Y-69944445D01*
X149503031Y-69976969D01*
X149535555Y-70016600D01*
X149559722Y-70061813D01*
X149574607Y-70110880D01*
X149580000Y-70165642D01*
X149580000Y-70834358D01*
X149574607Y-70889120D01*
X149559722Y-70938187D01*
X149535555Y-70983400D01*
X149503031Y-71023031D01*
X149463400Y-71055555D01*
X149418187Y-71079722D01*
X149369120Y-71094607D01*
X149314358Y-71100000D01*
X147245642Y-71100000D01*
X147190880Y-71094607D01*
X147141813Y-71079722D01*
X147096600Y-71055555D01*
X147056969Y-71023031D01*
X147024445Y-70983400D01*
X147000278Y-70938187D01*
X146985393Y-70889120D01*
X146980000Y-70834358D01*
X146980000Y-70165642D01*
X146985393Y-70110880D01*
X147000278Y-70061813D01*
X147024445Y-70016600D01*
X147056969Y-69976969D01*
X147096600Y-69944445D01*
X147141813Y-69920278D01*
X147190880Y-69905393D01*
X147245642Y-69900000D01*
X149314358Y-69900000D01*
X149369120Y-69905393D01*
G37*
G36*
X152601780Y-70450000D02*
G01*
X150501780Y-70450000D01*
X150501780Y-68850000D01*
X152601780Y-68850000D01*
X152601780Y-70450000D01*
G37*
G36*
X149369120Y-67365393D02*
G01*
X149418187Y-67380278D01*
X149463400Y-67404445D01*
X149503031Y-67436969D01*
X149535555Y-67476600D01*
X149559722Y-67521813D01*
X149574607Y-67570880D01*
X149580000Y-67625642D01*
X149580000Y-68294358D01*
X149574607Y-68349120D01*
X149559722Y-68398187D01*
X149535555Y-68443400D01*
X149503031Y-68483031D01*
X149463400Y-68515555D01*
X149418187Y-68539722D01*
X149369120Y-68554607D01*
X149314358Y-68560000D01*
X147245642Y-68560000D01*
X147190880Y-68554607D01*
X147141813Y-68539722D01*
X147096600Y-68515555D01*
X147056969Y-68483031D01*
X147024445Y-68443400D01*
X147000278Y-68398187D01*
X146985393Y-68349120D01*
X146980000Y-68294358D01*
X146980000Y-67625642D01*
X146985393Y-67570880D01*
X147000278Y-67521813D01*
X147024445Y-67476600D01*
X147056969Y-67436969D01*
X147096600Y-67404445D01*
X147141813Y-67380278D01*
X147190880Y-67365393D01*
X147245642Y-67360000D01*
X149314358Y-67360000D01*
X149369120Y-67365393D01*
G37*
M02*
