EESchema Schematic File Version 4
EELAYER 30 0
EELAYER END
$Descr User 7000 6000
encoding utf-8
Sheet 4 9
Title "MAX86150"
Date "2020-08-01"
Rev "1"
Comp "AGH Faculty of Electrical Engineering, Automatics, Computer Science and Biomedical Engineering"
Comment1 "Integrated Photoplethysmogram and Electrocardiogram Bio-Sensor Module"
Comment2 "Sytem for aquisition and transmission of biomedical data "
Comment3 ""
Comment4 ""
$EndDescr
$Comp
L Device:CP C?
U 1 1 606BEBFD
P 3230 3020
AR Path="/606BEBFD" Ref="C?"  Part="1" 
AR Path="/606B0085/606BEBFD" Ref="C6"  Part="1" 
F 0 "C6" H 3345 3066 50  0000 L CNN
F 1 "1μ" H 3345 2975 50  0000 L CNN
F 2 "Capacitor_SMD:C_0402_1005Metric" H 3268 2870 50  0001 C CNN
F 3 "~" H 3230 3020 50  0001 C CNN
	1    3230 3020
	1    0    0    -1  
$EndComp
Wire Wire Line
	3080 2810 3230 2810
Wire Wire Line
	3230 2810 3230 2870
Wire Wire Line
	3080 3210 3230 3210
Wire Wire Line
	3230 3210 3230 3170
$Comp
L Wireless_ECG_PPG_lib:MAX86150EFF+ U?
U 1 1 606BEC13
P 2380 2560
AR Path="/606BEC13" Ref="U?"  Part="1" 
AR Path="/606B0085/606BEC13" Ref="U4"  Part="1" 
F 0 "U4" H 2030 3940 50  0000 C CNN
F 1 "MAX86150EFF+" V 2360 2780 50  0000 C CNN
F 2 "Wireless_ECG_PPG_lib:MAX86150EFF+" H 1930 3910 50  0001 L BNN
F 3 "" H 2380 2560 50  0001 C CNN
	1    2380 2560
	1    0    0    -1  
$EndComp
$Comp
L Device:CP C?
U 1 1 606BEC1C
P 3340 1960
AR Path="/606BEC1C" Ref="C?"  Part="1" 
AR Path="/606B0085/606BEC1C" Ref="C7"  Part="1" 
F 0 "C7" V 3480 1910 50  0000 L CNN
F 1 "1μ" V 3420 1780 50  0000 L CNN
F 2 "Capacitor_SMD:C_0402_1005Metric" H 3378 1810 50  0001 C CNN
F 3 "~" H 3340 1960 50  0001 C CNN
	1    3340 1960
	0    -1   -1   0   
$EndComp
$Comp
L Device:R_US R?
U 1 1 606BEC30
P 1600 2910
AR Path="/606BEC30" Ref="R?"  Part="1" 
AR Path="/606B0085/606BEC30" Ref="R11"  Part="1" 
F 0 "R11" H 1670 2950 50  0000 L CNN
F 1 "1k" H 1668 2865 50  0000 L CNN
F 2 "Resistor_SMD:R_0402_1005Metric" V 1640 2900 50  0001 C CNN
F 3 "~" H 1600 2910 50  0001 C CNN
	1    1600 2910
	1    0    0    -1  
$EndComp
$Comp
L Device:R_US R?
U 1 1 606BEC36
P 1350 2910
AR Path="/606BEC36" Ref="R?"  Part="1" 
AR Path="/606B0085/606BEC36" Ref="R10"  Part="1" 
F 0 "R10" H 1410 2950 50  0000 L CNN
F 1 "1k" H 1410 2860 50  0000 L CNN
F 2 "Resistor_SMD:R_0402_1005Metric" V 1390 2900 50  0001 C CNN
F 3 "~" H 1350 2910 50  0001 C CNN
	1    1350 2910
	1    0    0    -1  
$EndComp
$Comp
L Device:R_US R?
U 1 1 606BEC3C
P 1150 2910
AR Path="/606BEC3C" Ref="R?"  Part="1" 
AR Path="/606B0085/606BEC3C" Ref="R9"  Part="1" 
F 0 "R9" H 1200 2950 50  0000 L CNN
F 1 "1k" H 1200 2860 50  0000 L CNN
F 2 "Resistor_SMD:R_0402_1005Metric" V 1190 2900 50  0001 C CNN
F 3 "~" H 1150 2910 50  0001 C CNN
	1    1150 2910
	1    0    0    -1  
$EndComp
Wire Wire Line
	1080 3360 1150 3360
Wire Wire Line
	1350 3060 1350 3260
Wire Wire Line
	1080 3260 1350 3260
$Comp
L Device:R_US R?
U 1 1 606BEC4B
P 1150 2110
AR Path="/606BEC4B" Ref="R?"  Part="1" 
AR Path="/606B0085/606BEC4B" Ref="R8"  Part="1" 
F 0 "R8" V 1230 2060 50  0000 L CNN
F 1 "50k" V 1060 1900 50  0000 L CNN
F 2 "Resistor_SMD:R_0402_1005Metric" V 1190 2100 50  0001 C CNN
F 3 "~" H 1150 2110 50  0001 C CNN
	1    1150 2110
	0    1    1    0   
$EndComp
$Comp
L Device:R_US R?
U 1 1 606BEC51
P 1150 1710
AR Path="/606BEC51" Ref="R?"  Part="1" 
AR Path="/606B0085/606BEC51" Ref="R7"  Part="1" 
F 0 "R7" V 1070 1660 50  0000 L CNN
F 1 "50k" V 1220 1510 50  0000 L CNN
F 2 "Resistor_SMD:R_0402_1005Metric" V 1190 1700 50  0001 C CNN
F 3 "~" H 1150 1710 50  0001 C CNN
	1    1150 1710
	0    1    1    0   
$EndComp
$Comp
L Device:C_Small C?
U 1 1 606BEC57
P 1300 1810
AR Path="/606BEC57" Ref="C?"  Part="1" 
AR Path="/606B0085/606BEC57" Ref="C4"  Part="1" 
F 0 "C4" H 1120 1790 50  0000 L CNN
F 1 "10p" H 1370 1820 50  0000 L CNN
F 2 "Capacitor_SMD:C_0402_1005Metric" H 1300 1810 50  0001 C CNN
F 3 "~" H 1300 1810 50  0001 C CNN
	1    1300 1810
	1    0    0    -1  
$EndComp
$Comp
L Device:C_Small C?
U 1 1 606BEC5D
P 1300 2010
AR Path="/606BEC5D" Ref="C?"  Part="1" 
AR Path="/606B0085/606BEC5D" Ref="C5"  Part="1" 
F 0 "C5" H 1110 2020 50  0000 L CNN
F 1 "10p" H 1370 2020 50  0000 L CNN
F 2 "Capacitor_SMD:C_0402_1005Metric" H 1300 2010 50  0001 C CNN
F 3 "~" H 1300 2010 50  0001 C CNN
	1    1300 2010
	1    0    0    -1  
$EndComp
$Comp
L power:GNDA #PWR?
U 1 1 606BEC63
P 1650 1910
AR Path="/606BEC63" Ref="#PWR?"  Part="1" 
AR Path="/606B0085/606BEC63" Ref="#PWR0125"  Part="1" 
F 0 "#PWR0125" H 1650 1660 50  0001 C CNN
F 1 "GNDA" H 1655 1737 50  0001 C CNN
F 2 "" H 1650 1910 50  0001 C CNN
F 3 "" H 1650 1910 50  0001 C CNN
	1    1650 1910
	0    -1   -1   0   
$EndComp
Connection ~ 1300 1710
Connection ~ 1300 2110
$Comp
L power:GNDA #PWR?
U 1 1 606BEC78
P 3620 2570
AR Path="/606BEC78" Ref="#PWR?"  Part="1" 
AR Path="/606B0085/606BEC78" Ref="#PWR0126"  Part="1" 
F 0 "#PWR0126" H 3620 2320 50  0001 C CNN
F 1 "GNDA" H 3620 2410 50  0000 C CNN
F 2 "" H 3620 2570 50  0001 C CNN
F 3 "" H 3620 2570 50  0001 C CNN
	1    3620 2570
	1    0    0    -1  
$EndComp
Wire Wire Line
	900  1710 1000 1710
Wire Wire Line
	1080 3110 1600 3110
Wire Wire Line
	1350 2580 1350 2680
Connection ~ 1350 3260
Wire Wire Line
	1350 3260 1680 3260
Wire Wire Line
	1600 3110 1600 3060
Connection ~ 1600 3110
Wire Wire Line
	1600 3110 1680 3110
Wire Wire Line
	1150 3060 1150 3360
Connection ~ 1150 3360
Wire Wire Line
	1150 3360 1680 3360
Wire Wire Line
	3620 2570 3620 2510
Text GLabel 1080 3260 0    50   BiDi ~ 0
I2C_SDA
Text GLabel 1080 3110 0    50   BiDi ~ 0
~INT
Text GLabel 1080 3360 0    50   BiDi ~ 0
I2C_SCL
Text GLabel 5390 1320 0    50   BiDi ~ 0
I2C_SDA
Text GLabel 5390 1170 0    50   BiDi ~ 0
~INT
Text GLabel 5390 1420 0    50   BiDi ~ 0
I2C_SCL
Text HLabel 5540 1170 2    50   BiDi Italic 0
~INT
Text HLabel 5540 1320 2    50   BiDi Italic 0
12C_SDA
Text HLabel 5540 1420 2    50   BiDi Italic 0
I2C_SCL
Wire Wire Line
	5390 1170 5540 1170
Wire Wire Line
	5390 1320 5540 1320
Wire Wire Line
	5390 1420 5540 1420
Text GLabel 900  1710 0    50   BiDi ~ 0
ECG_N
Text GLabel 890  2110 0    50   BiDi ~ 0
ECG_P
Wire Wire Line
	890  2110 1000 2110
Text GLabel 5350 770  0    50   BiDi ~ 0
ECG_P
Wire Wire Line
	5350 770  5550 770 
Text HLabel 5550 770  2    50   BiDi Italic 0
ECG_P
Text Notes 3520 3100 0    50   ~ 0
Capacitor for \nECG HPF
$Comp
L power:+3.3V #PWR0127
U 1 1 5F90FF31
P 1350 2580
F 0 "#PWR0127" H 1350 2430 50  0001 C CNN
F 1 "+3.3V" H 1365 2753 50  0000 C CNN
F 2 "" H 1350 2580 50  0001 C CNN
F 3 "" H 1350 2580 50  0001 C CNN
	1    1350 2580
	1    0    0    -1  
$EndComp
$Comp
L power:+3.3V #PWR0128
U 1 1 5F911EC4
P 3160 1280
F 0 "#PWR0128" H 3160 1130 50  0001 C CNN
F 1 "+3.3V" H 3130 1440 50  0000 C CNN
F 2 "" H 3160 1280 50  0001 C CNN
F 3 "" H 3160 1280 50  0001 C CNN
	1    3160 1280
	1    0    0    -1  
$EndComp
Wire Wire Line
	3160 1280 3160 1460
Wire Wire Line
	3160 1460 3080 1460
$Comp
L power:+1.8VA #PWR0129
U 1 1 5F91BCDE
P 3680 1260
F 0 "#PWR0129" H 3680 1110 50  0001 C CNN
F 1 "+1.8VA" H 3670 1410 50  0000 C CNN
F 2 "" H 3630 1210 50  0001 C CNN
F 3 "" H 3680 1260 50  0001 C CNN
	1    3680 1260
	1    0    0    -1  
$EndComp
$Comp
L power:+1V8 #PWR0130
U 1 1 5F91F3BE
P 3390 1270
F 0 "#PWR0130" H 3390 1120 50  0001 C CNN
F 1 "+1V8" H 3390 1430 50  0000 C CNN
F 2 "" H 3390 1270 50  0001 C CNN
F 3 "" H 3390 1270 50  0001 C CNN
	1    3390 1270
	1    0    0    -1  
$EndComp
$Comp
L Device:Net-Tie_2 NT2
U 1 1 5F924063
P 3480 2510
F 0 "NT2" H 3480 2560 50  0000 C CNN
F 1 "Net-Tie_2" H 3500 2370 50  0001 C CNN
F 2 "Resistor_SMD:R_0402_1005Metric" H 3480 2510 50  0001 C CNN
F 3 "~" H 3480 2510 50  0001 C CNN
	1    3480 2510
	1    0    0    -1  
$EndComp
Connection ~ 3620 2210
Wire Wire Line
	3390 1270 3390 1560
Wire Wire Line
	3390 1560 3080 1560
Wire Wire Line
	3680 1660 3680 1260
Wire Wire Line
	3080 1660 3680 1660
Wire Wire Line
	3080 1960 3190 1960
Wire Wire Line
	3490 1960 3620 1960
Wire Wire Line
	3620 1960 3620 2210
Wire Wire Line
	3080 2310 3330 2310
Wire Wire Line
	3080 2510 3330 2510
Wire Wire Line
	3330 2510 3330 2570
Wire Wire Line
	3330 2310 3330 2510
Connection ~ 3330 2510
$Comp
L power:GNDD #PWR?
U 1 1 606BEBF7
P 3330 2570
AR Path="/606BEBF7" Ref="#PWR?"  Part="1" 
AR Path="/606B0085/606BEBF7" Ref="#PWR0131"  Part="1" 
F 0 "#PWR0131" H 3330 2420 50  0001 C CNN
F 1 "GNDD" H 3334 2415 50  0000 C CNN
F 2 "" H 3330 2570 50  0001 C CNN
F 3 "" H 3330 2570 50  0001 C CNN
	1    3330 2570
	1    0    0    -1  
$EndComp
Wire Wire Line
	1300 1710 1680 1710
Wire Wire Line
	3080 2210 3620 2210
Wire Wire Line
	3330 2510 3380 2510
Wire Wire Line
	3580 2510 3620 2510
Connection ~ 3620 2510
Wire Wire Line
	3620 2510 3620 2210
Wire Wire Line
	1150 2680 1350 2680
Wire Wire Line
	1600 2680 1600 2760
Wire Wire Line
	1150 2680 1150 2760
Wire Wire Line
	1350 2680 1350 2760
Connection ~ 1350 2680
Wire Wire Line
	1350 2680 1600 2680
Wire Wire Line
	1300 2110 1680 2110
$Comp
L Device:Net-Tie_2 NT1
U 1 1 5F95888F
P 1490 1910
F 0 "NT1" H 1570 1950 50  0000 C CNN
F 1 "Net-Tie_2" H 1510 1770 50  0001 C CNN
F 2 "Resistor_SMD:R_0402_1005Metric" H 1490 1910 50  0001 C CNN
F 3 "~" H 1490 1910 50  0001 C CNN
	1    1490 1910
	1    0    0    -1  
$EndComp
Wire Wire Line
	1390 1910 1300 1910
Connection ~ 1300 1910
Wire Wire Line
	1590 1910 1650 1910
$Comp
L power:+3.3V #PWR0132
U 1 1 5F9960BE
P 5060 2360
F 0 "#PWR0132" H 5060 2210 50  0001 C CNN
F 1 "+3.3V" H 5020 2530 50  0000 C CNN
F 2 "" H 5060 2360 50  0001 C CNN
F 3 "" H 5060 2360 50  0001 C CNN
	1    5060 2360
	1    0    0    -1  
$EndComp
$Comp
L power:+1.8VA #PWR0133
U 1 1 5F9960C4
P 5850 3290
F 0 "#PWR0133" H 5850 3140 50  0001 C CNN
F 1 "+1.8VA" H 5840 3440 50  0000 C CNN
F 2 "" H 5800 3240 50  0001 C CNN
F 3 "" H 5850 3290 50  0001 C CNN
	1    5850 3290
	1    0    0    -1  
$EndComp
$Comp
L power:+1V8 #PWR0134
U 1 1 5F9960CA
P 5740 2330
F 0 "#PWR0134" H 5740 2180 50  0001 C CNN
F 1 "+1V8" H 5740 2490 50  0000 C CNN
F 2 "" H 5740 2330 50  0001 C CNN
F 3 "" H 5740 2330 50  0001 C CNN
	1    5740 2330
	1    0    0    -1  
$EndComp
$Comp
L Device:C_Small C9
U 1 1 5F99711E
P 5140 2560
F 0 "C9" H 5200 2640 50  0000 L CNN
F 1 "4.7μ" H 5210 2520 50  0000 L CNN
F 2 "Capacitor_SMD:C_0603_1608Metric" H 5140 2560 50  0001 C CNN
F 3 "~" H 5140 2560 50  0001 C CNN
	1    5140 2560
	1    0    0    -1  
$EndComp
$Comp
L Device:C_Small C8
U 1 1 5F997711
P 4980 2560
F 0 "C8" H 4830 2650 50  0000 L CNN
F 1 "100n" H 4740 2500 50  0000 L CNN
F 2 "Capacitor_SMD:C_0402_1005Metric" H 4980 2560 50  0001 C CNN
F 3 "~" H 4980 2560 50  0001 C CNN
	1    4980 2560
	1    0    0    -1  
$EndComp
$Comp
L Device:C_Small C12
U 1 1 5F99F795
P 5820 2530
F 0 "C12" H 5880 2610 50  0000 L CNN
F 1 "4.7μ" H 5890 2490 50  0000 L CNN
F 2 "Capacitor_SMD:C_0603_1608Metric" H 5820 2530 50  0001 C CNN
F 3 "~" H 5820 2530 50  0001 C CNN
	1    5820 2530
	1    0    0    -1  
$EndComp
$Comp
L Device:C_Small C10
U 1 1 5F99F79B
P 5660 2530
F 0 "C10" H 5510 2620 50  0000 L CNN
F 1 "100n" H 5420 2470 50  0000 L CNN
F 2 "Capacitor_SMD:C_0402_1005Metric" H 5660 2530 50  0001 C CNN
F 3 "~" H 5660 2530 50  0001 C CNN
	1    5660 2530
	1    0    0    -1  
$EndComp
$Comp
L Device:C_Small C13
U 1 1 5F9A1C65
P 5930 3490
F 0 "C13" H 5990 3570 50  0000 L CNN
F 1 "4.7μ" H 6000 3450 50  0000 L CNN
F 2 "Capacitor_SMD:C_0603_1608Metric" H 5930 3490 50  0001 C CNN
F 3 "~" H 5930 3490 50  0001 C CNN
	1    5930 3490
	1    0    0    -1  
$EndComp
$Comp
L Device:C_Small C11
U 1 1 5F9A1C6B
P 5770 3490
F 0 "C11" H 5620 3580 50  0000 L CNN
F 1 "100n" H 5530 3430 50  0000 L CNN
F 2 "Capacitor_SMD:C_0402_1005Metric" H 5770 3490 50  0001 C CNN
F 3 "~" H 5770 3490 50  0001 C CNN
	1    5770 3490
	1    0    0    -1  
$EndComp
Wire Wire Line
	5770 3340 5770 3390
Wire Wire Line
	5850 3340 5850 3290
Wire Wire Line
	4980 2660 4980 2710
Wire Wire Line
	4980 2710 5060 2710
Wire Wire Line
	5140 2710 5140 2660
Wire Wire Line
	5660 2630 5660 2700
Wire Wire Line
	5660 2700 5740 2700
Wire Wire Line
	5820 2700 5820 2630
Wire Wire Line
	5770 3590 5770 3670
Wire Wire Line
	5770 3670 5850 3670
Wire Wire Line
	5930 3670 5930 3590
$Comp
L power:GNDA #PWR?
U 1 1 5F9A8A04
P 5850 3670
AR Path="/5F9A8A04" Ref="#PWR?"  Part="1" 
AR Path="/606B0085/5F9A8A04" Ref="#PWR0135"  Part="1" 
F 0 "#PWR0135" H 5850 3420 50  0001 C CNN
F 1 "GNDA" H 5850 3510 50  0000 C CNN
F 2 "" H 5850 3670 50  0001 C CNN
F 3 "" H 5850 3670 50  0001 C CNN
	1    5850 3670
	1    0    0    -1  
$EndComp
Connection ~ 5850 3670
Wire Wire Line
	5850 3670 5930 3670
Wire Wire Line
	5930 3340 5930 3390
Connection ~ 5850 3340
$Comp
L power:GNDD #PWR?
U 1 1 5F9AF9E5
P 5060 2710
AR Path="/5F9AF9E5" Ref="#PWR?"  Part="1" 
AR Path="/606B0085/5F9AF9E5" Ref="#PWR0136"  Part="1" 
F 0 "#PWR0136" H 5060 2560 50  0001 C CNN
F 1 "GNDD" H 5064 2555 50  0000 C CNN
F 2 "" H 5060 2710 50  0001 C CNN
F 3 "" H 5060 2710 50  0001 C CNN
	1    5060 2710
	1    0    0    -1  
$EndComp
Connection ~ 5060 2710
Wire Wire Line
	5060 2710 5140 2710
$Comp
L power:GNDD #PWR?
U 1 1 5F9B053F
P 5740 2700
AR Path="/5F9B053F" Ref="#PWR?"  Part="1" 
AR Path="/606B0085/5F9B053F" Ref="#PWR0137"  Part="1" 
F 0 "#PWR0137" H 5740 2550 50  0001 C CNN
F 1 "GNDD" H 5744 2545 50  0000 C CNN
F 2 "" H 5740 2700 50  0001 C CNN
F 3 "" H 5740 2700 50  0001 C CNN
	1    5740 2700
	1    0    0    -1  
$EndComp
Connection ~ 5740 2700
Wire Wire Line
	5740 2700 5820 2700
Wire Wire Line
	5850 3340 5930 3340
Wire Wire Line
	5770 3340 5850 3340
Wire Wire Line
	4980 2410 4980 2460
Wire Wire Line
	5060 2410 5060 2360
Wire Wire Line
	5140 2410 5140 2460
Connection ~ 5060 2410
Wire Wire Line
	5060 2410 5140 2410
Wire Wire Line
	4980 2410 5060 2410
Wire Wire Line
	5660 2380 5660 2430
Wire Wire Line
	5740 2380 5740 2330
Wire Wire Line
	5820 2380 5820 2430
Connection ~ 5740 2380
Wire Wire Line
	5740 2380 5820 2380
Wire Wire Line
	5660 2380 5740 2380
Wire Notes Line
	4760 1900 6300 1900
Wire Notes Line
	6300 1900 6300 3910
Wire Notes Line
	6300 3900 4750 3900
Wire Notes Line
	4760 3900 4760 1900
Text Notes 4880 3780 0    50   ~ 0
Decoupling\n
Text GLabel 5350 880  0    50   BiDi ~ 0
ECG_N
Wire Wire Line
	5350 880  5550 880 
Text HLabel 5550 880  2    50   BiDi Italic 0
ECG_N
$EndSCHEMATC
