EESchema Schematic File Version 4
EELAYER 30 0
EELAYER END
$Descr User 7000 5000
encoding utf-8
Sheet 5 5
Title ""
Date ""
Rev ""
Comp ""
Comment1 ""
Comment2 ""
Comment3 ""
Comment4 ""
$EndDescr
$EndSCHEMATC
