EESchema Schematic File Version 4
EELAYER 30 0
EELAYER END
$Descr A4 11693 8268
encoding utf-8
Sheet 2 2
Title ""
Date ""
Rev ""
Comp ""
Comment1 ""
Comment2 ""
Comment3 ""
Comment4 ""
$EndDescr
Wire Wire Line
	5240 4420 5340 4420
Connection ~ 5340 4420
Wire Wire Line
	5340 4420 5440 4420
$Comp
L power:GNDD #PWR?
U 1 1 604C70F2
P 6880 4840
F 0 "#PWR?" H 6880 4690 50  0001 C CNN
F 1 "GNDD" H 6884 4685 50  0000 C CNN
F 2 "" H 6880 4840 50  0001 C CNN
F 3 "" H 6880 4840 50  0001 C CNN
	1    6880 4840
	1    0    0    -1  
$EndComp
$Comp
L Device:R_US R?
U 1 1 604C70F8
P 6880 4490
F 0 "R?" H 6948 4490 50  0000 L CNN
F 1 "R_US" H 6948 4445 50  0001 L CNN
F 2 "Resistor_SMD:R_0402_1005Metric" V 6920 4480 50  0001 C CNN
F 3 "~" H 6880 4490 50  0001 C CNN
	1    6880 4490
	1    0    0    -1  
$EndComp
$Comp
L power:+3.3V #PWR?
U 1 1 604C70FE
P 6880 4340
F 0 "#PWR?" H 6880 4190 50  0001 C CNN
F 1 "+3.3V" H 6895 4513 50  0000 C CNN
F 2 "" H 6880 4340 50  0001 C CNN
F 3 "" H 6880 4340 50  0001 C CNN
	1    6880 4340
	1    0    0    -1  
$EndComp
$Comp
L Connector_Generic:Conn_01x06 J?
U 1 1 604C7104
P 6810 2670
F 0 "J?" V 6774 2282 50  0000 R CNN
F 1 "Conn_01x06" V 6930 2820 50  0000 R CNN
F 2 "Connector_Molex:Molex_PicoBlade_53048-0610_1x06_P1.25mm_Horizontal" H 6810 2670 50  0001 C CNN
F 3 "~" H 6810 2670 50  0001 C CNN
	1    6810 2670
	1    0    0    -1  
$EndComp
$Comp
L power:+3.3V #PWR?
U 1 1 604C710A
P 5340 2310
F 0 "#PWR?" H 5340 2160 50  0001 C CNN
F 1 "+3.3V" H 5480 2450 50  0000 C CNN
F 2 "" H 5340 2310 50  0001 C CNN
F 3 "" H 5340 2310 50  0001 C CNN
	1    5340 2310
	1    0    0    -1  
$EndComp
$Comp
L MCU_ST_STM32L4:STM32L432KCUx U?
U 1 1 604C7110
P 5340 3350
F 0 "U?" H 5070 4230 50  0000 C CNN
F 1 "STM32L432KCUx" V 5370 3000 50  0000 L BNN
F 2 "Package_DFN_QFN:QFN-32-1EP_5x5mm_P0.5mm_EP3.45x3.45mm" H 4940 2450 50  0001 R CNN
F 3 "http://www.st.com/st-web-ui/static/active/en/resource/technical/document/datasheet/DM00257205.pdf" H 5340 3350 50  0001 C CNN
	1    5340 3350
	1    0    0    -1  
$EndComp
Wire Wire Line
	5240 4420 5240 4350
Wire Wire Line
	5340 4350 5340 4420
Wire Wire Line
	5440 4350 5440 4420
$Comp
L Device:C_Small C?
U 1 1 604C7119
P 6880 4740
F 0 "C?" H 6720 4740 50  0000 L CNN
F 1 "C_Small" H 6972 4695 50  0001 L CNN
F 2 "Capacitor_SMD:C_0402_1005Metric" H 6880 4740 50  0001 C CNN
F 3 "~" H 6880 4740 50  0001 C CNN
	1    6880 4740
	1    0    0    -1  
$EndComp
Connection ~ 6880 4640
Wire Wire Line
	6880 4640 7020 4640
Text GLabel 5950 3650 2    50   BiDi ~ 0
I2C_SDA
Text GLabel 5960 3450 2    35   BiDi ~ 0
~INT
Text GLabel 5950 3550 2    50   BiDi ~ 0
I2C_SCL
Wire Wire Line
	5840 3550 5950 3550
Wire Wire Line
	5840 3650 5950 3650
Wire Wire Line
	5840 3450 5960 3450
Text GLabel 4740 3050 0    35   BiDi ~ 0
BOOT
Wire Wire Line
	4840 3050 4740 3050
Text GLabel 4720 2650 0    35   BiDi ~ 0
~RST
Wire Wire Line
	4720 2650 4840 2650
Text GLabel 7020 4640 2    35   BiDi ~ 0
~RST
Text GLabel 4740 3950 0    35   BiDi ~ 0
MOSI
Wire Wire Line
	4840 3950 4740 3950
Text GLabel 4740 4050 0    35   BiDi ~ 0
MISO
Wire Wire Line
	4840 4050 4740 4050
$Comp
L Device:R_US R?
U 1 1 604C7130
P 6250 4610
F 0 "R?" H 6318 4610 50  0000 L CNN
F 1 "R_US" H 6318 4565 50  0001 L CNN
F 2 "Resistor_SMD:R_0402_1005Metric" V 6290 4600 50  0001 C CNN
F 3 "~" H 6250 4610 50  0001 C CNN
	1    6250 4610
	1    0    0    -1  
$EndComp
$Comp
L power:GNDD #PWR?
U 1 1 604C7136
P 6250 4760
F 0 "#PWR?" H 6250 4610 50  0001 C CNN
F 1 "GNDD" H 6254 4605 50  0000 C CNN
F 2 "" H 6250 4760 50  0001 C CNN
F 3 "" H 6250 4760 50  0001 C CNN
	1    6250 4760
	1    0    0    -1  
$EndComp
Text GLabel 6150 4460 0    35   BiDi ~ 0
BOOT
Wire Wire Line
	6250 4460 6150 4460
Text GLabel 5950 3850 2    50   BiDi ~ 0
USB_D+
Text GLabel 5950 3750 2    50   BiDi ~ 0
USB_D-
Wire Wire Line
	5840 3750 5950 3750
Wire Wire Line
	5840 3850 5950 3850
Text GLabel 4740 3750 0    35   BiDi ~ 0
SWO
Wire Wire Line
	4840 3750 4740 3750
Text GLabel 5940 3950 2    35   BiDi ~ 0
SWIO
Wire Wire Line
	5840 3950 5940 3950
Text GLabel 5940 4050 2    35   BiDi ~ 0
SWCLK
Wire Wire Line
	5840 4050 5940 4050
Text GLabel 6510 2670 0    35   BiDi ~ 0
SWCLK
Wire Wire Line
	6610 2670 6510 2670
Text GLabel 6450 2870 0    35   BiDi ~ 0
SWO
Wire Wire Line
	6610 2870 6450 2870
Text GLabel 6430 2570 0    35   BiDi ~ 0
~RST
Wire Wire Line
	6430 2570 6610 2570
$Comp
L power:GNDD #PWR?
U 1 1 604C714E
P 5340 4490
F 0 "#PWR?" H 5340 4340 50  0001 C CNN
F 1 "GNDD" H 5344 4335 50  0000 C CNN
F 2 "" H 5340 4490 50  0001 C CNN
F 3 "" H 5340 4490 50  0001 C CNN
	1    5340 4490
	1    0    0    -1  
$EndComp
Wire Wire Line
	5340 4420 5340 4490
Wire Wire Line
	5240 2380 5340 2380
Connection ~ 5340 2380
Wire Wire Line
	5340 2380 5440 2380
Wire Wire Line
	5240 2380 5240 2450
Wire Wire Line
	5340 2450 5340 2380
Wire Wire Line
	5440 2450 5440 2380
Wire Wire Line
	5340 2380 5340 2310
Text GLabel 6470 2770 0    35   BiDi ~ 0
SWIO
Wire Wire Line
	6610 2770 6470 2770
$Comp
L power:+3.3V #PWR?
U 1 1 604C715E
P 6440 2410
F 0 "#PWR?" H 6440 2260 50  0001 C CNN
F 1 "+3.3V" H 6580 2550 50  0000 C CNN
F 2 "" H 6440 2410 50  0001 C CNN
F 3 "" H 6440 2410 50  0001 C CNN
	1    6440 2410
	1    0    0    -1  
$EndComp
Wire Wire Line
	6440 2470 6440 2410
$Comp
L power:GNDD #PWR?
U 1 1 604C7165
P 6440 3010
F 0 "#PWR?" H 6440 2860 50  0001 C CNN
F 1 "GNDD" H 6444 2855 50  0000 C CNN
F 2 "" H 6440 3010 50  0001 C CNN
F 3 "" H 6440 3010 50  0001 C CNN
	1    6440 3010
	1    0    0    -1  
$EndComp
Wire Wire Line
	6440 3010 6440 2970
Wire Wire Line
	6440 2970 6610 2970
Wire Wire Line
	6440 2470 6610 2470
Text GLabel 5940 2750 2    35   BiDi ~ 0
SCK
Wire Wire Line
	5840 2750 5940 2750
Text GLabel 5940 2850 2    35   BiDi ~ 0
SS
Wire Wire Line
	5840 2850 5940 2850
$EndSCHEMATC
