EESchema Schematic File Version 4
EELAYER 30 0
EELAYER END
$Descr User 8000 6000
encoding utf-8
Sheet 9 9
Title "Main microcontroler"
Date "2020-08-01"
Rev "1"
Comp "AGH Faculty of Electrical Engineering, Automatics, Computer Science and Biomedical Engineering"
Comment1 ""
Comment2 "Sytem for aquisition and transmission of biomedical data "
Comment3 ""
Comment4 ""
$EndDescr
Wire Wire Line
	3480 3560 3580 3560
Connection ~ 3580 3560
Wire Wire Line
	3580 3560 3680 3560
$Comp
L Connector_Generic:Conn_01x06 J?
U 1 1 605151D9
P 5500 1380
AR Path="/605151D9" Ref="J?"  Part="1" 
AR Path="/60503AAD/605151D9" Ref="J2"  Part="1" 
F 0 "J2" H 5464 992 50  0000 R CNN
F 1 "Conn_01x06" V 5620 1530 50  0000 R CNN
F 2 "Wireless_ECG_PPG_lib:5055670571" H 5500 1380 50  0001 C CNN
F 3 "~" H 5500 1380 50  0001 C CNN
	1    5500 1380
	1    0    0    -1  
$EndComp
$Comp
L MCU_ST_STM32L4:STM32L432KCUx U?
U 1 1 605151E5
P 3580 2490
AR Path="/605151E5" Ref="U?"  Part="1" 
AR Path="/60503AAD/605151E5" Ref="U1"  Part="1" 
F 0 "U1" H 3310 3370 50  0000 C CNN
F 1 "STM32L432KCUx" V 3610 2140 50  0000 L BNN
F 2 "Package_DFN_QFN:QFN-32-1EP_5x5mm_P0.5mm_EP3.45x3.45mm" H 3180 1590 50  0001 R CNN
F 3 "http://www.st.com/st-web-ui/static/active/en/resource/technical/document/datasheet/DM00257205.pdf" H 3580 2490 50  0001 C CNN
	1    3580 2490
	1    0    0    -1  
$EndComp
Wire Wire Line
	3480 3560 3480 3490
Wire Wire Line
	3580 3490 3580 3560
Wire Wire Line
	3680 3490 3680 3560
Text GLabel 4190 2790 2    35   BiDi ~ 0
I2C_SDA
Text GLabel 4190 2690 2    35   BiDi ~ 0
I2C_SCL
Wire Wire Line
	4080 2690 4190 2690
Wire Wire Line
	4080 2790 4190 2790
Text GLabel 2980 2190 0    35   BiDi ~ 0
BOOT
Wire Wire Line
	3080 2190 2980 2190
Text GLabel 2960 1790 0    35   BiDi ~ 0
~RST
Wire Wire Line
	2960 1790 3080 1790
Text GLabel 2980 3090 0    35   BiDi ~ 0
MOSI
Wire Wire Line
	3080 3090 2980 3090
Text GLabel 4180 2390 2    35   BiDi ~ 0
MISO
Wire Wire Line
	4080 2390 4180 2390
Text GLabel 4190 2990 2    35   BiDi ~ 0
USB_D+
Text GLabel 4190 2890 2    35   BiDi ~ 0
USB_D-
Wire Wire Line
	4080 2890 4190 2890
Wire Wire Line
	4080 2990 4190 2990
Text GLabel 2980 2890 0    35   BiDi ~ 0
SWO
Wire Wire Line
	3080 2890 2980 2890
Text GLabel 4180 3090 2    35   BiDi ~ 0
SWIO
Wire Wire Line
	4080 3090 4180 3090
Text GLabel 4180 3190 2    35   BiDi ~ 0
SWCLK
Wire Wire Line
	4080 3190 4180 3190
Text GLabel 5200 1480 0    35   BiDi ~ 0
SWCLK
Wire Wire Line
	5300 1480 5200 1480
Text GLabel 5140 1680 0    35   BiDi ~ 0
SWO
Wire Wire Line
	5300 1680 5140 1680
Text GLabel 5120 1380 0    35   BiDi ~ 0
~RST
Wire Wire Line
	5120 1380 5300 1380
$Comp
L power:GNDD #PWR?
U 1 1 6051520C
P 3580 3630
AR Path="/6051520C" Ref="#PWR?"  Part="1" 
AR Path="/60503AAD/6051520C" Ref="#PWR0108"  Part="1" 
F 0 "#PWR0108" H 3580 3480 50  0001 C CNN
F 1 "GNDD" H 3584 3475 50  0000 C CNN
F 2 "" H 3580 3630 50  0001 C CNN
F 3 "" H 3580 3630 50  0001 C CNN
	1    3580 3630
	1    0    0    -1  
$EndComp
Wire Wire Line
	3580 3560 3580 3630
Wire Wire Line
	3480 1520 3580 1520
Connection ~ 3580 1520
Wire Wire Line
	3580 1520 3680 1520
Wire Wire Line
	3480 1520 3480 1590
Wire Wire Line
	3580 1590 3580 1520
Wire Wire Line
	3680 1590 3680 1520
Text GLabel 5160 1580 0    35   BiDi ~ 0
SWIO
Wire Wire Line
	5300 1580 5160 1580
$Comp
L power:GNDD #PWR?
U 1 1 60515223
P 4760 1320
AR Path="/60515223" Ref="#PWR?"  Part="1" 
AR Path="/60503AAD/60515223" Ref="#PWR0109"  Part="1" 
F 0 "#PWR0109" H 4760 1170 50  0001 C CNN
F 1 "GNDD" H 4764 1165 50  0000 C CNN
F 2 "" H 4760 1320 50  0001 C CNN
F 3 "" H 4760 1320 50  0001 C CNN
	1    4760 1320
	1    0    0    -1  
$EndComp
Wire Wire Line
	4760 1320 4760 1280
Wire Wire Line
	4760 1280 5300 1280
Wire Wire Line
	4760 1180 5300 1180
Text GLabel 4180 1890 2    35   BiDi ~ 0
SCK
Wire Wire Line
	4080 1890 4180 1890
Text GLabel 4190 2190 2    35   BiDi ~ 0
NSS
Wire Wire Line
	4080 1990 4180 1990
Text HLabel 6570 1365 2    50   BiDi Italic 0
I2C_SCL
Text GLabel 6460 1465 0    35   BiDi ~ 0
I2C_SDA
Text GLabel 6450 1265 0    35   BiDi ~ 0
~INT
Text GLabel 6460 1365 0    35   BiDi ~ 0
I2C_SCL
Wire Wire Line
	6570 1365 6460 1365
Wire Wire Line
	6570 1465 6460 1465
Wire Wire Line
	6570 1265 6450 1265
Text GLabel 6540 1975 0    35   BiDi ~ 0
USB_D+
Text GLabel 6540 1875 0    35   BiDi ~ 0
USB_D-
Wire Wire Line
	6650 1875 6540 1875
Wire Wire Line
	6650 1975 6540 1975
Text GLabel 6530 2415 0    35   BiDi ~ 0
MOSI
Wire Wire Line
	6630 2415 6530 2415
Text GLabel 6530 2515 0    35   BiDi ~ 0
MISO
Wire Wire Line
	6630 2515 6530 2515
Text HLabel 6570 1465 2    50   BiDi Italic 0
I2C_SDA
Text HLabel 6650 1875 2    50   BiDi Italic 0
USB_D-
Text HLabel 6650 1975 2    50   BiDi Italic 0
USB_D+
$Comp
L power:GNDD #PWR?
U 1 1 60567631
P 1900 1780
AR Path="/60567631" Ref="#PWR?"  Part="1" 
AR Path="/60503AAD/60567631" Ref="#PWR0110"  Part="1" 
F 0 "#PWR0110" H 1900 1630 50  0001 C CNN
F 1 "GNDD" H 1904 1625 50  0000 C CNN
F 2 "" H 1900 1780 50  0001 C CNN
F 3 "" H 1900 1780 50  0001 C CNN
	1    1900 1780
	1    0    0    -1  
$EndComp
$Comp
L Device:R_US R?
U 1 1 60567637
P 1900 1430
AR Path="/60567637" Ref="R?"  Part="1" 
AR Path="/60503AAD/60567637" Ref="R3"  Part="1" 
F 0 "R3" H 1720 1420 50  0000 L CNN
F 1 "10k" H 1968 1385 50  0001 L CNN
F 2 "Resistor_SMD:R_0402_1005Metric" V 1940 1420 50  0001 C CNN
F 3 "~" H 1900 1430 50  0001 C CNN
	1    1900 1430
	1    0    0    -1  
$EndComp
$Comp
L Device:C_Small C?
U 1 1 60567643
P 1900 1680
AR Path="/60567643" Ref="C?"  Part="1" 
AR Path="/60503AAD/60567643" Ref="C2"  Part="1" 
F 0 "C2" H 1700 1680 50  0000 L CNN
F 1 "100n" H 1992 1635 50  0001 L CNN
F 2 "Capacitor_SMD:C_0402_1005Metric" H 1900 1680 50  0001 C CNN
F 3 "~" H 1900 1680 50  0001 C CNN
	1    1900 1680
	1    0    0    -1  
$EndComp
Connection ~ 1900 1580
Wire Wire Line
	1900 1580 2040 1580
Text GLabel 2040 1580 2    35   BiDi ~ 0
~RST
$Comp
L Device:R_US R?
U 1 1 6056764C
P 1395 2495
AR Path="/6056764C" Ref="R?"  Part="1" 
AR Path="/60503AAD/6056764C" Ref="R2"  Part="1" 
F 0 "R2" H 1463 2495 50  0000 L CNN
F 1 "10k" H 1463 2450 50  0001 L CNN
F 2 "Resistor_SMD:R_0402_1005Metric" V 1435 2485 50  0001 C CNN
F 3 "~" H 1395 2495 50  0001 C CNN
	1    1395 2495
	1    0    0    -1  
$EndComp
$Comp
L power:GNDD #PWR?
U 1 1 60567652
P 1395 2645
AR Path="/60567652" Ref="#PWR?"  Part="1" 
AR Path="/60503AAD/60567652" Ref="#PWR0111"  Part="1" 
F 0 "#PWR0111" H 1395 2495 50  0001 C CNN
F 1 "GNDD" H 1399 2490 50  0000 C CNN
F 2 "" H 1395 2645 50  0001 C CNN
F 3 "" H 1395 2645 50  0001 C CNN
	1    1395 2645
	1    0    0    -1  
$EndComp
Text GLabel 1495 2305 2    35   BiDi ~ 0
BOOT
Wire Wire Line
	1395 2305 1495 2305
Text HLabel 6630 2415 2    50   BiDi Italic 0
MOSI
Text HLabel 6630 2515 2    50   BiDi Italic 0
MISO
Text HLabel 6570 1265 2    50   BiDi Italic 0
~INT
Text GLabel 6530 2615 0    35   BiDi ~ 0
SCK
Wire Wire Line
	6630 2615 6530 2615
Text GLabel 6530 2715 0    35   BiDi ~ 0
NSS
Wire Wire Line
	6630 2715 6530 2715
Text HLabel 6630 2615 2    50   BiDi Italic 0
SCK
Text HLabel 6630 2715 2    50   Output Italic 0
NSS
Text GLabel 2980 2790 0    35   BiDi ~ 0
CHRG_ST
Wire Wire Line
	3080 2790 2980 2790
Text GLabel 6470 1065 0    35   BiDi ~ 0
CHRG_ST
Wire Wire Line
	6570 1065 6470 1065
Text HLabel 6570 1065 2    50   BiDi Italic 0
CHRG_ST
Wire Wire Line
	4760 1180 4760 1080
$Comp
L power:+3.3V #PWR?
U 1 1 5F969E25
P 4760 1080
AR Path="/5F969E25" Ref="#PWR?"  Part="1" 
AR Path="/60503AAD/5F969E25" Ref="#PWR0112"  Part="1" 
F 0 "#PWR0112" H 4760 930 50  0001 C CNN
F 1 "+3.3V" H 4775 1253 50  0000 C CNN
F 2 "" H 4760 1080 50  0001 C CNN
F 3 "" H 4760 1080 50  0001 C CNN
	1    4760 1080
	1    0    0    -1  
$EndComp
$Comp
L power:+3.3V #PWR?
U 1 1 5F970CD7
P 3580 1420
AR Path="/5F970CD7" Ref="#PWR?"  Part="1" 
AR Path="/60503AAD/5F970CD7" Ref="#PWR0113"  Part="1" 
F 0 "#PWR0113" H 3580 1270 50  0001 C CNN
F 1 "+3.3V" H 3595 1593 50  0000 C CNN
F 2 "" H 3580 1420 50  0001 C CNN
F 3 "" H 3580 1420 50  0001 C CNN
	1    3580 1420
	1    0    0    -1  
$EndComp
Wire Wire Line
	3580 1520 3580 1420
$Comp
L power:+3.3V #PWR?
U 1 1 5F9736EC
P 1900 1280
AR Path="/5F9736EC" Ref="#PWR?"  Part="1" 
AR Path="/60503AAD/5F9736EC" Ref="#PWR0114"  Part="1" 
F 0 "#PWR0114" H 1900 1130 50  0001 C CNN
F 1 "+3.3V" H 1915 1453 50  0000 C CNN
F 2 "" H 1900 1280 50  0001 C CNN
F 3 "" H 1900 1280 50  0001 C CNN
	1    1900 1280
	1    0    0    -1  
$EndComp
Text GLabel 4180 1990 2    35   BiDi ~ 0
UART_TX
Wire Wire Line
	4080 2090 4180 2090
Text GLabel 4180 2090 2    35   BiDi ~ 0
UART_RX
Wire Wire Line
	4080 2190 4190 2190
NoConn ~ 4080 3290
NoConn ~ 3080 2990
NoConn ~ 3080 2690
$Comp
L Device:LED_Small D?
U 1 1 5F9B8F43
P 2390 2820
AR Path="/5F9B8F43" Ref="D?"  Part="1" 
AR Path="/5F80FF53/5F9B8F43" Ref="D?"  Part="1" 
AR Path="/60503AAD/5F9B8F43" Ref="D4"  Part="1" 
F 0 "D4" H 2390 2707 50  0000 C CNN
F 1 "Red" H 2390 2950 50  0000 C CNN
F 2 "LED_SMD:LED_0603_1608Metric" V 2390 2820 50  0001 C CNN
F 3 "~" V 2390 2820 50  0001 C CNN
	1    2390 2820
	0    -1   -1   0   
$EndComp
Wire Wire Line
	2390 2520 2390 2390
$Comp
L Device:R_Small_US R?
U 1 1 5F9B8F4A
P 2390 2620
AR Path="/5F9B8F4A" Ref="R?"  Part="1" 
AR Path="/5F80FF53/5F9B8F4A" Ref="R?"  Part="1" 
AR Path="/60503AAD/5F9B8F4A" Ref="R14"  Part="1" 
F 0 "R14" V 2503 2620 50  0000 C CNN
F 1 "10k" V 2250 2630 50  0000 C CNN
F 2 "Resistor_SMD:R_0402_1005Metric" H 2390 2620 50  0001 C CNN
F 3 "~" H 2390 2620 50  0001 C CNN
	1    2390 2620
	1    0    0    -1  
$EndComp
$Comp
L power:GNDD #PWR?
U 1 1 5F9BB4DE
P 2390 2920
AR Path="/5F9BB4DE" Ref="#PWR?"  Part="1" 
AR Path="/60503AAD/5F9BB4DE" Ref="#PWR03"  Part="1" 
F 0 "#PWR03" H 2390 2770 50  0001 C CNN
F 1 "GNDD" H 2394 2765 50  0000 C CNN
F 2 "" H 2390 2920 50  0001 C CNN
F 3 "" H 2390 2920 50  0001 C CNN
	1    2390 2920
	1    0    0    -1  
$EndComp
Wire Wire Line
	2390 2390 3080 2390
$Comp
L Connector:Conn_01x04_Male J4
U 1 1 5F9752A7
P 4835 2390
F 0 "J4" H 5150 2190 50  0000 R CNN
F 1 "Conn_01x04_Male" H 5395 2605 50  0000 R CNN
F 2 "Wireless_ECG_PPG_lib:Edge 2.54 2x2" H 4835 2390 50  0001 C CNN
F 3 "~" H 4835 2390 50  0001 C CNN
	1    4835 2390
	1    0    0    -1  
$EndComp
Text GLabel 5100 2490 2    35   BiDi ~ 0
UART_TX
Text GLabel 5100 2290 2    35   BiDi ~ 0
UART_RX
Wire Wire Line
	5035 2490 5100 2490
Wire Wire Line
	5035 2290 5100 2290
$Comp
L power:GNDD #PWR?
U 1 1 5F9B0CFD
P 5435 2630
AR Path="/5F9B0CFD" Ref="#PWR?"  Part="1" 
AR Path="/60503AAD/5F9B0CFD" Ref="#PWR0140"  Part="1" 
F 0 "#PWR0140" H 5435 2480 50  0001 C CNN
F 1 "GNDD" H 5439 2475 50  0000 C CNN
F 2 "" H 5435 2630 50  0001 C CNN
F 3 "" H 5435 2630 50  0001 C CNN
	1    5435 2630
	-1   0    0    -1  
$EndComp
Wire Wire Line
	5435 2585 5035 2590
Wire Wire Line
	1395 2345 1395 2305
$Comp
L power:+3.3V #PWR?
U 1 1 5FA2A581
P 5200 3425
AR Path="/606B0085/5FA2A581" Ref="#PWR?"  Part="1" 
AR Path="/60503AAD/5FA2A581" Ref="#PWR0103"  Part="1" 
F 0 "#PWR0103" H 5200 3275 50  0001 C CNN
F 1 "+3.3V" H 5160 3595 50  0000 C CNN
F 2 "" H 5200 3425 50  0001 C CNN
F 3 "" H 5200 3425 50  0001 C CNN
	1    5200 3425
	1    0    0    -1  
$EndComp
$Comp
L Device:C_Small C?
U 1 1 5FA2D34C
P 5200 3620
AR Path="/606B0085/5FA2D34C" Ref="C?"  Part="1" 
AR Path="/60503AAD/5FA2D34C" Ref="C21"  Part="1" 
F 0 "C21" H 5050 3710 50  0000 L CNN
F 1 "100n" H 4960 3560 50  0000 L CNN
F 2 "Capacitor_SMD:C_0402_1005Metric" H 5200 3620 50  0001 C CNN
F 3 "~" H 5200 3620 50  0001 C CNN
	1    5200 3620
	1    0    0    -1  
$EndComp
Wire Wire Line
	5200 3470 5200 3425
Wire Wire Line
	5200 3470 5200 3520
Connection ~ 5200 3470
Wire Wire Line
	5200 3470 5525 3470
Wire Wire Line
	5525 3470 5525 3520
$Comp
L Device:C_Small C?
U 1 1 5FA2EF09
P 5525 3620
AR Path="/606B0085/5FA2EF09" Ref="C?"  Part="1" 
AR Path="/60503AAD/5FA2EF09" Ref="C25"  Part="1" 
F 0 "C25" H 5375 3710 50  0000 L CNN
F 1 "100n" H 5285 3560 50  0000 L CNN
F 2 "Capacitor_SMD:C_0402_1005Metric" H 5525 3620 50  0001 C CNN
F 3 "~" H 5525 3620 50  0001 C CNN
	1    5525 3620
	1    0    0    -1  
$EndComp
Wire Wire Line
	5200 3470 4875 3470
Wire Wire Line
	4875 3470 4875 3520
$Comp
L Device:C_Small C?
U 1 1 5FA477DC
P 4875 3620
AR Path="/606B0085/5FA477DC" Ref="C?"  Part="1" 
AR Path="/60503AAD/5FA477DC" Ref="C20"  Part="1" 
F 0 "C20" H 4725 3710 50  0000 L CNN
F 1 "100n" H 4635 3560 50  0000 L CNN
F 2 "Capacitor_SMD:C_0402_1005Metric" H 4875 3620 50  0001 C CNN
F 3 "~" H 4875 3620 50  0001 C CNN
	1    4875 3620
	1    0    0    -1  
$EndComp
Text GLabel 6230 3120 0    35   BiDi ~ 0
~IRQ_c
Text HLabel 6630 3120 2    50   Input Italic 0
~IRQ
Text GLabel 4190 2290 2    35   BiDi ~ 0
~IRQ_c
Wire Wire Line
	4080 2290 4190 2290
Wire Wire Line
	6630 3120 6525 3120
$Comp
L Device:Net-Tie_2 NT?
U 1 1 5FAA48BF
P 6425 3120
AR Path="/606B0085/5FAA48BF" Ref="NT?"  Part="1" 
AR Path="/5FAA48BF" Ref="NT?"  Part="1" 
AR Path="/60503AAD/5FAA48BF" Ref="NT7"  Part="1" 
F 0 "NT7" H 6430 3165 50  0000 C CNN
F 1 "Net-Tie_2" H 6445 2980 50  0001 C CNN
F 2 "Resistor_SMD:R_0402_1005Metric" H 6425 3120 50  0001 C CNN
F 3 "~" H 6425 3120 50  0001 C CNN
	1    6425 3120
	1    0    0    -1  
$EndComp
Wire Wire Line
	6325 3120 6230 3120
Text GLabel 4190 2590 2    35   BiDi ~ 0
~INT
Wire Wire Line
	4080 2590 4190 2590
NoConn ~ 4080 2490
NoConn ~ 3080 2490
NoConn ~ 3080 3190
NoConn ~ 3080 3290
Wire Wire Line
	4875 3720 4875 3770
Wire Wire Line
	5200 3770 4875 3770
Wire Wire Line
	5525 3720 5525 3770
Connection ~ 5200 3770
Wire Wire Line
	5200 3770 5525 3770
$Comp
L power:GNDD #PWR?
U 1 1 5FA2A596
P 5200 3770
AR Path="/5FA2A596" Ref="#PWR?"  Part="1" 
AR Path="/606B0085/5FA2A596" Ref="#PWR?"  Part="1" 
AR Path="/60503AAD/5FA2A596" Ref="#PWR0144"  Part="1" 
F 0 "#PWR0144" H 5200 3620 50  0001 C CNN
F 1 "GNDD" H 5204 3615 50  0000 C CNN
F 2 "" H 5200 3770 50  0001 C CNN
F 3 "" H 5200 3770 50  0001 C CNN
	1    5200 3770
	1    0    0    -1  
$EndComp
Wire Wire Line
	5200 3770 5200 3720
Wire Wire Line
	5435 2585 5435 2630
Wire Wire Line
	5435 2585 5435 2390
Wire Wire Line
	5435 2390 5035 2390
Connection ~ 5435 2585
Text GLabel 6525 3255 0    35   BiDi ~ 0
~INT~_VDI
Text HLabel 6630 3255 2    50   BiDi ~ 0
~INT~_VDI
Wire Wire Line
	6525 3255 6630 3255
Text GLabel 4185 1790 2    35   BiDi ~ 0
~INT~_VDI
Wire Wire Line
	4185 1790 4080 1790
$EndSCHEMATC
