EESchema Schematic File Version 4
EELAYER 30 0
EELAYER END
$Descr User 9843 6299
encoding utf-8
Sheet 1 9
Title "Top sheet"
Date "2020-08-01"
Rev "1"
Comp "AGH Faculty of Electrical Engineering, Automatics, Computer Science and Biomedical Engineering"
Comment1 ""
Comment2 "Sytem for aquisition and transmission of biomedical data "
Comment3 ""
Comment4 ""
$EndDescr
Wire Wire Line
	5630 3275 6620 3275
$Sheet
S 7490 1450 860  520 
U 5F850906
F0 "LDO_1V8" 50
F1 "LDO_1V8.sch" 50
F2 "V_OUT" O R 8350 1580 50 
F3 "EN" I L 7490 1810 50 
F4 "V_IN" I L 7490 1570 50 
$EndSheet
$Sheet
S 6140 1440 860  520 
U 5F86B5C1
F0 "LDO_3V3" 50
F1 "LDO_3V3.sch" 50
F2 "V_OUT" O R 7000 1570 50 
F3 "V_IN" I L 6140 1560 50 
$EndSheet
Connection ~ 7200 1810
Wire Wire Line
	7200 1830 7200 1810
Wire Wire Line
	7200 1790 7200 1810
Wire Wire Line
	7200 1570 7320 1570
Connection ~ 7200 1570
Wire Wire Line
	7200 1590 7200 1570
Wire Wire Line
	7490 1810 7200 1810
Connection ~ 7320 1570
$Sheet
S 2305 3005 960  750 
U 606B0085
F0 "ECG_MODULE.sch" 50
F1 "ECG_MODULE.sch" 50
F2 "ECG_N" B L 2305 3345 50 
F3 "ECG_P" B L 2305 3145 50 
F4 "~INT" B R 3265 3485 50 
F5 "12C_SDA" B R 3265 3385 50 
F6 "I2C_SCL" B R 3265 3305 50 
$EndSheet
Wire Wire Line
	3265 3485 4495 3485
Wire Wire Line
	3265 3385 4495 3385
Wire Wire Line
	3265 3305 4495 3305
Wire Wire Line
	1905 3730 1905 3045
Wire Wire Line
	1715 3045 1905 3045
Wire Wire Line
	1715 3145 2305 3145
$Comp
L Connector:AudioJack3_SwitchTR J1
U 1 1 5F8E2472
P 1515 3145
F 0 "J1" H 1497 3470 50  0000 C CNN
F 1 "AudioJack3_SwitchTR" H 1497 3379 50  0000 C CNN
F 2 "Wireless_ECG_PPG_lib:CUI_SJ-3503-SMT" H 1515 3145 50  0001 C CNN
F 3 "~" H 1515 3145 50  0001 C CNN
	1    1515 3145
	1    0    0    -1  
$EndComp
$Sheet
S 4600 1410 910  640 
U 5F8291B0
F0 "SOFT_LATCH" 50
F1 "SOFT_LATCH.sch" 50
F2 "SOURCE" I L 4600 1560 50 
F3 "LOAD" O R 5510 1560 50 
$EndSheet
Wire Wire Line
	3630 1690 3460 1690
Wire Wire Line
	3630 2895 3630 1690
Wire Wire Line
	4495 2895 3630 2895
Text GLabel 4385 3005 0    50   BiDi ~ 0
USB_D_-
Text GLabel 4385 3105 0    50   BiDi ~ 0
USB_D_+
Wire Wire Line
	1970 1690 2060 1690
Text GLabel 2060 1790 2    50   BiDi ~ 0
USB_D_+
Text GLabel 2060 1690 2    50   BiDi ~ 0
USB_D_-
Wire Wire Line
	1970 1790 2060 1790
Wire Wire Line
	8505 1580 8505 1430
Wire Wire Line
	8350 1580 8505 1580
Wire Wire Line
	7320 1570 7320 1420
Wire Wire Line
	7000 1570 7200 1570
$Comp
L power:+3.3V #PWR0106
U 1 1 5F8986C3
P 7320 1420
F 0 "#PWR0106" H 7320 1270 50  0001 C CNN
F 1 "+3.3V" H 7335 1593 50  0000 C CNN
F 2 "" H 7320 1420 50  0001 C CNN
F 3 "" H 7320 1420 50  0001 C CNN
	1    7320 1420
	1    0    0    -1  
$EndComp
$Comp
L power:+1V8 #PWR0105
U 1 1 5F897E60
P 8505 1430
F 0 "#PWR0105" H 8505 1280 50  0001 C CNN
F 1 "+1V8" H 8505 1580 50  0000 C CNN
F 2 "" H 8505 1430 50  0001 C CNN
F 3 "" H 8505 1430 50  0001 C CNN
	1    8505 1430
	1    0    0    -1  
$EndComp
Wire Wire Line
	3460 1560 3810 1560
Connection ~ 3810 1560
Wire Wire Line
	3810 1560 4600 1560
Wire Wire Line
	3810 2160 3810 2230
Wire Wire Line
	3810 1560 3810 1860
$Comp
L Device:Battery_Cell BT1
U 1 1 5F87A177
P 3810 2060
F 0 "BT1" H 3928 2156 50  0000 L CNN
F 1 "3.7 V Li-Ion" H 3928 2065 50  0000 L CNN
F 2 "Wireless_ECG_PPG_lib:LP601730" V 3810 2120 50  0001 C CNN
F 3 "~" V 3810 2120 50  0001 C CNN
	1    3810 2060
	1    0    0    -1  
$EndComp
$Comp
L power:GNDD #PWR0104
U 1 1 5F8760B0
P 3810 2230
F 0 "#PWR0104" H 3810 2080 50  0001 C CNN
F 1 "GNDD" H 3814 2075 50  0000 C CNN
F 2 "" H 3810 2230 50  0001 C CNN
F 3 "" H 3810 2230 50  0001 C CNN
	1    3810 2230
	1    0    0    -1  
$EndComp
Wire Wire Line
	7320 1570 7490 1570
$Comp
L power:GNDD #PWR0102
U 1 1 5F85511D
P 7200 2030
F 0 "#PWR0102" H 7200 1880 50  0001 C CNN
F 1 "GNDD" H 7204 1875 50  0000 C CNN
F 2 "" H 7200 2030 50  0001 C CNN
F 3 "" H 7200 2030 50  0001 C CNN
	1    7200 2030
	1    0    0    -1  
$EndComp
$Comp
L Device:R_Small_US R1
U 1 1 5F855115
P 7200 1690
F 0 "R1" H 7087 1690 50  0000 C CNN
F 1 "R_Small_US" H 7268 1645 50  0001 L CNN
F 2 "Resistor_SMD:R_0402_1005Metric" H 7200 1690 50  0001 C CNN
F 3 "~" H 7200 1690 50  0001 C CNN
	1    7200 1690
	1    0    0    -1  
$EndComp
$Comp
L Device:C_Small C1
U 1 1 5F85510C
P 7200 1930
F 0 "C1" H 7010 1930 50  0000 L CNN
F 1 "10μ" H 7292 1885 50  0001 L CNN
F 2 "Capacitor_SMD:C_0603_1608Metric" H 7200 1930 50  0001 C CNN
F 3 "~" H 7200 1930 50  0001 C CNN
	1    7200 1930
	1    0    0    -1  
$EndComp
$Sheet
S 2740 1410 720  470 
U 5F80FF53
F0 "BATT_CHRG" 50
F1 "BATT_CHRG.sch" 50
F2 "VBAT" O R 3460 1560 50 
F3 "CHRG_ST" O R 3460 1690 50 
F4 "VDD" I L 2740 1530 50 
$EndSheet
$Comp
L power:GNDA #PWR0101
U 1 1 5F7E3C6F
P 1905 3730
AR Path="/5F7E3C6F" Ref="#PWR0101"  Part="1" 
AR Path="/606B0085/5F7E3C6F" Ref="#PWR?"  Part="1" 
F 0 "#PWR0101" H 1905 3480 50  0001 C CNN
F 1 "GNDA" H 2075 3690 50  0000 C CNN
F 2 "" H 1905 3730 50  0001 C CNN
F 3 "" H 1905 3730 50  0001 C CNN
	1    1905 3730
	1    0    0    -1  
$EndComp
Wire Wire Line
	4385 3105 4495 3105
Wire Wire Line
	4385 3005 4495 3005
$Sheet
S 1400 1440 570  440 
U 606325D3
F0 "USB_C+PROT" 50
F1 "USB_C+PROT.sch" 50
F2 "USB_D_-" B R 1970 1690 50 
F3 "USB_D_+" B R 1970 1790 50 
$EndSheet
Wire Wire Line
	5630 3195 6620 3195
Wire Wire Line
	6620 3105 5630 3105
$Sheet
S 6620 2855 870  950 
U 605C5182
F0 "RFM12B+ANT" 50
F1 "RFM12B+ANT.sch" 50
F2 "SDO" B L 6620 3105 50 
F3 "SDI" B L 6620 3015 50 
F4 "SCK" B L 6620 3195 50 
F5 "~SEL" B L 6620 3275 50 
F6 "~IRQ" B L 6620 3475 50 
F7 "~INT~_VDI" B L 6620 3560 50 
$EndSheet
$Sheet
S 4495 2565 1135 1225
U 60503AAD
F0 "STM32L432" 50
F1 "STM32L432.sch" 50
F2 "NSS" I R 5630 3275 50 
F3 "I2C_SCL" B L 4495 3305 50 
F4 "I2C_SDA" B L 4495 3385 50 
F5 "MOSI" B R 5630 3015 50 
F6 "MISO" B R 5630 3105 50 
F7 "~INT" B L 4495 3485 50 
F8 "SCK" B R 5630 3195 50 
F9 "USB_D-" B L 4495 3005 50 
F10 "USB_D+" B L 4495 3105 50 
F11 "CHRG_ST" B L 4495 2895 50 
F12 "~IRQ" I R 5630 3475 50 
F13 "~INT~_VDI" B R 5630 3560 50 
$EndSheet
Wire Wire Line
	1715 3345 2305 3345
NoConn ~ 1715 3245
NoConn ~ 1715 3445
$Comp
L power:+5VD #PWR?
U 1 1 5F9DAFB9
P 2650 1385
AR Path="/6066FE6E/5F9DAFB9" Ref="#PWR?"  Part="1" 
AR Path="/606325D3/5F9DAFB9" Ref="#PWR?"  Part="1" 
AR Path="/5F9DAFB9" Ref="#PWR0107"  Part="1" 
F 0 "#PWR0107" H 2650 1235 50  0001 C CNN
F 1 "+5VD" H 2665 1558 50  0000 C CNN
F 2 "" H 2650 1385 50  0001 C CNN
F 3 "" H 2650 1385 50  0001 C CNN
	1    2650 1385
	1    0    0    -1  
$EndComp
Wire Wire Line
	2740 1530 2650 1530
Wire Wire Line
	2650 1385 2650 1530
Wire Wire Line
	5510 1560 6140 1560
$Comp
L power:+1.8VA #PWR?
U 1 1 5FA0CA6B
P 8825 1430
AR Path="/606B0085/5FA0CA6B" Ref="#PWR?"  Part="1" 
AR Path="/5FA0CA6B" Ref="#PWR04"  Part="1" 
F 0 "#PWR04" H 8825 1280 50  0001 C CNN
F 1 "+1.8VA" H 8815 1580 50  0000 C CNN
F 2 "" H 8775 1380 50  0001 C CNN
F 3 "" H 8825 1430 50  0001 C CNN
	1    8825 1430
	1    0    0    -1  
$EndComp
Wire Wire Line
	8825 1430 8825 1580
$Comp
L Device:Net-Tie_2 NT?
U 1 1 5FA12A3E
P 8670 1580
AR Path="/606B0085/5FA12A3E" Ref="NT?"  Part="1" 
AR Path="/5FA12A3E" Ref="NT5"  Part="1" 
F 0 "NT5" H 8680 1620 50  0000 C CNN
F 1 "Net-Tie_2" H 8690 1440 50  0001 C CNN
F 2 "Resistor_SMD:R_0402_1005Metric" H 8670 1580 50  0001 C CNN
F 3 "~" H 8670 1580 50  0001 C CNN
	1    8670 1580
	1    0    0    -1  
$EndComp
Wire Wire Line
	8505 1580 8570 1580
Connection ~ 8505 1580
Wire Wire Line
	8770 1580 8825 1580
Wire Wire Line
	5630 3475 6620 3475
$Comp
L Wireless_ECG_PPG_lib:AGH_logo U9
U 1 1 5FA261D1
P 765 5455
F 0 "U9" H 790 5501 50  0001 L CNN
F 1 "AGH_logo" H 655 5565 50  0000 L CNN
F 2 "Wireless_ECG_PPG_lib:AGH_logo_F.s" H 765 5455 50  0001 C CNN
F 3 "" H 765 5455 50  0001 C CNN
	1    765  5455
	1    0    0    -1  
$EndComp
$Comp
L Mechanical:MountingHole_Pad H1
U 1 1 5FA739EA
P 3090 4875
F 0 "H1" V 3044 5025 50  0000 L CNN
F 1 "MountingHole_Pad" V 3135 5025 50  0000 L CNN
F 2 "MountingHole:MountingHole_2.2mm_M2_Pad" V 3181 5025 50  0001 L CNN
F 3 "~" H 3090 4875 50  0001 C CNN
	1    3090 4875
	0    1    1    0   
$EndComp
$Comp
L Mechanical:MountingHole_Pad H2
U 1 1 5FA7460D
P 3090 5140
F 0 "H2" V 3044 5290 50  0000 L CNN
F 1 "MountingHole_Pad" V 3135 5290 50  0000 L CNN
F 2 "MountingHole:MountingHole_2.2mm_M2_Pad" H 3090 5140 50  0001 C CNN
F 3 "~" H 3090 5140 50  0001 C CNN
	1    3090 5140
	0    1    1    0   
$EndComp
Wire Wire Line
	2990 4875 2850 4875
Wire Wire Line
	2850 4875 2850 5140
Wire Wire Line
	2990 5140 2850 5140
Connection ~ 2850 5140
Wire Wire Line
	2850 5140 2850 5365
$Comp
L power:GNDD #PWR0145
U 1 1 5FA780A0
P 2850 5365
F 0 "#PWR0145" H 2850 5215 50  0001 C CNN
F 1 "GNDD" H 2854 5210 50  0000 C CNN
F 2 "" H 2850 5365 50  0001 C CNN
F 3 "" H 2850 5365 50  0001 C CNN
	1    2850 5365
	1    0    0    -1  
$EndComp
Wire Wire Line
	5630 3560 6620 3560
$Comp
L Wireless_ECG_PPG_lib:AGH_logo U10
U 1 1 5FA7B3A5
P 815 5630
F 0 "U10" H 840 5676 50  0001 L CNN
F 1 "sb_logo" H 670 5715 50  0000 L CNN
F 2 "Wireless_ECG_PPG_lib:sb_logo" H 815 5630 50  0001 C CNN
F 3 "" H 815 5630 50  0001 C CNN
	1    815  5630
	1    0    0    -1  
$EndComp
Wire Wire Line
	5630 3015 6620 3015
$EndSCHEMATC
