EESchema Schematic File Version 4
EELAYER 30 0
EELAYER END
$Descr User 10000 6000
encoding utf-8
Sheet 2 5
Title ""
Date "2020-08-01"
Rev "1"
Comp "AGH Faculty of Electrical Engineering, Automatics, Computer Science and Biomedical Engineering"
Comment1 ""
Comment2 "Sytem for aquisition and transmission of biomedical data "
Comment3 ""
Comment4 ""
$EndDescr
$Comp
L Device:Ferrite_Bead_Small FB?
U 1 1 6063A13B
P 4900 2110
AR Path="/6063A13B" Ref="FB?"  Part="1" 
AR Path="/606325D3/6063A13B" Ref="FB1"  Part="1" 
AR Path="/5FA43884/6063A13B" Ref="FB1"  Part="1" 
F 0 "FB1" V 5000 2110 50  0000 L CNN
F 1 "Ferrite_Bead_Small" H 5000 2065 50  0001 L CNN
F 2 "Inductor_SMD:L_0603_1608Metric" V 4830 2110 50  0001 C CNN
F 3 "~" H 4900 2110 50  0001 C CNN
	1    4900 2110
	0    1    1    0   
$EndComp
$Comp
L Device:Fuse_Small F?
U 1 1 6063A141
P 4650 2110
AR Path="/6063A141" Ref="F?"  Part="1" 
AR Path="/606325D3/6063A141" Ref="F1"  Part="1" 
AR Path="/5FA43884/6063A141" Ref="F1"  Part="1" 
F 0 "F1" H 4650 2203 50  0000 C CNN
F 1 "Fuse_Small" H 4650 2204 50  0001 C CNN
F 2 "Fuse:Fuse_0603_1608Metric" H 4650 2110 50  0001 C CNN
F 3 "~" H 4650 2110 50  0001 C CNN
	1    4650 2110
	-1   0    0    -1  
$EndComp
Wire Wire Line
	4750 2110 4800 2110
Text GLabel 1520 1680 0    50   BiDi ~ 0
USB_D-
Text GLabel 1520 1780 0    50   BiDi ~ 0
USB_D+
Wire Wire Line
	1520 1780 1690 1780
Wire Wire Line
	1520 1680 1690 1680
Text GLabel 3170 1380 2    50   BiDi ~ 0
VBUS
Wire Wire Line
	2890 1380 3170 1380
Text GLabel 3210 1980 2    50   BiDi ~ 0
GND
Wire Wire Line
	2890 1980 3000 1980
Text GLabel 4440 2110 0    50   BiDi ~ 0
VBUS
Wire Wire Line
	4440 2110 4550 2110
Wire Wire Line
	5000 2110 5210 2110
Text GLabel 4440 2710 0    50   BiDi ~ 0
GND
Wire Wire Line
	5210 2710 5210 2780
Wire Wire Line
	4440 2710 5210 2710
$Comp
L power:GNDD #PWR?
U 1 1 6063A167
P 5210 2780
AR Path="/6063A167" Ref="#PWR?"  Part="1" 
AR Path="/606325D3/6063A167" Ref="#PWR0119"  Part="1" 
AR Path="/5FA43884/6063A167" Ref="#PWR0101"  Part="1" 
F 0 "#PWR0101" H 5210 2630 50  0001 C CNN
F 1 "GNDD" H 5214 2625 50  0000 C CNN
F 2 "" H 5210 2780 50  0001 C CNN
F 3 "" H 5210 2780 50  0001 C CNN
	1    5210 2780
	1    0    0    -1  
$EndComp
$Comp
L power:GNDD #PWR?
U 1 1 6067C328
P 6670 2850
AR Path="/6066FE6E/6067C328" Ref="#PWR?"  Part="1" 
AR Path="/606325D3/6067C328" Ref="#PWR0120"  Part="1" 
AR Path="/5FA43884/6067C328" Ref="#PWR0102"  Part="1" 
F 0 "#PWR0102" H 6670 2600 50  0001 C CNN
F 1 "GNDD" H 6674 2695 50  0000 C CNN
F 2 "" H 6670 2850 50  0001 C CNN
F 3 "" H 6670 2850 50  0001 C CNN
	1    6670 2850
	1    0    0    -1  
$EndComp
Wire Wire Line
	7410 3270 7410 3390
Wire Wire Line
	7210 3390 6900 3390
Wire Wire Line
	7210 3270 7210 3390
Connection ~ 7210 3390
Wire Wire Line
	7410 3390 7210 3390
Wire Wire Line
	7410 2270 7410 2150
Wire Wire Line
	7210 2150 6900 2150
Wire Wire Line
	7210 2270 7210 2150
$Comp
L Power_Protection:USBLC6-2SC6 U?
U 1 1 6067C35F
P 7310 2770
AR Path="/6066FE6E/6067C35F" Ref="U?"  Part="1" 
AR Path="/606325D3/6067C35F" Ref="U3"  Part="1" 
AR Path="/5FA43884/6067C35F" Ref="U1"  Part="1" 
F 0 "U1" V 7860 3300 50  0000 L CNN
F 1 "USBLC6-2SC6" V 7740 3060 50  0000 L CNN
F 2 "Package_TO_SOT_SMD:SOT-23-6" H 6560 3170 50  0001 C CNN
F 3 "http://www2.st.com/resource/en/datasheet/CD00050750.pdf" H 7510 3120 50  0001 C CNN
	1    7310 2770
	0    1    -1   0   
$EndComp
$Comp
L power:+5VD #PWR?
U 1 1 6067C365
P 7950 2690
AR Path="/6066FE6E/6067C365" Ref="#PWR?"  Part="1" 
AR Path="/606325D3/6067C365" Ref="#PWR0121"  Part="1" 
AR Path="/5FA43884/6067C365" Ref="#PWR0103"  Part="1" 
F 0 "#PWR0103" H 7950 2540 50  0001 C CNN
F 1 "+5VD" H 7965 2863 50  0000 C CNN
F 2 "" H 7950 2690 50  0001 C CNN
F 3 "" H 7950 2690 50  0001 C CNN
	1    7950 2690
	1    0    0    -1  
$EndComp
Wire Wire Line
	7810 2770 7950 2770
Connection ~ 7210 2150
Wire Wire Line
	7410 2150 7210 2150
Text GLabel 6900 2150 0    50   BiDi ~ 0
USB_D+
Text GLabel 6900 3390 0    50   BiDi ~ 0
USB_D-
$Comp
L Device:LED_ALT D?
U 1 1 6067C34A
P 5210 2560
AR Path="/6066FE6E/6067C34A" Ref="D?"  Part="1" 
AR Path="/606325D3/6067C34A" Ref="D1"  Part="1" 
AR Path="/5FA43884/6067C34A" Ref="D1"  Part="1" 
F 0 "D1" V 5249 2442 50  0000 R CNN
F 1 "LED_ALT" V 5158 2442 50  0000 R CNN
F 2 "LED_SMD:LED_0603_1608Metric" H 5210 2560 50  0001 C CNN
F 3 "~" H 5210 2560 50  0001 C CNN
	1    5210 2560
	0    -1   -1   0   
$EndComp
$Comp
L Device:R_US R?
U 1 1 6067C33A
P 5210 2260
AR Path="/6066FE6E/6067C33A" Ref="R?"  Part="1" 
AR Path="/606325D3/6067C33A" Ref="R6"  Part="1" 
AR Path="/5FA43884/6067C33A" Ref="R3"  Part="1" 
F 0 "R3" H 5278 2306 50  0000 L CNN
F 1 "1k" H 5278 2215 50  0000 L CNN
F 2 "Resistor_SMD:R_0402_1005Metric" V 5250 2250 50  0001 C CNN
F 3 "~" H 5210 2260 50  0001 C CNN
	1    5210 2260
	1    0    0    -1  
$EndComp
Connection ~ 5210 2710
Wire Wire Line
	7950 2770 7950 2690
Wire Wire Line
	6810 2770 6670 2770
Wire Wire Line
	6670 2770 6670 2850
Text GLabel 7740 1190 0    50   BiDi ~ 0
USB_D+
Text GLabel 7740 1090 0    50   BiDi ~ 0
USB_D-
Text HLabel 7930 1090 2    50   BiDi Italic 0
USB_D_-
Text HLabel 7930 1190 2    50   BiDi Italic 0
USB_D_+
Wire Wire Line
	7740 1090 7930 1090
Wire Wire Line
	7740 1190 7930 1190
Connection ~ 5210 2110
Text GLabel 1370 1480 0    50   BiDi ~ 0
CC1
Wire Wire Line
	1370 1480 1690 1480
Text GLabel 1370 1980 0    50   BiDi ~ 0
CC2
Wire Wire Line
	1370 1980 1690 1980
Text GLabel 2370 3520 2    50   BiDi ~ 0
CC1
Text GLabel 2370 3660 2    50   BiDi ~ 0
CC2
$Comp
L power:+5VD #PWR?
U 1 1 5F9E13D8
P 5210 2000
AR Path="/6066FE6E/5F9E13D8" Ref="#PWR?"  Part="1" 
AR Path="/606325D3/5F9E13D8" Ref="#PWR0122"  Part="1" 
AR Path="/5FA43884/5F9E13D8" Ref="#PWR0104"  Part="1" 
F 0 "#PWR0104" H 5210 1850 50  0001 C CNN
F 1 "+5VD" H 5225 2173 50  0000 C CNN
F 2 "" H 5210 2000 50  0001 C CNN
F 3 "" H 5210 2000 50  0001 C CNN
	1    5210 2000
	1    0    0    -1  
$EndComp
Wire Wire Line
	5210 2000 5210 2110
$Comp
L Device:R_Small_US R1
U 1 1 5F9E3084
P 1510 3890
F 0 "R1" H 1578 3936 50  0000 L CNN
F 1 "5.1k" H 1578 3845 50  0000 L CNN
F 2 "Resistor_SMD:R_0402_1005Metric" H 1510 3890 50  0001 C CNN
F 3 "~" H 1510 3890 50  0001 C CNN
	1    1510 3890
	1    0    0    -1  
$EndComp
$Comp
L Device:R_Small_US R2
U 1 1 5F9E5EEE
P 1800 3890
F 0 "R2" H 1868 3936 50  0000 L CNN
F 1 "5.1k" H 1868 3845 50  0000 L CNN
F 2 "Capacitor_SMD:C_0402_1005Metric" H 1800 3890 50  0001 C CNN
F 3 "~" H 1800 3890 50  0001 C CNN
	1    1800 3890
	1    0    0    -1  
$EndComp
$Comp
L power:GNDD #PWR?
U 1 1 5F9E64E2
P 1510 3990
AR Path="/5F9E64E2" Ref="#PWR?"  Part="1" 
AR Path="/606325D3/5F9E64E2" Ref="#PWR0123"  Part="1" 
AR Path="/5FA43884/5F9E64E2" Ref="#PWR0105"  Part="1" 
F 0 "#PWR0105" H 1510 3840 50  0001 C CNN
F 1 "GNDD" H 1514 3835 50  0000 C CNN
F 2 "" H 1510 3990 50  0001 C CNN
F 3 "" H 1510 3990 50  0001 C CNN
	1    1510 3990
	1    0    0    -1  
$EndComp
$Comp
L power:GNDD #PWR?
U 1 1 5F9E6F30
P 1800 3990
AR Path="/5F9E6F30" Ref="#PWR?"  Part="1" 
AR Path="/606325D3/5F9E6F30" Ref="#PWR0124"  Part="1" 
AR Path="/5FA43884/5F9E6F30" Ref="#PWR0106"  Part="1" 
F 0 "#PWR0106" H 1800 3840 50  0001 C CNN
F 1 "GNDD" H 1804 3835 50  0000 C CNN
F 2 "" H 1800 3990 50  0001 C CNN
F 3 "" H 1800 3990 50  0001 C CNN
	1    1800 3990
	1    0    0    -1  
$EndComp
Wire Wire Line
	1800 3790 1800 3660
Wire Wire Line
	1800 3660 2370 3660
Wire Wire Line
	1510 3520 1510 3790
Wire Wire Line
	1510 3520 2370 3520
Wire Notes Line
	1390 3400 1390 4500
Wire Notes Line
	1390 4500 2790 4500
Wire Notes Line
	2790 4500 2790 3400
Wire Notes Line
	2790 3400 1390 3400
Text Notes 2040 4430 0    50   ~ 0
For compatability\nwith USB-C\n
$Comp
L USB:DX07S016JA1R1500 J1
U 1 1 5F957991
P 2290 1680
AR Path="/5F957991" Ref="J1"  Part="1" 
AR Path="/5FA43884/5F957991" Ref="J1"  Part="1" 
F 0 "J1" H 2290 2247 50  0000 C CNN
F 1 "DX07S016JA1R1500" H 2290 2156 50  0000 C CNN
F 2 "Wireless_ECG_PPG_lib:JAE_DX07S016JA1R1500" H 2290 1680 50  0001 L BNN
F 3 "Manufacturer Recommendations" H 2290 1680 50  0001 L BNN
F 4 "3.31 mm" H 2290 1680 50  0001 L BNN "Field4"
F 5 "1" H 2290 1680 50  0001 L BNN "Field5"
F 6 "JAE Industry Ltd." H 2290 1680 50  0001 L BNN "Field6"
	1    2290 1680
	1    0    0    -1  
$EndComp
Wire Wire Line
	3000 1980 3000 2080
Wire Wire Line
	3000 2080 2890 2080
Connection ~ 3000 1980
Wire Wire Line
	3000 1980 3210 1980
NoConn ~ 1690 1580
NoConn ~ 1690 1880
$EndSCHEMATC
