EESchema Schematic File Version 4
EELAYER 30 0
EELAYER END
$Descr User 7874 5906
encoding utf-8
Sheet 1 5
Title ""
Date ""
Rev ""
Comp ""
Comment1 ""
Comment2 ""
Comment3 ""
Comment4 ""
$EndDescr
$Sheet
S 925  2510 685  905 
U 5FA43884
F0 "USB_C+PROT" 50
F1 "USB_C+PROT.sch" 50
F2 "USB_D_-" B R 1610 2885 50 
F3 "USB_D_+" B R 1610 2990 50 
$EndSheet
$Sheet
S 4265 2550 825  875 
U 5FA43B17
F0 "RFM12B+ANT" 50
F1 "RFM12B+ANT.sch" 50
F2 "SDO" B L 4265 2770 50 
F3 "SDI" B L 4265 2855 50 
F4 "SCK" B L 4265 2930 50 
F5 "~SEL" B L 4265 3010 50 
F6 "~IRQ" B L 4265 3175 50 
F7 "~INT~_VDI" B L 4265 3260 50 
$EndSheet
Wire Wire Line
	1610 2885 2450 2885
Wire Wire Line
	1610 2990 2450 2990
$Sheet
S 2450 2460 975  1015
U 5FA29480
F0 "STM32L432" 50
F1 "STM32L432.sch" 50
F2 "USB_D-" B L 2450 2885 50 
F3 "USB_D+" B L 2450 2990 50 
F4 "MOSI" B R 3425 2855 50 
F5 "MISO" B R 3425 2770 50 
F6 "SCK" B R 3425 2930 50 
F7 "NSS" O R 3425 3010 50 
F8 "~IRQ" I R 3425 3175 50 
F9 "~INT~_VDI" B R 3425 3260 50 
$EndSheet
Wire Wire Line
	3425 2770 4265 2770
Wire Wire Line
	3425 2855 4265 2855
Wire Wire Line
	3425 2930 4265 2930
Wire Wire Line
	3425 3010 4265 3010
Wire Wire Line
	3425 3175 4265 3175
Wire Wire Line
	3425 3260 4265 3260
$Sheet
S 1840 995  940  805 
U 5FA94181
F0 "LDO_3V3.sch" 50
F1 "LDO_3V3.sch" 50
F2 "V_IN" I L 1840 1165 50 
F3 "V_OUT" O R 2780 1170 50 
$EndSheet
$Comp
L power:+5VD #PWR?
U 1 1 5FA9D144
P 1620 1065
AR Path="/6066FE6E/5FA9D144" Ref="#PWR?"  Part="1" 
AR Path="/606325D3/5FA9D144" Ref="#PWR?"  Part="1" 
AR Path="/5FA43884/5FA9D144" Ref="#PWR?"  Part="1" 
AR Path="/5FA9D144" Ref="#PWR0123"  Part="1" 
F 0 "#PWR0123" H 1620 915 50  0001 C CNN
F 1 "+5VD" H 1635 1238 50  0000 C CNN
F 2 "" H 1620 1065 50  0001 C CNN
F 3 "" H 1620 1065 50  0001 C CNN
	1    1620 1065
	1    0    0    -1  
$EndComp
Wire Wire Line
	1840 1165 1620 1165
Wire Wire Line
	1620 1065 1620 1165
$Comp
L power:+3.3V #PWR0124
U 1 1 5FA9F4E6
P 3000 1070
AR Path="/5FA9F4E6" Ref="#PWR0124"  Part="1" 
AR Path="/60503AAD/5FA9F4E6" Ref="#PWR?"  Part="1" 
AR Path="/5FA29480/5FA9F4E6" Ref="#PWR?"  Part="1" 
F 0 "#PWR0124" H 3000 920 50  0001 C CNN
F 1 "+3.3V" H 3015 1243 50  0000 C CNN
F 2 "" H 3000 1070 50  0001 C CNN
F 3 "" H 3000 1070 50  0001 C CNN
	1    3000 1070
	1    0    0    -1  
$EndComp
Wire Wire Line
	2780 1170 3000 1170
Wire Wire Line
	3000 1070 3000 1170
$Comp
L Wireless_ECG_PPG_lib:AGH_logo U5
U 1 1 5FA9536B
P 1140 6800
F 0 "U5" H 1165 6846 50  0001 L CNN
F 1 "AGH_logo" H 1165 6800 50  0000 L CNN
F 2 "Wireless_ECG_PPG_lib:AGH_logo_F.s" H 1140 6800 50  0001 C CNN
F 3 "" H 1140 6800 50  0001 C CNN
	1    1140 6800
	1    0    0    -1  
$EndComp
$EndSCHEMATC
