(module mouse-bite-2mm-slot (layer F.Cu) (tedit 5FA8A30F)
  (fp_text reference mouse-bite-2mm-slot (at 0 -2) (layer F.SilkS) hide
    (effects (font (size 1 1) (thickness 0.2)))
  )
  (fp_text value VAL** (at 0 2.1) (layer F.SilkS) hide
    (effects (font (size 1 1) (thickness 0.2)))
  )
  (fp_circle (center 2 0) (end 2.06 0) (layer Dwgs.User) (width 0.05))
  (fp_circle (center -2 0) (end -2 -0.06) (layer Dwgs.User) (width 0.05))
  (fp_line (start -2 0) (end -2 0) (layer Eco1.User) (width 2))
  (fp_line (start 2 0) (end 2 0) (layer Eco1.User) (width 2))
  (pad "" np_thru_hole circle (at 0 -0.75) (size 0.5 0.5) (drill 0.5) (layers *.Cu *.Mask))
  (pad "" np_thru_hole circle (at 0 0.75) (size 0.5 0.5) (drill 0.5) (layers *.Cu *.Mask))
  (pad "" np_thru_hole circle (at 0.75 -0.75) (size 0.5 0.5) (drill 0.5) (layers *.Cu *.Mask))
  (pad "" np_thru_hole circle (at -0.75 -0.75) (size 0.5 0.5) (drill 0.5) (layers *.Cu *.Mask))
  (pad "" np_thru_hole circle (at -0.75 0.75) (size 0.5 0.5) (drill 0.5) (layers *.Cu *.Mask))
  (pad "" np_thru_hole circle (at 0.75 0.75) (size 0.5 0.5) (drill 0.5) (layers *.Cu *.Mask))
)
